  h    cells  dofs       Phi             D        
0.7071     4    120 1.181e-01    - 1.632e-01    - 
0.3536    16    456 1.652e-02 2.84 1.131e-02 3.85 
0.1768    64   1776 2.127e-03 2.96 7.224e-04 3.97 
0.0884   256   7008 2.679e-04 2.99 4.538e-05 3.99 
0.0442  1024  27840 3.355e-05 3.00 2.839e-06 4.00 
0.0221  4096 110976 4.196e-06 3.00 1.775e-07 4.00 
