%!PS-Adobe-3.0 EPSF-3.0
%%Title: Doping_Fields.eps
%%Creator: matplotlib version 1.5.0, http://matplotlib.org/
%%CreationDate: Mon Apr 11 13:06:27 2016
%%Orientation: portrait
%%BoundingBox: -54 36 666 756
%%EndComments
%%BeginProlog
/mpldict 11 dict def
mpldict begin
/m { moveto } bind def
/l { lineto } bind def
/r { rlineto } bind def
/c { curveto } bind def
/cl { closepath } bind def
/box {
m
1 index 0 r
0 exch r
neg 0 r
cl
} bind def
/clipbox {
box
clip
newpath
} bind def
%!PS-Adobe-3.0 Resource-Font
%%Title: cmsy10
%%Copyright: Copyright (C) 1994, Basil K. Malyshev. All Rights Reserved.012BaKoMa Fonts Collection, Level-B.
%%Creator: Converted from TrueType to type 3 by PPR
25 dict begin
/_d{bind def}bind def
/_m{moveto}_d
/_l{lineto}_d
/_cl{closepath eofill}_d
/_c{curveto}_d
/_sc{7 -1 roll{setcachedevice}{pop pop pop pop pop pop}ifelse}_d
/_e{exec}_d
/FontName /Cmsy10 def
/PaintType 0 def
/FontMatrix[.001 0 0 .001 0 0]def
/FontBBox[-29 -960 1123 779]def
/FontType 3 def
/Encoding [ /minus ] def
/FontInfo 10 dict dup begin
/FamilyName (cmsy10) def
/FullName (cmsy10) def
/Notice (Copyright (C) 1994, Basil K. Malyshev. All Rights Reserved.012BaKoMa Fonts Collection, Level-B. ) def
/Weight (Regular) def
/Version (1.1/12-Nov-94) def
/ItalicAngle 0.0 def
/isFixedPitch false def
/UnderlinePosition -133 def
/UnderlineThickness 20 def
end readonly def
/CharStrings 1 dict dup begin
/minus{777 0 83 230 694 270 _sc
102 230 _m
96 230 92 232 88 236 _c
84 240 83 245 83 250 _c
83 254 84 259 88 263 _c
92 267 96 270 102 270 _c
676 270 _l
681 270 685 267 689 263 _c
692 259 694 254 694 250 _c
694 245 692 240 689 236 _c
685 232 681 230 676 230 _c
102 230 _l
_cl}_d
end readonly def

/BuildGlyph
 {exch begin
 CharStrings exch
 2 copy known not{pop /.notdef}if
 true 3 1 roll get exec
 end}_d

/BuildChar {
 1 index /Encoding get exch get
 1 index /BuildGlyph get exec
}_d

FontName currentdict end definefont pop
%!PS-Adobe-3.0 Resource-Font
%%Title: Bitstream Vera Sans
%%Copyright: Copyright (c) 2003 by Bitstream, Inc. All Rights Reserved.
%%Creator: Converted from TrueType to type 3 by PPR
25 dict begin
/_d{bind def}bind def
/_m{moveto}_d
/_l{lineto}_d
/_cl{closepath eofill}_d
/_c{curveto}_d
/_sc{7 -1 roll{setcachedevice}{pop pop pop pop pop pop}ifelse}_d
/_e{exec}_d
/FontName /BitstreamVeraSans-Roman def
/PaintType 0 def
/FontMatrix[.001 0 0 .001 0 0]def
/FontBBox[-183 -236 1287 928]def
/FontType 3 def
/Encoding [ /space /hyphen /period /zero /one /two /three /four /five /D /E /F /P /V /W /bracketleft /bracketright /a /c /d /e /f /g /h /i /k /l /m /n /o /p /r /s /t /x /minus ] def
/FontInfo 10 dict dup begin
/FamilyName (Bitstream Vera Sans) def
/FullName (Bitstream Vera Sans) def
/Notice (Copyright (c) 2003 by Bitstream, Inc. All Rights Reserved. Bitstream Vera is a trademark of Bitstream, Inc.) def
/Weight (Roman) def
/Version (Release 1.10) def
/ItalicAngle 0.0 def
/isFixedPitch false def
/UnderlinePosition -213 def
/UnderlineThickness 143 def
end readonly def
/CharStrings 36 dict dup begin
/space{318 0 0 0 0 0 _sc
}_d
/hyphen{361 0 49 234 312 314 _sc
49 314 _m
312 314 _l
312 234 _l
49 234 _l
49 314 _l
_cl}_d
/period{318 0 107 0 210 124 _sc
107 124 _m
210 124 _l
210 0 _l
107 0 _l
107 124 _l
_cl}_d
/zero{636 0 66 -13 570 742 _sc
318 664 _m
267 664 229 639 203 589 _c
177 539 165 464 165 364 _c
165 264 177 189 203 139 _c
229 89 267 64 318 64 _c
369 64 407 89 433 139 _c
458 189 471 264 471 364 _c
471 464 458 539 433 589 _c
407 639 369 664 318 664 _c
318 742 _m
399 742 461 709 505 645 _c
548 580 570 486 570 364 _c
570 241 548 147 505 83 _c
461 19 399 -13 318 -13 _c
236 -13 173 19 130 83 _c
87 147 66 241 66 364 _c
66 486 87 580 130 645 _c
173 709 236 742 318 742 _c
_cl}_d
/one{636 0 110 0 544 729 _sc
124 83 _m
285 83 _l
285 639 _l
110 604 _l
110 694 _l
284 729 _l
383 729 _l
383 83 _l
544 83 _l
544 0 _l
124 0 _l
124 83 _l
_cl}_d
/two{{636 0 73 0 536 742 _sc
192 83 _m
536 83 _l
536 0 _l
73 0 _l
73 83 _l
110 121 161 173 226 239 _c
290 304 331 346 348 365 _c
380 400 402 430 414 455 _c
426 479 433 504 433 528 _c
433 566 419 598 392 622 _c
365 646 330 659 286 659 _c
255 659 222 653 188 643 _c
154 632 117 616 78 594 _c
78 694 _l
118 710 155 722 189 730 _c
223 738 255 742 284 742 _c
}_e{359 742 419 723 464 685 _c
509 647 532 597 532 534 _c
532 504 526 475 515 449 _c
504 422 484 390 454 354 _c
446 344 420 317 376 272 _c
332 227 271 164 192 83 _c
_cl}_e}_d
/three{{636 0 76 -13 556 742 _sc
406 393 _m
453 383 490 362 516 330 _c
542 298 556 258 556 212 _c
556 140 531 84 482 45 _c
432 6 362 -13 271 -13 _c
240 -13 208 -10 176 -4 _c
144 1 110 10 76 22 _c
76 117 _l
103 101 133 89 166 81 _c
198 73 232 69 268 69 _c
330 69 377 81 409 105 _c
441 129 458 165 458 212 _c
458 254 443 288 413 312 _c
383 336 341 349 287 349 _c
}_e{202 349 _l
202 430 _l
291 430 _l
339 430 376 439 402 459 _c
428 478 441 506 441 543 _c
441 580 427 609 401 629 _c
374 649 336 659 287 659 _c
260 659 231 656 200 650 _c
169 644 135 635 98 623 _c
98 711 _l
135 721 170 729 203 734 _c
235 739 266 742 296 742 _c
370 742 429 725 473 691 _c
517 657 539 611 539 553 _c
539 513 527 479 504 451 _c
481 423 448 403 406 393 _c
_cl}_e}_d
/four{636 0 49 0 580 729 _sc
378 643 _m
129 254 _l
378 254 _l
378 643 _l
352 729 _m
476 729 _l
476 254 _l
580 254 _l
580 172 _l
476 172 _l
476 0 _l
378 0 _l
378 172 _l
49 172 _l
49 267 _l
352 729 _l
_cl}_d
/five{{636 0 77 -13 549 729 _sc
108 729 _m
495 729 _l
495 646 _l
198 646 _l
198 467 _l
212 472 227 476 241 478 _c
255 480 270 482 284 482 _c
365 482 429 459 477 415 _c
525 370 549 310 549 234 _c
549 155 524 94 475 51 _c
426 8 357 -13 269 -13 _c
238 -13 207 -10 175 -6 _c
143 -1 111 6 77 17 _c
77 116 _l
106 100 136 88 168 80 _c
199 72 232 69 267 69 _c
}_e{323 69 368 83 401 113 _c
433 143 450 183 450 234 _c
450 284 433 324 401 354 _c
368 384 323 399 267 399 _c
241 399 214 396 188 390 _c
162 384 135 375 108 363 _c
108 729 _l
_cl}_e}_d
/D{770 0 98 0 711 729 _sc
197 648 _m
197 81 _l
316 81 _l
416 81 490 103 537 149 _c
583 195 607 267 607 365 _c
607 463 583 534 537 580 _c
490 625 416 648 316 648 _c
197 648 _l
98 729 _m
301 729 _l
442 729 546 699 612 641 _c
678 582 711 490 711 365 _c
711 239 677 147 611 88 _c
545 29 441 0 301 0 _c
98 0 _l
98 729 _l
_cl}_d
/E{632 0 98 0 568 729 _sc
98 729 _m
559 729 _l
559 646 _l
197 646 _l
197 430 _l
544 430 _l
544 347 _l
197 347 _l
197 83 _l
568 83 _l
568 0 _l
98 0 _l
98 729 _l
_cl}_d
/F{575 0 98 0 517 729 _sc
98 729 _m
517 729 _l
517 646 _l
197 646 _l
197 431 _l
486 431 _l
486 348 _l
197 348 _l
197 0 _l
98 0 _l
98 729 _l
_cl}_d
/P{603 0 98 0 569 729 _sc
197 648 _m
197 374 _l
321 374 _l
367 374 402 385 427 409 _c
452 433 465 467 465 511 _c
465 555 452 588 427 612 _c
402 636 367 648 321 648 _c
197 648 _l
98 729 _m
321 729 _l
402 729 464 710 506 673 _c
548 636 569 582 569 511 _c
569 439 548 384 506 348 _c
464 311 402 293 321 293 _c
197 293 _l
197 0 _l
98 0 _l
98 729 _l
_cl}_d
/V{684 0 8 0 676 729 _sc
286 0 _m
8 729 _l
111 729 _l
342 115 _l
573 729 _l
676 729 _l
398 0 _l
286 0 _l
_cl}_d
/W{989 0 33 0 956 729 _sc
33 729 _m
133 729 _l
286 113 _l
439 729 _l
550 729 _l
703 113 _l
856 729 _l
956 729 _l
773 0 _l
649 0 _l
495 633 _l
340 0 _l
216 0 _l
33 729 _l
_cl}_d
/bracketleft{390 0 86 -131 293 760 _sc
86 760 _m
293 760 _l
293 690 _l
176 690 _l
176 -61 _l
293 -61 _l
293 -131 _l
86 -131 _l
86 760 _l
_cl}_d
/bracketright{390 0 97 -131 304 760 _sc
304 760 _m
304 -131 _l
97 -131 _l
97 -61 _l
214 -61 _l
214 690 _l
97 690 _l
97 760 _l
304 760 _l
_cl}_d
/a{{613 0 60 -13 522 560 _sc
343 275 _m
270 275 220 266 192 250 _c
164 233 150 205 150 165 _c
150 133 160 107 181 89 _c
202 70 231 61 267 61 _c
317 61 357 78 387 114 _c
417 149 432 196 432 255 _c
432 275 _l
343 275 _l
522 312 _m
522 0 _l
432 0 _l
432 83 _l
411 49 385 25 355 10 _c
325 -5 287 -13 243 -13 _c
187 -13 142 2 109 33 _c
76 64 60 106 60 159 _c
}_e{60 220 80 266 122 298 _c
163 329 224 345 306 345 _c
432 345 _l
432 354 _l
432 395 418 427 391 450 _c
364 472 326 484 277 484 _c
245 484 215 480 185 472 _c
155 464 127 453 100 439 _c
100 522 _l
132 534 164 544 195 550 _c
226 556 256 560 286 560 _c
365 560 424 539 463 498 _c
502 457 522 395 522 312 _c
_cl}_e}_d
/c{{550 0 55 -13 488 560 _sc
488 526 _m
488 442 _l
462 456 437 466 411 473 _c
385 480 360 484 334 484 _c
276 484 230 465 198 428 _c
166 391 150 339 150 273 _c
150 206 166 154 198 117 _c
230 80 276 62 334 62 _c
360 62 385 65 411 72 _c
437 79 462 90 488 104 _c
488 21 _l
462 9 436 0 410 -5 _c
383 -10 354 -13 324 -13 _c
242 -13 176 12 128 64 _c
}_e{79 115 55 185 55 273 _c
55 362 79 432 128 483 _c
177 534 244 560 330 560 _c
358 560 385 557 411 551 _c
437 545 463 537 488 526 _c
_cl}_e}_d
/d{{635 0 55 -13 544 760 _sc
454 464 _m
454 760 _l
544 760 _l
544 0 _l
454 0 _l
454 82 _l
435 49 411 25 382 10 _c
353 -5 319 -13 279 -13 _c
213 -13 159 13 117 65 _c
75 117 55 187 55 273 _c
55 359 75 428 117 481 _c
159 533 213 560 279 560 _c
319 560 353 552 382 536 _c
411 520 435 496 454 464 _c
148 273 _m
148 207 161 155 188 117 _c
215 79 253 61 301 61 _c
}_e{348 61 385 79 413 117 _c
440 155 454 207 454 273 _c
454 339 440 390 413 428 _c
385 466 348 485 301 485 _c
253 485 215 466 188 428 _c
161 390 148 339 148 273 _c
_cl}_e}_d
/e{{615 0 55 -13 562 560 _sc
562 296 _m
562 252 _l
149 252 _l
153 190 171 142 205 110 _c
238 78 284 62 344 62 _c
378 62 412 66 444 74 _c
476 82 509 95 541 113 _c
541 28 _l
509 14 476 3 442 -3 _c
408 -9 373 -13 339 -13 _c
251 -13 182 12 131 62 _c
80 112 55 181 55 268 _c
55 357 79 428 127 481 _c
175 533 241 560 323 560 _c
397 560 455 536 498 489 _c
}_e{540 441 562 377 562 296 _c
472 322 _m
471 371 457 410 431 440 _c
404 469 368 484 324 484 _c
274 484 234 469 204 441 _c
174 413 156 373 152 322 _c
472 322 _l
_cl}_e}_d
/f{352 0 23 0 371 760 _sc
371 760 _m
371 685 _l
285 685 _l
253 685 230 678 218 665 _c
205 652 199 629 199 595 _c
199 547 _l
347 547 _l
347 477 _l
199 477 _l
199 0 _l
109 0 _l
109 477 _l
23 477 _l
23 547 _l
109 547 _l
109 585 _l
109 645 123 690 151 718 _c
179 746 224 760 286 760 _c
371 760 _l
_cl}_d
/g{{635 0 55 -207 544 560 _sc
454 280 _m
454 344 440 395 414 431 _c
387 467 349 485 301 485 _c
253 485 215 467 188 431 _c
161 395 148 344 148 280 _c
148 215 161 165 188 129 _c
215 93 253 75 301 75 _c
349 75 387 93 414 129 _c
440 165 454 215 454 280 _c
544 68 _m
544 -24 523 -93 482 -139 _c
440 -184 377 -207 292 -207 _c
260 -207 231 -204 203 -200 _c
175 -195 147 -188 121 -178 _c
}_e{121 -91 _l
147 -105 173 -115 199 -122 _c
225 -129 251 -133 278 -133 _c
336 -133 380 -117 410 -87 _c
439 -56 454 -10 454 52 _c
454 96 _l
435 64 411 40 382 24 _c
353 8 319 0 279 0 _c
211 0 157 25 116 76 _c
75 127 55 195 55 280 _c
55 364 75 432 116 483 _c
157 534 211 560 279 560 _c
319 560 353 552 382 536 _c
411 520 435 496 454 464 _c
454 547 _l
544 547 _l
}_e{544 68 _l
_cl}_e}_d
/h{634 0 91 0 549 760 _sc
549 330 _m
549 0 _l
459 0 _l
459 327 _l
459 379 448 417 428 443 _c
408 469 378 482 338 482 _c
289 482 251 466 223 435 _c
195 404 181 362 181 309 _c
181 0 _l
91 0 _l
91 760 _l
181 760 _l
181 462 _l
202 494 227 519 257 535 _c
286 551 320 560 358 560 _c
420 560 468 540 500 501 _c
532 462 549 405 549 330 _c
_cl}_d
/i{278 0 94 0 184 760 _sc
94 547 _m
184 547 _l
184 0 _l
94 0 _l
94 547 _l
94 760 _m
184 760 _l
184 646 _l
94 646 _l
94 760 _l
_cl}_d
/k{579 0 91 0 576 760 _sc
91 760 _m
181 760 _l
181 311 _l
449 547 _l
564 547 _l
274 291 _l
576 0 _l
459 0 _l
181 267 _l
181 0 _l
91 0 _l
91 760 _l
_cl}_d
/l{278 0 94 0 184 760 _sc
94 760 _m
184 760 _l
184 0 _l
94 0 _l
94 760 _l
_cl}_d
/m{{974 0 91 0 889 560 _sc
520 442 _m
542 482 569 511 600 531 _c
631 550 668 560 711 560 _c
767 560 811 540 842 500 _c
873 460 889 403 889 330 _c
889 0 _l
799 0 _l
799 327 _l
799 379 789 418 771 444 _c
752 469 724 482 686 482 _c
639 482 602 466 575 435 _c
548 404 535 362 535 309 _c
535 0 _l
445 0 _l
445 327 _l
445 379 435 418 417 444 _c
398 469 369 482 331 482 _c
}_e{285 482 248 466 221 435 _c
194 404 181 362 181 309 _c
181 0 _l
91 0 _l
91 547 _l
181 547 _l
181 462 _l
201 495 226 520 255 536 _c
283 552 317 560 357 560 _c
397 560 430 550 458 530 _c
486 510 506 480 520 442 _c
_cl}_e}_d
/n{634 0 91 0 549 560 _sc
549 330 _m
549 0 _l
459 0 _l
459 327 _l
459 379 448 417 428 443 _c
408 469 378 482 338 482 _c
289 482 251 466 223 435 _c
195 404 181 362 181 309 _c
181 0 _l
91 0 _l
91 547 _l
181 547 _l
181 462 _l
202 494 227 519 257 535 _c
286 551 320 560 358 560 _c
420 560 468 540 500 501 _c
532 462 549 405 549 330 _c
_cl}_d
/o{612 0 55 -13 557 560 _sc
306 484 _m
258 484 220 465 192 427 _c
164 389 150 338 150 273 _c
150 207 163 156 191 118 _c
219 80 257 62 306 62 _c
354 62 392 80 420 118 _c
448 156 462 207 462 273 _c
462 337 448 389 420 427 _c
392 465 354 484 306 484 _c
306 560 _m
384 560 445 534 490 484 _c
534 433 557 363 557 273 _c
557 183 534 113 490 63 _c
445 12 384 -13 306 -13 _c
227 -13 165 12 121 63 _c
77 113 55 183 55 273 _c
55 363 77 433 121 484 _c
165 534 227 560 306 560 _c
_cl}_d
/p{{635 0 91 -207 580 560 _sc
181 82 _m
181 -207 _l
91 -207 _l
91 547 _l
181 547 _l
181 464 _l
199 496 223 520 252 536 _c
281 552 316 560 356 560 _c
422 560 476 533 518 481 _c
559 428 580 359 580 273 _c
580 187 559 117 518 65 _c
476 13 422 -13 356 -13 _c
316 -13 281 -5 252 10 _c
223 25 199 49 181 82 _c
487 273 _m
487 339 473 390 446 428 _c
418 466 381 485 334 485 _c
}_e{286 485 249 466 222 428 _c
194 390 181 339 181 273 _c
181 207 194 155 222 117 _c
249 79 286 61 334 61 _c
381 61 418 79 446 117 _c
473 155 487 207 487 273 _c
_cl}_e}_d
/r{411 0 91 0 411 560 _sc
411 463 _m
401 469 390 473 378 476 _c
366 478 353 480 339 480 _c
288 480 249 463 222 430 _c
194 397 181 350 181 288 _c
181 0 _l
91 0 _l
91 547 _l
181 547 _l
181 462 _l
199 495 224 520 254 536 _c
284 552 321 560 365 560 _c
371 560 378 559 386 559 _c
393 558 401 557 411 555 _c
411 463 _l
_cl}_d
/s{{521 0 54 -13 472 560 _sc
443 531 _m
443 446 _l
417 458 391 468 364 475 _c
336 481 308 485 279 485 _c
234 485 200 478 178 464 _c
156 450 145 430 145 403 _c
145 382 153 366 169 354 _c
185 342 217 330 265 320 _c
296 313 _l
360 299 405 279 432 255 _c
458 230 472 195 472 151 _c
472 100 452 60 412 31 _c
372 1 316 -13 246 -13 _c
216 -13 186 -10 154 -5 _c
}_e{122 0 89 8 54 20 _c
54 113 _l
87 95 120 82 152 74 _c
184 65 216 61 248 61 _c
290 61 323 68 346 82 _c
368 96 380 117 380 144 _c
380 168 371 187 355 200 _c
339 213 303 226 247 238 _c
216 245 _l
160 257 119 275 95 299 _c
70 323 58 356 58 399 _c
58 450 76 490 112 518 _c
148 546 200 560 268 560 _c
301 560 332 557 362 552 _c
391 547 418 540 443 531 _c
}_e{_cl}_e}_d
/t{392 0 27 0 368 702 _sc
183 702 _m
183 547 _l
368 547 _l
368 477 _l
183 477 _l
183 180 _l
183 135 189 106 201 94 _c
213 81 238 75 276 75 _c
368 75 _l
368 0 _l
276 0 _l
206 0 158 13 132 39 _c
106 65 93 112 93 180 _c
93 477 _l
27 477 _l
27 547 _l
93 547 _l
93 702 _l
183 702 _l
_cl}_d
/x{592 0 29 0 559 547 _sc
549 547 _m
351 281 _l
559 0 _l
453 0 _l
294 215 _l
135 0 _l
29 0 _l
241 286 _l
47 547 _l
153 547 _l
298 352 _l
443 547 _l
549 547 _l
_cl}_d
/minus{838 0 106 272 732 355 _sc
106 355 _m
732 355 _l
732 272 _l
106 272 _l
106 355 _l
_cl}_d
end readonly def

/BuildGlyph
 {exch begin
 CharStrings exch
 2 copy known not{pop /.notdef}if
 true 3 1 roll get exec
 end}_d

/BuildChar {
 1 index /Encoding get exch get
 1 index /BuildGlyph get exec
}_d

FontName currentdict end definefont pop
%!PS-Adobe-3.0 Resource-Font
%%Title: cmr10
%%Copyright: Copyright (C) 1994, Basil K. Malyshev. All Rights Reserved.012BaKoMa Fonts Collection, Level-B.
%%Creator: Converted from TrueType to type 3 by PPR
25 dict begin
/_d{bind def}bind def
/_m{moveto}_d
/_l{lineto}_d
/_cl{closepath eofill}_d
/_c{curveto}_d
/_sc{7 -1 roll{setcachedevice}{pop pop pop pop pop pop}ifelse}_d
/_e{exec}_d
/FontName /Cmr10 def
/PaintType 0 def
/FontMatrix[.001 0 0 .001 0 0]def
/FontBBox[-44 -250 1009 750]def
/FontType 3 def
/Encoding [ /Phi /zero /equal /four /one /three /five ] def
/FontInfo 10 dict dup begin
/FamilyName (cmr10) def
/FullName (cmr10) def
/Notice (Copyright (C) 1994, Basil K. Malyshev. All Rights Reserved.012BaKoMa Fonts Collection, Level-B. ) def
/Weight (Regular) def
/Version (1.1/12-Nov-94) def
/ItalicAngle 0.0 def
/isFixedPitch false def
/UnderlinePosition -133 def
/UnderlineThickness 20 def
end readonly def
/CharStrings 7 dict dup begin
/Phi{{722 0 56 0 665 683 _sc
186 0 _m
186 35 _l
271 35 314 45 314 67 _c
314 139 _l
250 145 193 164 145 197 _c
119 214 98 235 81 261 _c
64 286 56 313 56 342 _c
56 370 64 396 81 422 _c
98 448 119 469 145 486 _c
170 502 196 515 224 525 _c
252 534 282 540 314 544 _c
314 616 _l
314 637 271 648 186 648 _c
186 683 _l
529 683 _l
529 648 _l
443 648 401 637 401 616 _c
}_e{401 544 _l
428 544 457 538 488 528 _c
519 518 548 504 574 486 _c
600 468 622 447 639 422 _c
656 397 665 370 665 342 _c
665 313 656 286 639 261 _c
622 236 600 214 573 196 _c
546 178 517 164 486 154 _c
455 144 427 139 401 139 _c
401 67 _l
401 45 443 35 529 35 _c
529 0 _l
186 0 _l
401 165 _m
454 171 494 189 521 219 _c
547 248 561 289 561 342 _c
}_e{561 394 547 435 520 464 _c
493 493 453 511 401 518 _c
401 165 _l
314 166 _m
314 517 _l
211 503 160 444 160 342 _c
160 239 211 180 314 166 _c
_cl}_e}_d
/zero{{500 0 39 -21 460 666 _sc
250 -21 _m
168 -21 112 12 83 79 _c
53 146 39 226 39 319 _c
39 377 44 431 55 482 _c
65 533 86 576 118 612 _c
149 648 193 666 250 666 _c
294 666 330 655 358 634 _c
386 612 407 585 422 551 _c
436 517 446 480 452 441 _c
457 402 460 361 460 319 _c
460 261 454 208 444 158 _c
433 108 412 65 381 31 _c
350 -3 306 -21 250 -21 _c
250 4 _m
}_e{287 4 315 23 333 61 _c
351 99 362 141 366 187 _c
370 233 373 283 373 335 _c
373 385 370 431 366 473 _c
362 515 351 554 333 588 _c
315 622 287 640 250 640 _c
212 640 184 622 166 588 _c
148 554 136 515 132 473 _c
128 431 126 385 126 335 _c
126 297 126 262 128 230 _c
130 197 135 163 143 128 _c
151 93 163 64 181 40 _c
198 16 221 4 250 4 _c
_cl}_e}_d
/equal{{777 0 56 133 721 367 _sc
75 133 _m
69 133 65 135 61 139 _c
57 143 56 148 56 153 _c
56 158 57 163 61 167 _c
65 171 69 173 75 173 _c
703 173 _l
707 173 711 171 715 167 _c
719 163 721 158 721 153 _c
721 148 719 143 715 139 _c
711 135 707 133 703 133 _c
75 133 _l
75 327 _m
69 327 65 329 61 333 _c
57 337 56 341 56 347 _c
56 351 57 356 61 360 _c
}_e{65 364 69 367 75 367 _c
703 367 _l
707 367 711 364 715 360 _c
719 356 721 351 721 347 _c
721 341 719 337 715 333 _c
711 329 707 327 703 327 _c
75 327 _l
_cl}_e}_d
/four{{500 0 28 0 471 666 _sc
28 165 _m
28 200 _l
337 661 _l
339 664 342 666 347 666 _c
362 666 _l
369 666 373 662 373 655 _c
373 200 _l
471 200 _l
471 165 _l
373 165 _l
373 67 _l
373 53 382 44 402 40 _c
422 36 444 35 470 35 _c
470 0 _l
195 0 _l
195 35 _l
220 35 242 36 262 40 _c
282 44 292 53 292 67 _c
292 165 _l
28 165 _l
61 200 _m
298 200 _l
}_e{298 554 _l
61 200 _l
_cl}_e}_d
/one{500 0 87 0 421 666 _sc
93 0 _m
93 35 _l
176 35 218 45 218 67 _c
218 592 _l
183 575 139 567 87 567 _c
87 602 _l
168 602 230 623 272 666 _c
286 666 _l
288 666 291 665 293 663 _c
295 661 296 659 296 657 _c
296 67 _l
296 45 337 35 421 35 _c
421 0 _l
93 0 _l
_cl}_d
/three{{500 0 42 -21 457 666 _sc
95 77 _m
111 54 132 37 158 26 _c
184 15 213 10 243 10 _c
281 10 309 26 325 59 _c
341 92 350 130 350 172 _c
350 190 348 209 345 228 _c
341 247 335 265 327 281 _c
319 297 308 310 294 320 _c
280 330 262 335 242 335 _c
176 335 _l
170 335 167 338 167 344 _c
167 353 _l
167 358 170 361 176 361 _c
231 365 _l
254 365 273 373 289 391 _c
}_e{305 409 316 430 323 456 _c
330 481 334 505 334 528 _c
334 560 326 586 311 606 _c
296 626 273 637 243 637 _c
217 637 193 632 170 622 _c
147 612 129 598 115 579 _c
116 579 117 580 118 580 _c
119 580 120 580 122 580 _c
137 580 150 574 160 564 _c
170 554 175 541 175 527 _c
175 512 170 499 160 489 _c
150 479 137 474 122 474 _c
107 474 94 479 84 489 _c
}_e{74 499 69 512 69 527 _c
69 555 77 580 95 601 _c
112 622 134 638 161 649 _c
188 660 215 666 243 666 _c
263 666 284 663 307 657 _c
329 651 350 642 368 631 _c
386 619 401 605 413 588 _c
424 570 430 550 430 528 _c
430 500 423 474 411 450 _c
399 426 382 406 360 389 _c
338 371 314 358 288 350 _c
317 344 345 333 371 317 _c
397 301 417 280 433 255 _c
}_e{449 229 457 202 457 173 _c
457 136 446 103 426 73 _c
406 43 379 19 347 3 _c
314 -13 279 -21 243 -21 _c
211 -21 180 -15 149 -3 _c
117 8 92 25 72 49 _c
52 73 42 101 42 135 _c
42 151 47 165 58 176 _c
69 187 83 193 100 193 _c
110 193 120 190 129 185 _c
138 180 145 173 150 164 _c
155 154 158 145 158 135 _c
158 118 152 104 141 93 _c
}_e{129 82 116 77 100 77 _c
95 77 _l
_cl}_e}_d
/five{{500 0 50 -21 449 666 _sc
87 114 _m
93 94 104 76 118 60 _c
132 44 149 32 169 23 _c
188 14 208 10 229 10 _c
277 10 310 28 328 66 _c
346 103 356 148 356 202 _c
356 225 355 244 355 260 _c
354 276 352 291 348 306 _c
342 329 331 349 315 367 _c
299 385 281 394 259 394 _c
236 394 217 390 201 384 _c
185 377 171 369 161 360 _c
151 350 142 341 134 331 _c
}_e{126 321 122 315 120 315 _c
109 315 _l
107 315 104 316 102 318 _c
100 320 99 322 99 324 _c
99 658 _l
99 660 100 661 102 663 _c
104 665 106 666 109 666 _c
112 666 _l
156 644 204 634 255 634 _c
304 634 352 644 398 666 _c
401 666 _l
403 666 405 665 407 663 _c
409 661 410 660 410 658 _c
410 649 _l
410 645 409 644 408 644 _c
385 614 356 590 322 573 _c
}_e{288 556 252 548 216 548 _c
189 548 162 551 134 559 _c
134 370 _l
156 388 175 400 193 408 _c
210 416 232 420 260 420 _c
296 420 329 409 358 388 _c
387 366 409 339 425 305 _c
441 271 449 236 449 201 _c
449 161 439 124 419 90 _c
399 56 373 29 339 9 _c
305 -11 269 -21 229 -21 _c
196 -21 166 -12 138 4 _c
110 20 89 43 73 72 _c
57 100 50 131 50 163 _c
}_e{50 178 54 190 64 200 _c
74 209 86 214 101 214 _c
115 214 128 209 138 199 _c
148 189 153 177 153 163 _c
153 149 148 137 138 127 _c
128 117 115 112 101 112 _c
99 112 96 112 93 112 _c
90 112 88 113 87 114 _c
_cl}_e}_d
end readonly def

/BuildGlyph
 {exch begin
 CharStrings exch
 2 copy known not{pop /.notdef}if
 true 3 1 roll get exec
 end}_d

/BuildChar {
 1 index /Encoding get exch get
 1 index /BuildGlyph get exec
}_d

FontName currentdict end definefont pop
%!PS-Adobe-3.0 Resource-Font
%%Title: cmmi10
%%Copyright: Copyright (C) 1994, Basil K. Malyshev. All Rights Reserved.012BaKoMa Fonts Collection, Level-B.
%%Creator: Converted from TrueType to type 3 by PPR
25 dict begin
/_d{bind def}bind def
/_m{moveto}_d
/_l{lineto}_d
/_cl{closepath eofill}_d
/_c{curveto}_d
/_sc{7 -1 roll{setcachedevice}{pop pop pop pop pop pop}ifelse}_d
/_e{exec}_d
/FontName /Cmmi10 def
/PaintType 0 def
/FontMatrix[.001 0 0 .001 0 0]def
/FontBBox[-34 -250 1048 750]def
/FontType 3 def
/Encoding [ /period /a /p ] def
/FontInfo 10 dict dup begin
/FamilyName (cmmi10) def
/FullName (cmmi10) def
/Notice (Copyright (C) 1994, Basil K. Malyshev. All Rights Reserved.012BaKoMa Fonts Collection, Level-B. ) def
/Weight (Regular) def
/Version (1.1/12-Nov-94) def
/ItalicAngle 0.0 def
/isFixedPitch false def
/UnderlinePosition -133 def
/UnderlineThickness 20 def
end readonly def
/CharStrings 3 dict dup begin
/period{277 0 84 0 194 110 _sc
84 55 _m
84 70 89 83 100 94 _c
111 104 124 110 139 110 _c
148 110 157 107 166 102 _c
174 97 181 90 186 82 _c
191 73 194 64 194 55 _c
194 40 188 27 178 16 _c
167 5 154 0 139 0 _c
124 0 111 5 100 16 _c
89 27 84 40 84 55 _c
_cl}_d
/a{{528 0 38 -10 501 442 _sc
174 -10 _m
132 -10 98 5 74 37 _c
50 68 38 105 38 149 _c
38 191 49 236 71 282 _c
93 328 122 366 160 396 _c
198 426 238 442 282 442 _c
302 442 319 436 335 426 _c
351 415 363 400 372 382 _c
379 408 394 422 416 422 _c
424 422 431 419 437 414 _c
443 409 446 402 446 394 _c
446 392 445 390 445 389 _c
445 388 445 387 445 386 _c
375 107 _l
}_e{370 87 368 70 368 58 _c
368 29 377 15 397 15 _c
417 15 433 28 444 55 _c
455 81 464 112 472 147 _c
473 151 476 153 480 153 _c
492 153 _l
494 153 496 151 498 149 _c
500 147 501 145 501 143 _c
489 96 476 59 462 31 _c
448 3 426 -10 395 -10 _c
372 -10 352 -3 335 9 _c
318 21 307 39 303 61 _c
260 13 217 -10 174 -10 _c
175 15 _m
199 15 222 24 245 42 _c
}_e{267 60 287 81 303 106 _c
303 106 304 107 304 109 _c
358 326 _l
359 329 _l
355 353 346 373 333 390 _c
319 407 302 416 280 416 _c
257 416 236 406 217 388 _c
197 370 181 348 168 323 _c
154 296 142 259 130 213 _c
118 167 113 131 113 105 _c
113 81 118 60 128 42 _c
138 24 153 15 175 15 _c
_cl}_e}_d
/p{{503 0 -33 -193 491 442 _sc
-24 -193 _m
-30 -193 -33 -188 -33 -180 _c
-31 -165 -26 -158 -20 -158 _c
0 -158 14 -156 22 -152 _c
30 -148 37 -139 42 -124 _c
155 325 _l
159 337 162 353 162 373 _c
162 401 152 416 133 416 _c
112 416 96 403 86 378 _c
76 353 66 322 57 284 _c
57 280 54 278 49 278 _c
37 278 _l
35 278 34 279 32 281 _c
30 283 29 286 29 288 _c
}_e{36 317 43 342 50 362 _c
56 382 67 400 81 417 _c
95 433 112 442 134 442 _c
156 442 176 435 194 422 _c
211 409 222 392 227 370 _c
245 391 265 408 287 422 _c
309 435 332 442 356 442 _c
384 442 408 434 429 419 _c
449 404 465 384 475 360 _c
485 336 491 310 491 282 _c
491 239 480 195 458 149 _c
436 103 406 65 369 35 _c
331 5 291 -10 248 -10 _c
}_e{228 -10 211 -4 195 6 _c
179 16 166 31 158 49 _c
113 -128 _l
111 -138 110 -143 110 -145 _c
110 -153 132 -158 176 -158 _c
182 -158 186 -162 186 -171 _c
184 -179 182 -185 180 -188 _c
178 -191 175 -193 169 -193 _c
-24 -193 _l
249 15 _m
272 15 293 24 313 43 _c
333 62 349 84 362 108 _c
370 126 379 147 387 173 _c
395 199 402 226 408 256 _c
414 285 417 308 417 326 _c
}_e{417 341 415 355 411 369 _c
407 382 400 393 391 402 _c
381 411 369 416 354 416 _c
329 416 306 407 284 390 _c
262 372 243 351 226 325 _c
226 322 _l
171 101 _l
175 77 184 56 197 40 _c
210 23 227 15 249 15 _c
_cl}_e}_d
end readonly def

/BuildGlyph
 {exch begin
 CharStrings exch
 2 copy known not{pop /.notdef}if
 true 3 1 roll get exec
 end}_d

/BuildChar {
 1 index /Encoding get exch get
 1 index /BuildGlyph get exec
}_d

FontName currentdict end definefont pop
end
%%EndProlog
mpldict begin
-54 36 translate
720 720 0 0 clipbox
100000 setmiterlimit
3.000 setlinewidth
0 setlinejoin
0 setlinecap
[] 0 setdash
1.000 setgray
gsave
0 0 m
720 0 l
720 720 l
0 720 l
cl
gsave
fill
grestore
stroke
grestore
gsave
69.852937 519.725437 m
693.59625 519.725437 l
693.59625 689.53 l
69.852937 689.53 l
cl
fill
grestore
2.000 setlinewidth
1 setlinejoin
2 setlinecap
0.000 0.000 1.000 setrgbcolor
gsave
623.7 169.8 69.85 519.7 clipbox
69.862294 548.906692 m
92.49326 549.017667 l
113.284184 549.336605 l
130.825406 549.813815 l
146.205356 550.443408 l
159.832588 551.221072 l
171.607303 552.108545 l
182.260839 553.128126 l
191.46729 554.211384 l
200.268308 555.456012 l
208.579688 556.85032 l
216.502787 558.408676 l
223.844246 560.078788 l
231.058617 561.958276 l
237.607454 563.890541 l
244.053373 566.022349 l
250.355208 568.344952 l
256.479432 570.844011 l
262.491693 573.543083 l
268.305137 576.395785 l
274.234909 579.561309 l
280.048508 582.922163 l
285.882068 586.555309 l
291.695511 590.43719 l
297.625283 594.663204 l
303.828722 599.366352 l
310.130557 604.428848 l
316.823322 610.102649 l
323.61464 616.149552 l
331.168951 623.184813 l
339.208222 630.983252 l
348.113094 639.933629 l
358.406262 650.599988 l
371.503484 664.525365 l
381.710821 675.557657 l
381.796617 549.542562 l
413.086408 549.028702 l
452.392216 548.614567 l
505.768894 548.289682 l
602.097784 547.969491 l
691.746851 547.588906 l
693.586894 547.576967 l
693.586894 547.576967 l
stroke
grestore
1.000 0.000 0.000 setrgbcolor
gsave
623.7 169.8 69.85 519.7 clipbox
69.862294 548.0353 m
136.314347 548.145632 l
158.839277 548.386831 l
173.026319 548.74963 l
183.257269 549.220678 l
191.46729 549.811342 l
198.278567 550.515966 l
204.048192 551.324414 l
209.08492 552.239234 l
213.708417 553.297501 l
217.748714 554.433285 l
221.701688 555.775988 l
225.319399 557.243336 l
228.705545 558.85899 l
231.920162 560.644207 l
235.008471 562.624009 l
237.849934 564.70493 l
240.677986 567.053869 l
243.484675 569.690172 l
246.083658 572.431821 l
248.68264 575.491413 l
251.281467 578.898209 l
253.880449 582.682645 l
256.479432 586.8753 l
259.078258 591.506899 l
261.677241 596.607145 l
264.276223 602.204276 l
266.875049 608.324044 l
269.652734 615.467286 l
272.394866 623.150868 l
272.583236 623.641608 l
272.641556 623.556014 l
274.850543 620.507396 l
277.063117 617.827345 l
279.190237 615.567219 l
281.542373 613.394149 l
283.89872 611.528488 l
286.268477 609.938191 l
288.659597 608.598677 l
291.079877 607.492098 l
293.678859 606.560364 l
296.277685 605.873708 l
298.876668 605.413694 l
301.654353 605.154424 l
304.461042 605.119016 l
307.289094 605.298251 l
310.377403 605.723296 l
313.655798 606.419317 l
316.925928 607.347685 l
320.28385 608.528154 l
323.843865 610.013689 l
327.643554 611.847162 l
331.640657 614.03179 l
335.877433 616.612054 l
340.316302 619.583125 l
344.842964 622.870089 l
349.833066 626.764993 l
355.238737 631.269883 l
361.250999 636.584481 l
367.796406 642.679522 l
375.103808 649.796426 l
381.710821 656.45756 l
381.796617 549.315474 l
416.007241 548.844944 l
460.010305 548.47295 l
522.771201 548.182667 l
693.586894 547.569163 l
693.586894 547.569163 l
stroke
grestore
0.000 0.500 0.000 setrgbcolor
gsave
623.7 169.8 69.85 519.7 clipbox
69.862294 548.742521 m
81.031977 548.853283 l
91.113228 549.169452 l
99.63824 549.653556 l
106.706811 550.266879 l
112.956719 551.029253 l
118.414473 551.919521 l
123.094107 552.897007 l
127.360512 554.002285 l
131.279179 555.236422 l
135.069979 556.66946 l
138.534873 558.221364 l
141.839153 559.951816 l
144.825324 561.758044 l
147.830208 563.839769 l
150.501388 565.940559 l
153.230265 568.35695 l
155.700289 570.804506 l
158.547677 573.966372 l
161.059803 577.086099 l
163.626507 580.623409 l
166.257145 584.646192 l
168.823848 588.988526 l
171.12858 593.262971 l
173.693724 598.463881 l
176.165307 603.940888 l
178.795944 610.298564 l
179.017373 610.81769 l
179.056357 610.745264 l
181.524821 606.376007 l
183.993286 602.439111 l
186.887455 598.308787 l
189.45104 595.027529 l
192.246969 591.808893 l
195.070967 588.890641 l
198.07585 586.111975 l
201.062021 583.646129 l
204.213484 581.328647 l
207.514646 579.179866 l
210.817367 577.284795 l
214.444434 575.468149 l
218.235234 573.834103 l
222.111799 572.416312 l
225.963414 571.236282 l
230.053143 570.211492 l
234.289919 569.377351 l
238.797244 568.72464 l
243.276969 568.299448 l
248.003072 568.077781 l
252.711554 568.076903 l
257.680293 568.304277 l
262.670396 568.760926 l
267.689502 569.446265 l
272.744162 570.36205 l
277.781201 571.498332 l
282.97901 572.905004 l
288.091055 574.520906 l
293.186414 576.362279 l
298.240918 578.417711 l
303.438882 580.770309 l
308.636691 583.36579 l
313.8345 586.203714 l
319.175614 589.370847 l
324.72272 592.925861 l
330.242536 596.726245 l
335.877433 600.867543 l
341.807049 605.498849 l
348.010488 610.626456 l
354.559325 616.329666 l
361.429702 622.602333 l
369.047791 629.861895 l
377.460263 638.192482 l
381.710821 642.507016 l
381.796617 549.149619 l
418.606224 548.714165 l
467.171502 548.374382 l
540.913243 548.10408 l
688.066766 547.598497 l
693.586894 547.563464 l
693.586894 547.563464 l
stroke
grestore
0.750 0.000 0.750 setrgbcolor
gsave
623.7 169.8 69.85 519.7 clipbox
69.862294 548.163233 m
87.130627 548.274493 l
98.977072 548.55364 l
107.500524 548.967954 l
113.953149 549.494571 l
119.314223 550.15252 l
123.775547 550.919532 l
127.499294 551.766505 l
130.964189 552.774498 l
134.076668 553.906858 l
136.955243 555.190084 l
139.627983 556.625317 l
142.154144 558.240853 l
144.686541 560.157403 l
146.872762 562.089272 l
149.083932 564.34719 l
151.170353 566.79416 l
153.48756 569.926324 l
155.534997 573.101066 l
157.432736 576.428121 l
159.327356 580.160029 l
161.351403 584.647947 l
163.462774 589.938988 l
165.358954 595.272606 l
167.501512 602.024601 l
169.561425 609.297624 l
171.746086 617.928156 l
173.762336 626.774211 l
175.755196 636.402026 l
178.059927 648.683848 l
179.017373 654.068822 l
179.056357 653.91051 l
181.209831 645.647374 l
183.257269 638.664494 l
185.468439 631.928447 l
187.718593 625.811605 l
190.026443 620.200427 l
192.246969 615.341894 l
194.64994 610.605094 l
197.118404 606.229985 l
199.586868 602.286651 l
202.481037 598.147841 l
205.044622 594.858389 l
207.840552 591.630096 l
210.66455 588.701164 l
213.669433 585.910353 l
216.794387 583.322919 l
220.259281 580.785672 l
223.844246 578.485748 l
227.21168 576.592286 l
230.812082 574.823192 l
234.519145 573.250161 l
238.465569 571.82476 l
242.315936 570.659216 l
246.594036 569.601212 l
250.844534 568.777167 l
255.310537 568.136454 l
259.892711 567.702337 l
264.598075 567.47789 l
269.474032 567.469843 l
274.464134 567.68873 l
279.432718 568.127821 l
284.388202 568.780825 l
289.586011 569.69383 l
294.78382 570.83889 l
299.981785 572.216446 l
305.179594 573.827373 l
310.377403 575.673721 l
315.575368 577.757246 l
320.773177 580.079556 l
325.970986 582.642116 l
331.168951 585.444778 l
336.60924 588.634444 l
342.036275 592.074601 l
347.620648 595.87835 l
353.310903 600.02155 l
359.267807 604.636176 l
365.426649 609.689016 l
372.033166 615.404516 l
378.951057 621.686402 l
381.710821 624.269592 l
381.796617 548.932783 l
423.379576 548.544925 l
480.555942 548.249997 l
586.957975 547.969581 l
681.515901 547.629665 l
693.586894 547.55601 l
693.586894 547.55601 l
stroke
grestore
1.000 setlinewidth
0 setlinejoin
0.000 setgray
gsave
69.852937 689.53 m
693.59625 689.53 l
stroke
grestore
gsave
693.59625 519.725437 m
693.59625 689.53 l
stroke
grestore
gsave
69.852937 519.725437 m
693.59625 519.725437 l
stroke
grestore
gsave
69.852937 519.725437 m
69.852937 689.53 l
stroke
grestore
0.500 setlinewidth
1 setlinejoin
0 setlinecap
gsave
/o {
gsave
newpath
translate
0.5 setlinewidth
1 setlinejoin
0 setlinecap
0 0 m
0 4 l

gsave
0.000 setgray
fill
grestore
stroke
grestore
} bind def
69.8529 519.725 o
grestore
gsave
/o {
gsave
newpath
translate
0.5 setlinewidth
1 setlinejoin
0 setlinecap
0 0 m
0 -4 l

gsave
0.000 setgray
fill
grestore
stroke
grestore
} bind def
69.8529 689.53 o
grestore
/BitstreamVeraSans-Roman findfont
12.000 scalefont
setfont
gsave
51.454500 506.600437 translate
0.000000 rotate
0.000000 0.000000 m /minus glyphshow
10.054688 0.000000 m /zero glyphshow
17.689453 0.000000 m /period glyphshow
21.503906 0.000000 m /two glyphshow
29.138672 0.000000 m /zero glyphshow
grestore
gsave
/o {
gsave
newpath
translate
0.5 setlinewidth
1 setlinejoin
0 setlinecap
0 0 m
0 4 l

gsave
0.000 setgray
fill
grestore
stroke
grestore
} bind def
147.821 519.725 o
grestore
gsave
/o {
gsave
newpath
translate
0.5 setlinewidth
1 setlinejoin
0 setlinecap
0 0 m
0 -4 l

gsave
0.000 setgray
fill
grestore
stroke
grestore
} bind def
147.821 689.53 o
grestore
gsave
129.422414 506.600437 translate
0.000000 rotate
0.000000 0.000000 m /minus glyphshow
10.054688 0.000000 m /zero glyphshow
17.689453 0.000000 m /period glyphshow
21.503906 0.000000 m /one glyphshow
29.138672 0.000000 m /five glyphshow
grestore
gsave
/o {
gsave
newpath
translate
0.5 setlinewidth
1 setlinejoin
0 setlinecap
0 0 m
0 4 l

gsave
0.000 setgray
fill
grestore
stroke
grestore
} bind def
225.789 519.725 o
grestore
gsave
/o {
gsave
newpath
translate
0.5 setlinewidth
1 setlinejoin
0 setlinecap
0 0 m
0 -4 l

gsave
0.000 setgray
fill
grestore
stroke
grestore
} bind def
225.789 689.53 o
grestore
gsave
207.390328 506.600437 translate
0.000000 rotate
0.000000 0.000000 m /minus glyphshow
10.054688 0.000000 m /zero glyphshow
17.689453 0.000000 m /period glyphshow
21.503906 0.000000 m /one glyphshow
29.138672 0.000000 m /zero glyphshow
grestore
gsave
/o {
gsave
newpath
translate
0.5 setlinewidth
1 setlinejoin
0 setlinecap
0 0 m
0 4 l

gsave
0.000 setgray
fill
grestore
stroke
grestore
} bind def
303.757 519.725 o
grestore
gsave
/o {
gsave
newpath
translate
0.5 setlinewidth
1 setlinejoin
0 setlinecap
0 0 m
0 -4 l

gsave
0.000 setgray
fill
grestore
stroke
grestore
} bind def
303.757 689.53 o
grestore
gsave
285.358242 506.600437 translate
0.000000 rotate
0.000000 0.000000 m /minus glyphshow
10.054688 0.000000 m /zero glyphshow
17.689453 0.000000 m /period glyphshow
21.503906 0.000000 m /zero glyphshow
29.138672 0.000000 m /five glyphshow
grestore
gsave
/o {
gsave
newpath
translate
0.5 setlinewidth
1 setlinejoin
0 setlinecap
0 0 m
0 4 l

gsave
0.000 setgray
fill
grestore
stroke
grestore
} bind def
381.725 519.725 o
grestore
gsave
/o {
gsave
newpath
translate
0.5 setlinewidth
1 setlinejoin
0 setlinecap
0 0 m
0 -4 l

gsave
0.000 setgray
fill
grestore
stroke
grestore
} bind def
381.725 689.53 o
grestore
gsave
368.357406 506.600437 translate
0.000000 rotate
0.000000 0.000000 m /zero glyphshow
7.634766 0.000000 m /period glyphshow
11.449219 0.000000 m /zero glyphshow
19.083984 0.000000 m /zero glyphshow
grestore
gsave
/o {
gsave
newpath
translate
0.5 setlinewidth
1 setlinejoin
0 setlinecap
0 0 m
0 4 l

gsave
0.000 setgray
fill
grestore
stroke
grestore
} bind def
459.693 519.725 o
grestore
gsave
/o {
gsave
newpath
translate
0.5 setlinewidth
1 setlinejoin
0 setlinecap
0 0 m
0 -4 l

gsave
0.000 setgray
fill
grestore
stroke
grestore
} bind def
459.693 689.53 o
grestore
gsave
446.325320 506.600437 translate
0.000000 rotate
0.000000 0.000000 m /zero glyphshow
7.634766 0.000000 m /period glyphshow
11.449219 0.000000 m /zero glyphshow
19.083984 0.000000 m /five glyphshow
grestore
gsave
/o {
gsave
newpath
translate
0.5 setlinewidth
1 setlinejoin
0 setlinecap
0 0 m
0 4 l

gsave
0.000 setgray
fill
grestore
stroke
grestore
} bind def
537.66 519.725 o
grestore
gsave
/o {
gsave
newpath
translate
0.5 setlinewidth
1 setlinejoin
0 setlinecap
0 0 m
0 -4 l

gsave
0.000 setgray
fill
grestore
stroke
grestore
} bind def
537.66 689.53 o
grestore
gsave
524.293234 506.600437 translate
0.000000 rotate
0.000000 0.000000 m /zero glyphshow
7.634766 0.000000 m /period glyphshow
11.449219 0.000000 m /one glyphshow
19.083984 0.000000 m /zero glyphshow
grestore
gsave
/o {
gsave
newpath
translate
0.5 setlinewidth
1 setlinejoin
0 setlinecap
0 0 m
0 4 l

gsave
0.000 setgray
fill
grestore
stroke
grestore
} bind def
615.628 519.725 o
grestore
gsave
/o {
gsave
newpath
translate
0.5 setlinewidth
1 setlinejoin
0 setlinecap
0 0 m
0 -4 l

gsave
0.000 setgray
fill
grestore
stroke
grestore
} bind def
615.628 689.53 o
grestore
gsave
602.261148 506.600437 translate
0.000000 rotate
0.000000 0.000000 m /zero glyphshow
7.634766 0.000000 m /period glyphshow
11.449219 0.000000 m /one glyphshow
19.083984 0.000000 m /five glyphshow
grestore
gsave
/o {
gsave
newpath
translate
0.5 setlinewidth
1 setlinejoin
0 setlinecap
0 0 m
0 4 l

gsave
0.000 setgray
fill
grestore
stroke
grestore
} bind def
693.596 519.725 o
grestore
gsave
/o {
gsave
newpath
translate
0.5 setlinewidth
1 setlinejoin
0 setlinecap
0 0 m
0 -4 l

gsave
0.000 setgray
fill
grestore
stroke
grestore
} bind def
693.596 689.53 o
grestore
gsave
680.229063 506.600437 translate
0.000000 rotate
0.000000 0.000000 m /zero glyphshow
7.634766 0.000000 m /period glyphshow
11.449219 0.000000 m /two glyphshow
19.083984 0.000000 m /zero glyphshow
grestore
gsave
334.224594 488.600437 translate
0.000000 rotate
/BitstreamVeraSans-Roman findfont
12.0 scalefont
setfont
0.000000 0.808312 moveto
/x glyphshow

7.101562 0.808312 moveto
/hyphen glyphshow

11.431641 0.808312 moveto
/a glyphshow

18.785156 0.808312 moveto
/x glyphshow

25.886719 0.808312 moveto
/i glyphshow

29.220703 0.808312 moveto
/s glyphshow

35.472656 0.808312 moveto
/space glyphshow

39.287109 0.808312 moveto
/bracketleft glyphshow

/Cmr10 findfont
12.0 scalefont
setfont
43.968750 0.808312 moveto
/one glyphshow

49.968750 0.808312 moveto
/zero glyphshow

/Cmsy10 findfont
8.4 scalefont
setfont
56.504447 5.400000 moveto
/minus glyphshow

/Cmr10 findfont
8.4 scalefont
setfont
63.030033 5.400000 moveto
/four glyphshow

/BitstreamVeraSans-Roman findfont
12.0 scalefont
setfont
67.995314 0.808312 moveto
/space glyphshow

71.809767 0.808312 moveto
/c glyphshow

78.407423 0.808312 moveto
/m glyphshow

90.096877 0.808312 moveto
/bracketright glyphshow


grestore
gsave
/o {
gsave
newpath
translate
0.5 setlinewidth
1 setlinejoin
0 setlinecap
0 0 m
4 0 l

gsave
0.000 setgray
fill
grestore
stroke
grestore
} bind def
69.8529 519.725 o
grestore
gsave
/o {
gsave
newpath
translate
0.5 setlinewidth
1 setlinejoin
0 setlinecap
0 0 m
-4 0 l

gsave
0.000 setgray
fill
grestore
stroke
grestore
} bind def
693.596 519.725 o
grestore
gsave
48.149812 516.412937 translate
0.000000 rotate
0.000000 0.000000 m /minus glyphshow
10.054688 0.000000 m /five glyphshow
grestore
gsave
/o {
gsave
newpath
translate
0.5 setlinewidth
1 setlinejoin
0 setlinecap
0 0 m
4 0 l

gsave
0.000 setgray
fill
grestore
stroke
grestore
} bind def
69.8529 548.026 o
grestore
gsave
/o {
gsave
newpath
translate
0.5 setlinewidth
1 setlinejoin
0 setlinecap
0 0 m
-4 0 l

gsave
0.000 setgray
fill
grestore
stroke
grestore
} bind def
693.596 548.026 o
grestore
gsave
58.212312 544.713698 translate
0.000000 rotate
0.000000 0.000000 m /zero glyphshow
grestore
gsave
/o {
gsave
newpath
translate
0.5 setlinewidth
1 setlinejoin
0 setlinecap
0 0 m
4 0 l

gsave
0.000 setgray
fill
grestore
stroke
grestore
} bind def
69.8529 576.327 o
grestore
gsave
/o {
gsave
newpath
translate
0.5 setlinewidth
1 setlinejoin
0 setlinecap
0 0 m
-4 0 l

gsave
0.000 setgray
fill
grestore
stroke
grestore
} bind def
693.596 576.327 o
grestore
gsave
58.212312 573.014458 translate
0.000000 rotate
0.000000 0.000000 m /five glyphshow
grestore
gsave
/o {
gsave
newpath
translate
0.5 setlinewidth
1 setlinejoin
0 setlinecap
0 0 m
4 0 l

gsave
0.000 setgray
fill
grestore
stroke
grestore
} bind def
69.8529 604.628 o
grestore
gsave
/o {
gsave
newpath
translate
0.5 setlinewidth
1 setlinejoin
0 setlinecap
0 0 m
-4 0 l

gsave
0.000 setgray
fill
grestore
stroke
grestore
} bind def
693.596 604.628 o
grestore
gsave
50.571687 601.315219 translate
0.000000 rotate
0.000000 0.000000 m /one glyphshow
7.634766 0.000000 m /zero glyphshow
grestore
gsave
/o {
gsave
newpath
translate
0.5 setlinewidth
1 setlinejoin
0 setlinecap
0 0 m
4 0 l

gsave
0.000 setgray
fill
grestore
stroke
grestore
} bind def
69.8529 632.928 o
grestore
gsave
/o {
gsave
newpath
translate
0.5 setlinewidth
1 setlinejoin
0 setlinecap
0 0 m
-4 0 l

gsave
0.000 setgray
fill
grestore
stroke
grestore
} bind def
693.596 632.928 o
grestore
gsave
50.571687 629.615979 translate
0.000000 rotate
0.000000 0.000000 m /one glyphshow
7.634766 0.000000 m /five glyphshow
grestore
gsave
/o {
gsave
newpath
translate
0.5 setlinewidth
1 setlinejoin
0 setlinecap
0 0 m
4 0 l

gsave
0.000 setgray
fill
grestore
stroke
grestore
} bind def
69.8529 661.229 o
grestore
gsave
/o {
gsave
newpath
translate
0.5 setlinewidth
1 setlinejoin
0 setlinecap
0 0 m
-4 0 l

gsave
0.000 setgray
fill
grestore
stroke
grestore
} bind def
693.596 661.229 o
grestore
gsave
50.571687 657.916740 translate
0.000000 rotate
0.000000 0.000000 m /two glyphshow
7.634766 0.000000 m /zero glyphshow
grestore
gsave
/o {
gsave
newpath
translate
0.5 setlinewidth
1 setlinejoin
0 setlinecap
0 0 m
4 0 l

gsave
0.000 setgray
fill
grestore
stroke
grestore
} bind def
69.8529 689.53 o
grestore
gsave
/o {
gsave
newpath
translate
0.5 setlinewidth
1 setlinejoin
0 setlinecap
0 0 m
-4 0 l

gsave
0.000 setgray
fill
grestore
stroke
grestore
} bind def
693.596 689.53 o
grestore
gsave
50.571687 686.217500 translate
0.000000 rotate
0.000000 0.000000 m /two glyphshow
7.634766 0.000000 m /five glyphshow
grestore
gsave
40.649812 575.127719 translate
90.000000 rotate
/BitstreamVeraSans-Roman findfont
12.0 scalefont
setfont
0.000000 0.808312 moveto
/bracketleft glyphshow

4.681641 0.808312 moveto
/k glyphshow

11.630859 0.808312 moveto
/V glyphshow

19.839844 0.808312 moveto
/space glyphshow

23.654297 0.808312 moveto
/c glyphshow

30.251953 0.808312 moveto
/m glyphshow

/Cmsy10 findfont
8.4 scalefont
setfont
42.477103 5.400000 moveto
/minus glyphshow

/Cmr10 findfont
8.4 scalefont
setfont
49.002689 5.400000 moveto
/one glyphshow

/BitstreamVeraSans-Roman findfont
12.0 scalefont
setfont
53.967970 0.808312 moveto
/bracketright glyphshow


grestore
gsave
263.224594 694.530000 translate
0.000000 rotate
/BitstreamVeraSans-Roman findfont
14.4 scalefont
setfont
0.000000 0.359375 moveto
/E glyphshow

9.082642 0.359375 moveto
/l glyphshow

13.076477 0.359375 moveto
/e glyphshow

21.920471 0.359375 moveto
/c glyphshow

29.823914 0.359375 moveto
/t glyphshow

35.460205 0.359375 moveto
/r glyphshow

41.370239 0.359375 moveto
/i glyphshow

45.364075 0.359375 moveto
/c glyphshow

53.267517 0.359375 moveto
/space glyphshow

57.836914 0.359375 moveto
/F glyphshow

66.105347 0.359375 moveto
/i glyphshow

70.099182 0.359375 moveto
/e glyphshow

78.943176 0.359375 moveto
/l glyphshow

82.937012 0.359375 moveto
/d glyphshow

92.061768 0.359375 moveto
/s glyphshow

99.551086 0.359375 moveto
/space glyphshow

104.120483 0.359375 moveto
/W glyphshow

118.334045 0.359375 moveto
/i glyphshow

122.327881 0.359375 moveto
/t glyphshow

127.964172 0.359375 moveto
/h glyphshow

137.074890 0.359375 moveto
/space glyphshow

/Cmr10 findfont
14.4 scalefont
setfont
141.644287 0.359375 moveto
/Phi glyphshow

/Cmmi10 findfont
10.08 scalefont
setfont
152.679564 -2.089525 moveto
/a glyphshow

157.996642 -2.089525 moveto
/p glyphshow

163.062873 -2.089525 moveto
/p glyphshow

168.129103 -2.089525 moveto
/period glyphshow

/Cmr10 findfont
14.4 scalefont
setfont
176.131867 0.359375 moveto
/equal glyphshow

189.838087 0.359375 moveto
/zero glyphshow

/Cmmi10 findfont
14.4 scalefont
setfont
197.033399 0.359375 moveto
/period glyphshow

/Cmr10 findfont
14.4 scalefont
setfont
203.544306 0.359375 moveto
/three glyphshow

/BitstreamVeraSans-Roman findfont
14.4 scalefont
setfont
210.739619 0.359375 moveto
/space glyphshow

215.309016 0.359375 moveto
/bracketleft glyphshow

220.917231 0.359375 moveto
/V glyphshow

230.750910 0.359375 moveto
/bracketright glyphshow


grestore
1.000 setlinewidth
0 setlinejoin
gsave
507.565 589.4675 m
686.09625 589.4675 l
686.09625 682.03 l
507.565 682.03 l
cl
gsave
1.000 setgray
fill
grestore
stroke
grestore
2.000 setlinewidth
1 setlinejoin
2 setlinecap
0.000 0.000 1.000 setrgbcolor
gsave
518.065 669.889375 m
539.065 669.889375 l
stroke
grestore
0.000 setgray
/BitstreamVeraSans-Roman findfont
15.000 scalefont
setfont
gsave
555.565000 664.639375 translate
0.000000 rotate
0.000000 0.000000 m /D glyphshow
11.550293 0.000000 m /o glyphshow
20.727539 0.000000 m /p glyphshow
30.249023 0.000000 m /i glyphshow
34.416504 0.000000 m /n glyphshow
43.923340 0.000000 m /g glyphshow
53.444824 0.000000 m /space glyphshow
58.212891 0.000000 m /P glyphshow
67.258301 0.000000 m /r glyphshow
73.425293 0.000000 m /o glyphshow
82.602539 0.000000 m /f glyphshow
87.883301 0.000000 m /i glyphshow
92.050781 0.000000 m /l glyphshow
96.218262 0.000000 m /e glyphshow
105.446777 0.000000 m /space glyphshow
110.214844 0.000000 m /space glyphshow
114.982910 0.000000 m /one glyphshow
grestore
1.000 0.000 0.000 setrgbcolor
gsave
518.065 647.87375 m
539.065 647.87375 l
stroke
grestore
0.000 setgray
gsave
555.565000 642.623750 translate
0.000000 rotate
0.000000 0.000000 m /D glyphshow
11.550293 0.000000 m /o glyphshow
20.727539 0.000000 m /p glyphshow
30.249023 0.000000 m /i glyphshow
34.416504 0.000000 m /n glyphshow
43.923340 0.000000 m /g glyphshow
53.444824 0.000000 m /space glyphshow
58.212891 0.000000 m /P glyphshow
67.258301 0.000000 m /r glyphshow
73.425293 0.000000 m /o glyphshow
82.602539 0.000000 m /f glyphshow
87.883301 0.000000 m /i glyphshow
92.050781 0.000000 m /l glyphshow
96.218262 0.000000 m /e glyphshow
105.446777 0.000000 m /space glyphshow
110.214844 0.000000 m /space glyphshow
114.982910 0.000000 m /two glyphshow
grestore
0.000 0.500 0.000 setrgbcolor
gsave
518.065 625.858125 m
539.065 625.858125 l
stroke
grestore
0.000 setgray
gsave
555.565000 620.608125 translate
0.000000 rotate
0.000000 0.000000 m /D glyphshow
11.550293 0.000000 m /o glyphshow
20.727539 0.000000 m /p glyphshow
30.249023 0.000000 m /i glyphshow
34.416504 0.000000 m /n glyphshow
43.923340 0.000000 m /g glyphshow
53.444824 0.000000 m /space glyphshow
58.212891 0.000000 m /P glyphshow
67.258301 0.000000 m /r glyphshow
73.425293 0.000000 m /o glyphshow
82.602539 0.000000 m /f glyphshow
87.883301 0.000000 m /i glyphshow
92.050781 0.000000 m /l glyphshow
96.218262 0.000000 m /e glyphshow
105.446777 0.000000 m /space glyphshow
110.214844 0.000000 m /space glyphshow
114.982910 0.000000 m /three glyphshow
grestore
0.750 0.000 0.750 setrgbcolor
gsave
518.065 603.8425 m
539.065 603.8425 l
stroke
grestore
0.000 setgray
gsave
555.565000 598.592500 translate
0.000000 rotate
0.000000 0.000000 m /D glyphshow
11.550293 0.000000 m /o glyphshow
20.727539 0.000000 m /p glyphshow
30.249023 0.000000 m /i glyphshow
34.416504 0.000000 m /n glyphshow
43.923340 0.000000 m /g glyphshow
53.444824 0.000000 m /space glyphshow
58.212891 0.000000 m /P glyphshow
67.258301 0.000000 m /r glyphshow
73.425293 0.000000 m /o glyphshow
82.602539 0.000000 m /f glyphshow
87.883301 0.000000 m /i glyphshow
92.050781 0.000000 m /l glyphshow
96.218262 0.000000 m /e glyphshow
105.446777 0.000000 m /space glyphshow
110.214844 0.000000 m /space glyphshow
114.982910 0.000000 m /four glyphshow
grestore
gsave
69.852937 284.045437 m
693.59625 284.045437 l
693.59625 453.85 l
69.852937 453.85 l
cl
1.000 setgray
fill
grestore
0.000 0.000 1.000 setrgbcolor
gsave
623.7 169.8 69.85 284 clipbox
69.862294 388.561143 m
185.468439 388.671947 l
234.289919 388.921385 l
265.477085 389.292013 l
288.659597 389.782415 l
307.059868 390.385093 l
322.653451 391.111527 l
336.119913 391.954139 l
348.256399 392.93281 l
359.267807 394.042125 l
369.434231 395.289018 l
378.951057 396.680413 l
381.710821 397.128542 l
381.796617 388.642674 l
545.539859 388.519874 l
690.46194 388.321354 l
693.586894 388.312081 l
693.586894 388.312081 l
stroke
grestore
1.000 0.000 0.000 setrgbcolor
gsave
623.7 169.8 69.85 284 clipbox
69.862294 388.543536 m
158.00502 388.654176 l
181.209831 388.895442 l
195.54969 389.257012 l
205.945931 389.731187 l
214.129444 390.314086 l
221.060791 391.022441 l
226.964834 391.840378 l
232.162643 392.774918 l
236.888746 393.844687 l
241.310306 395.078879 l
245.157243 396.371733 l
249.004492 397.905339 l
252.482328 399.529367 l
255.799863 401.318776 l
259.078258 403.345215 l
262.245783 405.573097 l
265.269222 407.970951 l
268.305137 410.66803 l
271.393446 413.730919 l
272.641556 414.918231 l
275.664996 412.220814 l
278.943391 409.609093 l
282.468632 407.102583 l
286.06077 404.816018 l
290.057717 402.531074 l
294.536974 400.23465 l
299.492303 397.951124 l
305.179594 395.584334 l
311.871268 393.046706 l
321.244883 389.754843 l
339.437448 383.408741 l
346.273051 380.75374 l
351.960343 378.306994 l
356.911305 375.932573 l
361.250999 373.607448 l
365.197423 371.244372 l
368.904548 368.758527 l
372.262408 366.236485 l
375.350732 363.641983 l
378.192133 360.977116 l
381.020305 358.009039 l
381.710821 357.22927 l
381.796617 388.168103 l
449.614687 388.378482 l
555.198524 388.462927 l
672.688374 388.350605 l
693.586894 388.295693 l
693.586894 388.295693 l
stroke
grestore
0.000 0.500 0.000 setrgbcolor
gsave
623.7 169.8 69.85 284 clipbox
69.862294 388.856621 m
86.39461 388.966784 l
99.92984 389.267952 l
110.326082 389.711293 l
118.8355 390.29411 l
125.766847 390.984942 l
131.757902 391.798658 l
136.955243 392.71793 l
141.673861 393.769317 l
145.971453 394.947053 l
149.883883 396.237619 l
153.48756 397.641972 l
157.10683 399.291932 l
160.571724 401.129017 l
163.745018 403.059699 l
166.869972 405.217821 l
169.396133 407.165453 l
172.288742 409.637658 l
175.073756 412.276324 l
178.385833 415.769379 l
179.056357 416.427323 l
182.003544 413.939587 l
185.155008 411.582521 l
188.293996 409.496993 l
191.606073 407.537678 l
195.385957 405.55878 l
199.329574 403.740063 l
203.734761 401.95842 l
208.511076 400.273615 l
213.777029 398.662282 l
219.328344 397.192898 l
225.576693 395.766395 l
232.409489 394.427262 l
240.448761 393.080201 l
249.883502 391.73262 l
261.677241 390.285068 l
280.862805 388.191795 l
299.734783 386.059887 l
310.849109 384.585046 l
319.846762 383.173453 l
327.464851 381.761287 l
334.239483 380.283529 l
340.316302 378.730745 l
345.657416 377.143993 l
350.60947 375.444534 l
355.031031 373.701923 l
359.267807 371.791635 l
363.214231 369.757295 l
366.627573 367.762392 l
369.905937 365.601433 l
372.994277 363.30663 l
376.030176 360.761087 l
378.807814 358.134577 l
381.40675 355.372331 l
381.710821 355.027388 l
381.796617 388.141926 l
447.015705 388.362318 l
547.587297 388.45948 l
666.206122 388.363571 l
693.586894 388.294725 l
693.586894 388.294725 l
stroke
grestore
0.750 0.000 0.750 setrgbcolor
gsave
623.7 169.8 69.85 284 clipbox
69.862294 388.602606 m
94.118112 388.713827 l
107.854499 388.977501 l
116.96427 389.359239 l
123.895617 389.861723 l
129.384559 390.469553 l
134.076668 391.204158 l
138.208967 392.076125 l
141.673861 393.019424 l
144.825324 394.08845 l
147.869192 395.355542 l
150.501388 396.673997 l
153.135145 398.236236 l
155.700289 400.030642 l
158.226449 402.102056 l
161.059803 404.839113 l
163.366094 407.43537 l
165.477465 410.135691 l
167.663686 413.290624 l
169.722039 416.627347 l
171.961277 420.689342 l
174.022749 424.856144 l
176.32748 430.030695 l
178.795944 436.206919 l
179.017373 436.750602 l
179.056357 436.676319 l
181.209831 432.796183 l
183.42256 429.259436 l
185.607221 426.140496 l
188.141179 422.921073 l
190.804563 419.919568 l
193.65351 417.079325 l
196.450999 414.599557 l
199.329574 412.320218 l
202.641651 409.987801 l
206.108105 407.828057 l
209.864599 405.758466 l
213.708417 403.886198 l
218.07462 402.011498 l
222.535944 400.325815 l
227.45416 398.689699 l
233.089057 397.049126 l
239.280022 395.477029 l
246.594036 393.860044 l
254.873604 392.261164 l
265.477085 390.449895 l
287.458735 386.997216 l
299.981785 384.884001 l
309.026531 383.135772 l
316.433483 381.483671 l
322.882677 379.822772 l
328.569968 378.134725 l
333.767777 376.361185 l
338.47626 374.519441 l
342.812679 372.581195 l
346.515531 370.705483 l
350.219631 368.584637 l
353.63291 366.373976 l
356.668825 364.161694 l
359.757134 361.629455 l
362.598597 359.003012 l
365.197423 356.306135 l
367.796406 353.276066 l
370.152877 350.188461 l
372.504872 346.723295 l
374.632087 343.198163 l
376.701339 339.34227 l
378.629112 335.303843 l
380.548594 330.777241 l
381.710821 327.737988 l
381.796617 387.817226 l
428.187545 388.139949 l
492.774294 388.353338 l
587.954405 388.429809 l
687.135829 388.302152 l
693.586894 388.283507 l
693.586894 388.283507 l
stroke
grestore
1.000 setlinewidth
0 setlinejoin
0.000 setgray
gsave
69.852937 453.85 m
693.59625 453.85 l
stroke
grestore
gsave
693.59625 284.045437 m
693.59625 453.85 l
stroke
grestore
gsave
69.852937 284.045437 m
693.59625 284.045437 l
stroke
grestore
gsave
69.852937 284.045437 m
69.852937 453.85 l
stroke
grestore
0.500 setlinewidth
1 setlinejoin
0 setlinecap
gsave
/o {
gsave
newpath
translate
0.5 setlinewidth
1 setlinejoin
0 setlinecap
0 0 m
0 4 l

gsave
0.000 setgray
fill
grestore
stroke
grestore
} bind def
69.8529 284.045 o
grestore
gsave
/o {
gsave
newpath
translate
0.5 setlinewidth
1 setlinejoin
0 setlinecap
0 0 m
0 -4 l

gsave
0.000 setgray
fill
grestore
stroke
grestore
} bind def
69.8529 453.85 o
grestore
/BitstreamVeraSans-Roman findfont
12.000 scalefont
setfont
gsave
51.454500 270.920437 translate
0.000000 rotate
0.000000 0.000000 m /minus glyphshow
10.054688 0.000000 m /zero glyphshow
17.689453 0.000000 m /period glyphshow
21.503906 0.000000 m /two glyphshow
29.138672 0.000000 m /zero glyphshow
grestore
gsave
/o {
gsave
newpath
translate
0.5 setlinewidth
1 setlinejoin
0 setlinecap
0 0 m
0 4 l

gsave
0.000 setgray
fill
grestore
stroke
grestore
} bind def
147.821 284.045 o
grestore
gsave
/o {
gsave
newpath
translate
0.5 setlinewidth
1 setlinejoin
0 setlinecap
0 0 m
0 -4 l

gsave
0.000 setgray
fill
grestore
stroke
grestore
} bind def
147.821 453.85 o
grestore
gsave
129.422414 270.920437 translate
0.000000 rotate
0.000000 0.000000 m /minus glyphshow
10.054688 0.000000 m /zero glyphshow
17.689453 0.000000 m /period glyphshow
21.503906 0.000000 m /one glyphshow
29.138672 0.000000 m /five glyphshow
grestore
gsave
/o {
gsave
newpath
translate
0.5 setlinewidth
1 setlinejoin
0 setlinecap
0 0 m
0 4 l

gsave
0.000 setgray
fill
grestore
stroke
grestore
} bind def
225.789 284.045 o
grestore
gsave
/o {
gsave
newpath
translate
0.5 setlinewidth
1 setlinejoin
0 setlinecap
0 0 m
0 -4 l

gsave
0.000 setgray
fill
grestore
stroke
grestore
} bind def
225.789 453.85 o
grestore
gsave
207.390328 270.920437 translate
0.000000 rotate
0.000000 0.000000 m /minus glyphshow
10.054688 0.000000 m /zero glyphshow
17.689453 0.000000 m /period glyphshow
21.503906 0.000000 m /one glyphshow
29.138672 0.000000 m /zero glyphshow
grestore
gsave
/o {
gsave
newpath
translate
0.5 setlinewidth
1 setlinejoin
0 setlinecap
0 0 m
0 4 l

gsave
0.000 setgray
fill
grestore
stroke
grestore
} bind def
303.757 284.045 o
grestore
gsave
/o {
gsave
newpath
translate
0.5 setlinewidth
1 setlinejoin
0 setlinecap
0 0 m
0 -4 l

gsave
0.000 setgray
fill
grestore
stroke
grestore
} bind def
303.757 453.85 o
grestore
gsave
285.358242 270.920437 translate
0.000000 rotate
0.000000 0.000000 m /minus glyphshow
10.054688 0.000000 m /zero glyphshow
17.689453 0.000000 m /period glyphshow
21.503906 0.000000 m /zero glyphshow
29.138672 0.000000 m /five glyphshow
grestore
gsave
/o {
gsave
newpath
translate
0.5 setlinewidth
1 setlinejoin
0 setlinecap
0 0 m
0 4 l

gsave
0.000 setgray
fill
grestore
stroke
grestore
} bind def
381.725 284.045 o
grestore
gsave
/o {
gsave
newpath
translate
0.5 setlinewidth
1 setlinejoin
0 setlinecap
0 0 m
0 -4 l

gsave
0.000 setgray
fill
grestore
stroke
grestore
} bind def
381.725 453.85 o
grestore
gsave
368.357406 270.920437 translate
0.000000 rotate
0.000000 0.000000 m /zero glyphshow
7.634766 0.000000 m /period glyphshow
11.449219 0.000000 m /zero glyphshow
19.083984 0.000000 m /zero glyphshow
grestore
gsave
/o {
gsave
newpath
translate
0.5 setlinewidth
1 setlinejoin
0 setlinecap
0 0 m
0 4 l

gsave
0.000 setgray
fill
grestore
stroke
grestore
} bind def
459.693 284.045 o
grestore
gsave
/o {
gsave
newpath
translate
0.5 setlinewidth
1 setlinejoin
0 setlinecap
0 0 m
0 -4 l

gsave
0.000 setgray
fill
grestore
stroke
grestore
} bind def
459.693 453.85 o
grestore
gsave
446.325320 270.920437 translate
0.000000 rotate
0.000000 0.000000 m /zero glyphshow
7.634766 0.000000 m /period glyphshow
11.449219 0.000000 m /zero glyphshow
19.083984 0.000000 m /five glyphshow
grestore
gsave
/o {
gsave
newpath
translate
0.5 setlinewidth
1 setlinejoin
0 setlinecap
0 0 m
0 4 l

gsave
0.000 setgray
fill
grestore
stroke
grestore
} bind def
537.66 284.045 o
grestore
gsave
/o {
gsave
newpath
translate
0.5 setlinewidth
1 setlinejoin
0 setlinecap
0 0 m
0 -4 l

gsave
0.000 setgray
fill
grestore
stroke
grestore
} bind def
537.66 453.85 o
grestore
gsave
524.293234 270.920437 translate
0.000000 rotate
0.000000 0.000000 m /zero glyphshow
7.634766 0.000000 m /period glyphshow
11.449219 0.000000 m /one glyphshow
19.083984 0.000000 m /zero glyphshow
grestore
gsave
/o {
gsave
newpath
translate
0.5 setlinewidth
1 setlinejoin
0 setlinecap
0 0 m
0 4 l

gsave
0.000 setgray
fill
grestore
stroke
grestore
} bind def
615.628 284.045 o
grestore
gsave
/o {
gsave
newpath
translate
0.5 setlinewidth
1 setlinejoin
0 setlinecap
0 0 m
0 -4 l

gsave
0.000 setgray
fill
grestore
stroke
grestore
} bind def
615.628 453.85 o
grestore
gsave
602.261148 270.920437 translate
0.000000 rotate
0.000000 0.000000 m /zero glyphshow
7.634766 0.000000 m /period glyphshow
11.449219 0.000000 m /one glyphshow
19.083984 0.000000 m /five glyphshow
grestore
gsave
/o {
gsave
newpath
translate
0.5 setlinewidth
1 setlinejoin
0 setlinecap
0 0 m
0 4 l

gsave
0.000 setgray
fill
grestore
stroke
grestore
} bind def
693.596 284.045 o
grestore
gsave
/o {
gsave
newpath
translate
0.5 setlinewidth
1 setlinejoin
0 setlinecap
0 0 m
0 -4 l

gsave
0.000 setgray
fill
grestore
stroke
grestore
} bind def
693.596 453.85 o
grestore
gsave
680.229063 270.920437 translate
0.000000 rotate
0.000000 0.000000 m /zero glyphshow
7.634766 0.000000 m /period glyphshow
11.449219 0.000000 m /two glyphshow
19.083984 0.000000 m /zero glyphshow
grestore
gsave
334.224594 252.920437 translate
0.000000 rotate
/BitstreamVeraSans-Roman findfont
12.0 scalefont
setfont
0.000000 0.808312 moveto
/x glyphshow

7.101562 0.808312 moveto
/hyphen glyphshow

11.431641 0.808312 moveto
/a glyphshow

18.785156 0.808312 moveto
/x glyphshow

25.886719 0.808312 moveto
/i glyphshow

29.220703 0.808312 moveto
/s glyphshow

35.472656 0.808312 moveto
/space glyphshow

39.287109 0.808312 moveto
/bracketleft glyphshow

/Cmr10 findfont
12.0 scalefont
setfont
43.968750 0.808312 moveto
/one glyphshow

49.968750 0.808312 moveto
/zero glyphshow

/Cmsy10 findfont
8.4 scalefont
setfont
56.504447 5.400000 moveto
/minus glyphshow

/Cmr10 findfont
8.4 scalefont
setfont
63.030033 5.400000 moveto
/four glyphshow

/BitstreamVeraSans-Roman findfont
12.0 scalefont
setfont
67.995314 0.808312 moveto
/space glyphshow

71.809767 0.808312 moveto
/c glyphshow

78.407423 0.808312 moveto
/m glyphshow

90.096877 0.808312 moveto
/bracketright glyphshow


grestore
gsave
/o {
gsave
newpath
translate
0.5 setlinewidth
1 setlinejoin
0 setlinecap
0 0 m
4 0 l

gsave
0.000 setgray
fill
grestore
stroke
grestore
} bind def
69.8529 284.045 o
grestore
gsave
/o {
gsave
newpath
translate
0.5 setlinewidth
1 setlinejoin
0 setlinecap
0 0 m
-4 0 l

gsave
0.000 setgray
fill
grestore
stroke
grestore
} bind def
693.596 284.045 o
grestore
gsave
40.509187 280.732937 translate
0.000000 rotate
0.000000 0.000000 m /minus glyphshow
10.054688 0.000000 m /four glyphshow
17.689453 0.000000 m /zero glyphshow
grestore
gsave
/o {
gsave
newpath
translate
0.5 setlinewidth
1 setlinejoin
0 setlinecap
0 0 m
4 0 l

gsave
0.000 setgray
fill
grestore
stroke
grestore
} bind def
69.8529 310.169 o
grestore
gsave
/o {
gsave
newpath
translate
0.5 setlinewidth
1 setlinejoin
0 setlinecap
0 0 m
-4 0 l

gsave
0.000 setgray
fill
grestore
stroke
grestore
} bind def
693.596 310.169 o
grestore
gsave
40.509187 306.856716 translate
0.000000 rotate
0.000000 0.000000 m /minus glyphshow
10.054688 0.000000 m /three glyphshow
17.689453 0.000000 m /zero glyphshow
grestore
gsave
/o {
gsave
newpath
translate
0.5 setlinewidth
1 setlinejoin
0 setlinecap
0 0 m
4 0 l

gsave
0.000 setgray
fill
grestore
stroke
grestore
} bind def
69.8529 336.293 o
grestore
gsave
/o {
gsave
newpath
translate
0.5 setlinewidth
1 setlinejoin
0 setlinecap
0 0 m
-4 0 l

gsave
0.000 setgray
fill
grestore
stroke
grestore
} bind def
693.596 336.293 o
grestore
gsave
40.509187 332.980495 translate
0.000000 rotate
0.000000 0.000000 m /minus glyphshow
10.054688 0.000000 m /two glyphshow
17.689453 0.000000 m /zero glyphshow
grestore
gsave
/o {
gsave
newpath
translate
0.5 setlinewidth
1 setlinejoin
0 setlinecap
0 0 m
4 0 l

gsave
0.000 setgray
fill
grestore
stroke
grestore
} bind def
69.8529 362.417 o
grestore
gsave
/o {
gsave
newpath
translate
0.5 setlinewidth
1 setlinejoin
0 setlinecap
0 0 m
-4 0 l

gsave
0.000 setgray
fill
grestore
stroke
grestore
} bind def
693.596 362.417 o
grestore
gsave
40.509187 359.104274 translate
0.000000 rotate
0.000000 0.000000 m /minus glyphshow
10.054688 0.000000 m /one glyphshow
17.689453 0.000000 m /zero glyphshow
grestore
gsave
/o {
gsave
newpath
translate
0.5 setlinewidth
1 setlinejoin
0 setlinecap
0 0 m
4 0 l

gsave
0.000 setgray
fill
grestore
stroke
grestore
} bind def
69.8529 388.541 o
grestore
gsave
/o {
gsave
newpath
translate
0.5 setlinewidth
1 setlinejoin
0 setlinecap
0 0 m
-4 0 l

gsave
0.000 setgray
fill
grestore
stroke
grestore
} bind def
693.596 388.541 o
grestore
gsave
58.212312 385.228053 translate
0.000000 rotate
0.000000 0.000000 m /zero glyphshow
grestore
gsave
/o {
gsave
newpath
translate
0.5 setlinewidth
1 setlinejoin
0 setlinecap
0 0 m
4 0 l

gsave
0.000 setgray
fill
grestore
stroke
grestore
} bind def
69.8529 414.664 o
grestore
gsave
/o {
gsave
newpath
translate
0.5 setlinewidth
1 setlinejoin
0 setlinecap
0 0 m
-4 0 l

gsave
0.000 setgray
fill
grestore
stroke
grestore
} bind def
693.596 414.664 o
grestore
gsave
50.571687 411.351832 translate
0.000000 rotate
0.000000 0.000000 m /one glyphshow
7.634766 0.000000 m /zero glyphshow
grestore
gsave
/o {
gsave
newpath
translate
0.5 setlinewidth
1 setlinejoin
0 setlinecap
0 0 m
4 0 l

gsave
0.000 setgray
fill
grestore
stroke
grestore
} bind def
69.8529 440.788 o
grestore
gsave
/o {
gsave
newpath
translate
0.5 setlinewidth
1 setlinejoin
0 setlinecap
0 0 m
-4 0 l

gsave
0.000 setgray
fill
grestore
stroke
grestore
} bind def
693.596 440.788 o
grestore
gsave
50.571687 437.475611 translate
0.000000 rotate
0.000000 0.000000 m /two glyphshow
7.634766 0.000000 m /zero glyphshow
grestore
gsave
33.009187 339.447719 translate
90.000000 rotate
/BitstreamVeraSans-Roman findfont
12.0 scalefont
setfont
0.000000 0.808312 moveto
/bracketleft glyphshow

4.681641 0.808312 moveto
/k glyphshow

11.630859 0.808312 moveto
/V glyphshow

19.839844 0.808312 moveto
/space glyphshow

23.654297 0.808312 moveto
/c glyphshow

30.251953 0.808312 moveto
/m glyphshow

/Cmsy10 findfont
8.4 scalefont
setfont
42.477103 5.400000 moveto
/minus glyphshow

/Cmr10 findfont
8.4 scalefont
setfont
49.002689 5.400000 moveto
/one glyphshow

/BitstreamVeraSans-Roman findfont
12.0 scalefont
setfont
53.967970 0.808312 moveto
/bracketright glyphshow


grestore
gsave
263.224594 458.850000 translate
0.000000 rotate
/BitstreamVeraSans-Roman findfont
14.4 scalefont
setfont
0.000000 0.359375 moveto
/E glyphshow

9.082642 0.359375 moveto
/l glyphshow

13.076477 0.359375 moveto
/e glyphshow

21.920471 0.359375 moveto
/c glyphshow

29.823914 0.359375 moveto
/t glyphshow

35.460205 0.359375 moveto
/r glyphshow

41.370239 0.359375 moveto
/i glyphshow

45.364075 0.359375 moveto
/c glyphshow

53.267517 0.359375 moveto
/space glyphshow

57.836914 0.359375 moveto
/F glyphshow

66.105347 0.359375 moveto
/i glyphshow

70.099182 0.359375 moveto
/e glyphshow

78.943176 0.359375 moveto
/l glyphshow

82.937012 0.359375 moveto
/d glyphshow

92.061768 0.359375 moveto
/s glyphshow

99.551086 0.359375 moveto
/space glyphshow

104.120483 0.359375 moveto
/W glyphshow

118.334045 0.359375 moveto
/i glyphshow

122.327881 0.359375 moveto
/t glyphshow

127.964172 0.359375 moveto
/h glyphshow

137.074890 0.359375 moveto
/space glyphshow

/Cmr10 findfont
14.4 scalefont
setfont
141.644287 0.359375 moveto
/Phi glyphshow

/Cmmi10 findfont
10.08 scalefont
setfont
152.679564 -2.089525 moveto
/a glyphshow

157.996642 -2.089525 moveto
/p glyphshow

163.062873 -2.089525 moveto
/p glyphshow

168.129103 -2.089525 moveto
/period glyphshow

/Cmr10 findfont
14.4 scalefont
setfont
176.131867 0.359375 moveto
/equal glyphshow

189.838087 0.359375 moveto
/zero glyphshow

/Cmmi10 findfont
14.4 scalefont
setfont
197.033399 0.359375 moveto
/period glyphshow

/Cmr10 findfont
14.4 scalefont
setfont
203.544306 0.359375 moveto
/four glyphshow

/BitstreamVeraSans-Roman findfont
14.4 scalefont
setfont
210.739619 0.359375 moveto
/space glyphshow

215.309016 0.359375 moveto
/bracketleft glyphshow

220.917231 0.359375 moveto
/V glyphshow

230.750910 0.359375 moveto
/bracketright glyphshow


grestore
1.000 setlinewidth
0 setlinejoin
gsave
507.565 291.545437 m
686.09625 291.545437 l
686.09625 384.107937 l
507.565 384.107937 l
cl
gsave
1.000 setgray
fill
grestore
stroke
grestore
2.000 setlinewidth
1 setlinejoin
2 setlinecap
0.000 0.000 1.000 setrgbcolor
gsave
518.065 371.967312 m
539.065 371.967312 l
stroke
grestore
0.000 setgray
/BitstreamVeraSans-Roman findfont
15.000 scalefont
setfont
gsave
555.565000 366.717312 translate
0.000000 rotate
0.000000 0.000000 m /D glyphshow
11.550293 0.000000 m /o glyphshow
20.727539 0.000000 m /p glyphshow
30.249023 0.000000 m /i glyphshow
34.416504 0.000000 m /n glyphshow
43.923340 0.000000 m /g glyphshow
53.444824 0.000000 m /space glyphshow
58.212891 0.000000 m /P glyphshow
67.258301 0.000000 m /r glyphshow
73.425293 0.000000 m /o glyphshow
82.602539 0.000000 m /f glyphshow
87.883301 0.000000 m /i glyphshow
92.050781 0.000000 m /l glyphshow
96.218262 0.000000 m /e glyphshow
105.446777 0.000000 m /space glyphshow
110.214844 0.000000 m /space glyphshow
114.982910 0.000000 m /one glyphshow
grestore
1.000 0.000 0.000 setrgbcolor
gsave
518.065 349.951687 m
539.065 349.951687 l
stroke
grestore
0.000 setgray
gsave
555.565000 344.701687 translate
0.000000 rotate
0.000000 0.000000 m /D glyphshow
11.550293 0.000000 m /o glyphshow
20.727539 0.000000 m /p glyphshow
30.249023 0.000000 m /i glyphshow
34.416504 0.000000 m /n glyphshow
43.923340 0.000000 m /g glyphshow
53.444824 0.000000 m /space glyphshow
58.212891 0.000000 m /P glyphshow
67.258301 0.000000 m /r glyphshow
73.425293 0.000000 m /o glyphshow
82.602539 0.000000 m /f glyphshow
87.883301 0.000000 m /i glyphshow
92.050781 0.000000 m /l glyphshow
96.218262 0.000000 m /e glyphshow
105.446777 0.000000 m /space glyphshow
110.214844 0.000000 m /space glyphshow
114.982910 0.000000 m /two glyphshow
grestore
0.000 0.500 0.000 setrgbcolor
gsave
518.065 327.936062 m
539.065 327.936062 l
stroke
grestore
0.000 setgray
gsave
555.565000 322.686062 translate
0.000000 rotate
0.000000 0.000000 m /D glyphshow
11.550293 0.000000 m /o glyphshow
20.727539 0.000000 m /p glyphshow
30.249023 0.000000 m /i glyphshow
34.416504 0.000000 m /n glyphshow
43.923340 0.000000 m /g glyphshow
53.444824 0.000000 m /space glyphshow
58.212891 0.000000 m /P glyphshow
67.258301 0.000000 m /r glyphshow
73.425293 0.000000 m /o glyphshow
82.602539 0.000000 m /f glyphshow
87.883301 0.000000 m /i glyphshow
92.050781 0.000000 m /l glyphshow
96.218262 0.000000 m /e glyphshow
105.446777 0.000000 m /space glyphshow
110.214844 0.000000 m /space glyphshow
114.982910 0.000000 m /three glyphshow
grestore
0.750 0.000 0.750 setrgbcolor
gsave
518.065 305.920437 m
539.065 305.920437 l
stroke
grestore
0.000 setgray
gsave
555.565000 300.670437 translate
0.000000 rotate
0.000000 0.000000 m /D glyphshow
11.550293 0.000000 m /o glyphshow
20.727539 0.000000 m /p glyphshow
30.249023 0.000000 m /i glyphshow
34.416504 0.000000 m /n glyphshow
43.923340 0.000000 m /g glyphshow
53.444824 0.000000 m /space glyphshow
58.212891 0.000000 m /P glyphshow
67.258301 0.000000 m /r glyphshow
73.425293 0.000000 m /o glyphshow
82.602539 0.000000 m /f glyphshow
87.883301 0.000000 m /i glyphshow
92.050781 0.000000 m /l glyphshow
96.218262 0.000000 m /e glyphshow
105.446777 0.000000 m /space glyphshow
110.214844 0.000000 m /space glyphshow
114.982910 0.000000 m /four glyphshow
grestore
gsave
69.852937 48.365438 m
693.59625 48.365438 l
693.59625 218.17 l
69.852937 218.17 l
cl
1.000 setgray
fill
grestore
0.000 0.000 1.000 setrgbcolor
gsave
623.7 169.8 69.85 48.37 clipbox
69.862294 199.275506 m
174.43286 199.164637 l
221.701688 198.910734 l
251.07376 198.542112 l
272.251717 198.063159 l
288.480894 197.482764 l
301.47565 196.804197 l
312.049971 196.040472 l
321.015657 195.177428 l
328.569968 194.234146 l
335.118493 193.195602 l
340.63831 192.104639 l
345.514111 190.921673 l
349.60384 189.721559 l
353.454208 188.365902 l
356.668825 187.018537 l
359.757134 185.486132 l
362.598597 183.813186 l
365.197423 181.999779 l
367.553941 180.055819 l
369.663472 178.006396 l
371.646711 175.735588 l
373.223518 173.629823 l
374.861328 171.100721 l
376.454711 168.18008 l
377.949668 164.967784 l
379.443502 161.114239 l
380.548594 157.737876 l
381.710821 153.509764 l
381.796617 198.757754 l
436.476782 199.033585 l
518.044942 199.202905 l
654.369033 199.241273 l
693.586894 199.216912 l
693.586894 199.216912 l
stroke
grestore
1.000 0.000 0.000 setrgbcolor
gsave
623.7 169.8 69.85 48.37 clipbox
69.862294 199.303587 m
185.468439 199.414584 l
208.79332 199.652667 l
223.271961 200.009888 l
233.903354 200.482458 l
242.558416 201.083304 l
249.883502 201.812323 l
256.271569 202.669826 l
261.999248 203.66067 l
267.299663 204.803214 l
272.251717 206.09777 l
272.744162 206.137002 l
277.839365 204.736904 l
283.89872 203.311934 l
291.466286 201.775354 l
302.333765 199.823493 l
321.244883 196.443677 l
328.812449 194.846542 l
334.930123 193.328924 l
339.967162 191.852099 l
344.163551 190.403074 l
348.010488 188.838129 l
351.24179 187.294818 l
354.069842 185.720138 l
356.668825 184.038004 l
359.038582 182.255088 l
361.250999 180.317157 l
363.214231 178.316973 l
364.954943 176.274612 l
366.835295 173.701225 l
368.412103 171.157686 l
369.905937 168.37263 l
371.503484 164.820299 l
372.751797 161.551233 l
374.245646 156.860962 l
375.350732 152.681232 l
376.701339 146.447435 l
377.460263 142.36798 l
378.421374 135.951387 l
379.829958 124.647291 l
380.548594 116.751357 l
381.40675 104.59083 l
381.710821 99.568521 l
381.796617 198.1143 l
416.933656 198.55171 l
462.609287 198.885997 l
526.088736 199.112447 l
623.181867 199.216716 l
693.586894 199.194753 l
693.586894 199.194753 l
stroke
grestore
0.000 0.500 0.000 setrgbcolor
gsave
623.7 169.8 69.85 48.37 clipbox
69.862294 199.393033 m
99.190704 199.503808 l
117.743949 199.777909 l
130.543162 200.180293 l
140.26732 200.699248 l
148.290218 201.342749 l
155.221566 202.118823 l
161.351403 203.027966 l
166.99628 204.094914 l
172.193621 205.308859 l
177.158618 206.705777 l
179.22009 207.235203 l
183.993286 206.105827 l
189.873626 204.966131 l
196.382387 203.945419 l
204.048192 202.980384 l
213.19071 202.068432 l
224.268391 201.20051 l
238.07916 200.34574 l
261.240308 199.167255 l
285.882068 197.849264 l
299.263077 196.914518 l
309.658851 195.973167 l
318.174194 194.98439 l
325.252434 193.946763 l
331.411431 192.821504 l
336.60924 191.653131 l
341.075242 190.436161 l
345.164971 189.093653 l
348.642808 187.730622 l
351.713496 186.307954 l
354.559325 184.755611 l
357.158152 183.088518 l
359.510288 181.319512 l
361.637408 179.449646 l
363.706677 177.315984 l
365.426649 175.248262 l
367.307017 172.604643 l
369.047791 169.685953 l
370.395341 167.03063 l
372.033166 163.224296 l
373.223518 159.889876 l
374.632087 155.262032 l
375.822438 150.411009 l
377.231022 143.498897 l
378.192133 137.431119 l
379.62222 126.385317 l
380.301664 119.55319 l
381.228038 107.232498 l
381.710821 99.437033 l
381.796617 198.11274 l
416.933656 198.550731 l
462.609287 198.885458 l
526.088736 199.112209 l
623.181867 199.216639 l
693.586894 199.194699 l
693.586894 199.194699 l
stroke
grestore
0.750 0.000 0.750 setrgbcolor
gsave
623.7 169.8 69.85 48.37 clipbox
69.862294 199.320667 m
108.181964 199.43132 l
123.680426 199.677119 l
133.629132 200.045542 l
141.101577 200.541495 l
146.872762 201.135103 l
151.90793 201.872292 l
156.272573 202.734243 l
160.161613 203.726219 l
163.745018 204.870207 l
166.99628 206.133627 l
170.22883 207.635696 l
173.188492 209.251774 l
176.165307 211.132447 l
179.124969 213.11837 l
182.003544 211.648041 l
185.315621 210.212789 l
188.934892 208.890044 l
192.878509 207.674967 l
197.597127 206.460923 l
202.933251 205.327919 l
209.247093 204.233113 l
216.176881 203.256763 l
224.840676 202.273546 l
234.761625 201.370198 l
248.003072 200.395229 l
271.393446 198.942059 l
291.466286 197.60316 l
303.582032 196.576745 l
312.976386 195.566041 l
320.773177 194.50873 l
327.321702 193.401184 l
332.841518 192.252729 l
337.71732 191.017324 l
341.807049 189.770175 l
345.657416 188.365571 l
348.872033 186.971892 l
351.960343 185.387945 l
354.559325 183.818551 l
357.158152 181.972545 l
359.510288 179.998073 l
361.637408 177.89305 l
363.545907 175.667698 l
364.954943 173.783356 l
366.627573 171.197874 l
368.025647 168.667016 l
369.663472 165.197401 l
371.011023 161.74671 l
372.262408 158.033237 l
373.43124 153.816831 l
374.861328 147.679212 l
375.822438 142.438406 l
377.231022 133.252755 l
377.949668 127.112795 l
378.951057 116.287636 l
380.301664 98.943269 l
381.020305 83.588785 l
381.710821 64.494101 l
381.796617 197.695093 l
411.246365 198.211723 l
448.120822 198.627193 l
496.574138 198.938377 l
564.760509 199.137975 l
666.086051 199.197063 l
693.586894 199.180404 l
693.586894 199.180404 l
stroke
grestore
1.000 setlinewidth
0 setlinejoin
0.000 setgray
gsave
69.852937 218.17 m
693.59625 218.17 l
stroke
grestore
gsave
693.59625 48.365438 m
693.59625 218.17 l
stroke
grestore
gsave
69.852937 48.365438 m
693.59625 48.365438 l
stroke
grestore
gsave
69.852937 48.365438 m
69.852937 218.17 l
stroke
grestore
0.500 setlinewidth
1 setlinejoin
0 setlinecap
gsave
/o {
gsave
newpath
translate
0.5 setlinewidth
1 setlinejoin
0 setlinecap
0 0 m
0 4 l

gsave
0.000 setgray
fill
grestore
stroke
grestore
} bind def
69.8529 48.3654 o
grestore
gsave
/o {
gsave
newpath
translate
0.5 setlinewidth
1 setlinejoin
0 setlinecap
0 0 m
0 -4 l

gsave
0.000 setgray
fill
grestore
stroke
grestore
} bind def
69.8529 218.17 o
grestore
/BitstreamVeraSans-Roman findfont
12.000 scalefont
setfont
gsave
51.454500 35.240438 translate
0.000000 rotate
0.000000 0.000000 m /minus glyphshow
10.054688 0.000000 m /zero glyphshow
17.689453 0.000000 m /period glyphshow
21.503906 0.000000 m /two glyphshow
29.138672 0.000000 m /zero glyphshow
grestore
gsave
/o {
gsave
newpath
translate
0.5 setlinewidth
1 setlinejoin
0 setlinecap
0 0 m
0 4 l

gsave
0.000 setgray
fill
grestore
stroke
grestore
} bind def
147.821 48.3654 o
grestore
gsave
/o {
gsave
newpath
translate
0.5 setlinewidth
1 setlinejoin
0 setlinecap
0 0 m
0 -4 l

gsave
0.000 setgray
fill
grestore
stroke
grestore
} bind def
147.821 218.17 o
grestore
gsave
129.422414 35.240438 translate
0.000000 rotate
0.000000 0.000000 m /minus glyphshow
10.054688 0.000000 m /zero glyphshow
17.689453 0.000000 m /period glyphshow
21.503906 0.000000 m /one glyphshow
29.138672 0.000000 m /five glyphshow
grestore
gsave
/o {
gsave
newpath
translate
0.5 setlinewidth
1 setlinejoin
0 setlinecap
0 0 m
0 4 l

gsave
0.000 setgray
fill
grestore
stroke
grestore
} bind def
225.789 48.3654 o
grestore
gsave
/o {
gsave
newpath
translate
0.5 setlinewidth
1 setlinejoin
0 setlinecap
0 0 m
0 -4 l

gsave
0.000 setgray
fill
grestore
stroke
grestore
} bind def
225.789 218.17 o
grestore
gsave
207.390328 35.240438 translate
0.000000 rotate
0.000000 0.000000 m /minus glyphshow
10.054688 0.000000 m /zero glyphshow
17.689453 0.000000 m /period glyphshow
21.503906 0.000000 m /one glyphshow
29.138672 0.000000 m /zero glyphshow
grestore
gsave
/o {
gsave
newpath
translate
0.5 setlinewidth
1 setlinejoin
0 setlinecap
0 0 m
0 4 l

gsave
0.000 setgray
fill
grestore
stroke
grestore
} bind def
303.757 48.3654 o
grestore
gsave
/o {
gsave
newpath
translate
0.5 setlinewidth
1 setlinejoin
0 setlinecap
0 0 m
0 -4 l

gsave
0.000 setgray
fill
grestore
stroke
grestore
} bind def
303.757 218.17 o
grestore
gsave
285.358242 35.240438 translate
0.000000 rotate
0.000000 0.000000 m /minus glyphshow
10.054688 0.000000 m /zero glyphshow
17.689453 0.000000 m /period glyphshow
21.503906 0.000000 m /zero glyphshow
29.138672 0.000000 m /five glyphshow
grestore
gsave
/o {
gsave
newpath
translate
0.5 setlinewidth
1 setlinejoin
0 setlinecap
0 0 m
0 4 l

gsave
0.000 setgray
fill
grestore
stroke
grestore
} bind def
381.725 48.3654 o
grestore
gsave
/o {
gsave
newpath
translate
0.5 setlinewidth
1 setlinejoin
0 setlinecap
0 0 m
0 -4 l

gsave
0.000 setgray
fill
grestore
stroke
grestore
} bind def
381.725 218.17 o
grestore
gsave
368.357406 35.240438 translate
0.000000 rotate
0.000000 0.000000 m /zero glyphshow
7.634766 0.000000 m /period glyphshow
11.449219 0.000000 m /zero glyphshow
19.083984 0.000000 m /zero glyphshow
grestore
gsave
/o {
gsave
newpath
translate
0.5 setlinewidth
1 setlinejoin
0 setlinecap
0 0 m
0 4 l

gsave
0.000 setgray
fill
grestore
stroke
grestore
} bind def
459.693 48.3654 o
grestore
gsave
/o {
gsave
newpath
translate
0.5 setlinewidth
1 setlinejoin
0 setlinecap
0 0 m
0 -4 l

gsave
0.000 setgray
fill
grestore
stroke
grestore
} bind def
459.693 218.17 o
grestore
gsave
446.325320 35.240438 translate
0.000000 rotate
0.000000 0.000000 m /zero glyphshow
7.634766 0.000000 m /period glyphshow
11.449219 0.000000 m /zero glyphshow
19.083984 0.000000 m /five glyphshow
grestore
gsave
/o {
gsave
newpath
translate
0.5 setlinewidth
1 setlinejoin
0 setlinecap
0 0 m
0 4 l

gsave
0.000 setgray
fill
grestore
stroke
grestore
} bind def
537.66 48.3654 o
grestore
gsave
/o {
gsave
newpath
translate
0.5 setlinewidth
1 setlinejoin
0 setlinecap
0 0 m
0 -4 l

gsave
0.000 setgray
fill
grestore
stroke
grestore
} bind def
537.66 218.17 o
grestore
gsave
524.293234 35.240438 translate
0.000000 rotate
0.000000 0.000000 m /zero glyphshow
7.634766 0.000000 m /period glyphshow
11.449219 0.000000 m /one glyphshow
19.083984 0.000000 m /zero glyphshow
grestore
gsave
/o {
gsave
newpath
translate
0.5 setlinewidth
1 setlinejoin
0 setlinecap
0 0 m
0 4 l

gsave
0.000 setgray
fill
grestore
stroke
grestore
} bind def
615.628 48.3654 o
grestore
gsave
/o {
gsave
newpath
translate
0.5 setlinewidth
1 setlinejoin
0 setlinecap
0 0 m
0 -4 l

gsave
0.000 setgray
fill
grestore
stroke
grestore
} bind def
615.628 218.17 o
grestore
gsave
602.261148 35.240438 translate
0.000000 rotate
0.000000 0.000000 m /zero glyphshow
7.634766 0.000000 m /period glyphshow
11.449219 0.000000 m /one glyphshow
19.083984 0.000000 m /five glyphshow
grestore
gsave
/o {
gsave
newpath
translate
0.5 setlinewidth
1 setlinejoin
0 setlinecap
0 0 m
0 4 l

gsave
0.000 setgray
fill
grestore
stroke
grestore
} bind def
693.596 48.3654 o
grestore
gsave
/o {
gsave
newpath
translate
0.5 setlinewidth
1 setlinejoin
0 setlinecap
0 0 m
0 -4 l

gsave
0.000 setgray
fill
grestore
stroke
grestore
} bind def
693.596 218.17 o
grestore
gsave
680.229063 35.240438 translate
0.000000 rotate
0.000000 0.000000 m /zero glyphshow
7.634766 0.000000 m /period glyphshow
11.449219 0.000000 m /two glyphshow
19.083984 0.000000 m /zero glyphshow
grestore
gsave
334.224594 17.240438 translate
0.000000 rotate
/BitstreamVeraSans-Roman findfont
12.0 scalefont
setfont
0.000000 0.808312 moveto
/x glyphshow

7.101562 0.808312 moveto
/hyphen glyphshow

11.431641 0.808312 moveto
/a glyphshow

18.785156 0.808312 moveto
/x glyphshow

25.886719 0.808312 moveto
/i glyphshow

29.220703 0.808312 moveto
/s glyphshow

35.472656 0.808312 moveto
/space glyphshow

39.287109 0.808312 moveto
/bracketleft glyphshow

/Cmr10 findfont
12.0 scalefont
setfont
43.968750 0.808312 moveto
/one glyphshow

49.968750 0.808312 moveto
/zero glyphshow

/Cmsy10 findfont
8.4 scalefont
setfont
56.504447 5.400000 moveto
/minus glyphshow

/Cmr10 findfont
8.4 scalefont
setfont
63.030033 5.400000 moveto
/four glyphshow

/BitstreamVeraSans-Roman findfont
12.0 scalefont
setfont
67.995314 0.808312 moveto
/space glyphshow

71.809767 0.808312 moveto
/c glyphshow

78.407423 0.808312 moveto
/m glyphshow

90.096877 0.808312 moveto
/bracketright glyphshow


grestore
gsave
/o {
gsave
newpath
translate
0.5 setlinewidth
1 setlinejoin
0 setlinecap
0 0 m
4 0 l

gsave
0.000 setgray
fill
grestore
stroke
grestore
} bind def
69.8529 48.3654 o
grestore
gsave
/o {
gsave
newpath
translate
0.5 setlinewidth
1 setlinejoin
0 setlinecap
0 0 m
-4 0 l

gsave
0.000 setgray
fill
grestore
stroke
grestore
} bind def
693.596 48.3654 o
grestore
gsave
32.868562 45.052938 translate
0.000000 rotate
0.000000 0.000000 m /minus glyphshow
10.054688 0.000000 m /two glyphshow
17.689453 0.000000 m /zero glyphshow
25.324219 0.000000 m /zero glyphshow
grestore
gsave
/o {
gsave
newpath
translate
0.5 setlinewidth
1 setlinejoin
0 setlinecap
0 0 m
4 0 l

gsave
0.000 setgray
fill
grestore
stroke
grestore
} bind def
69.8529 86.0998 o
grestore
gsave
/o {
gsave
newpath
translate
0.5 setlinewidth
1 setlinejoin
0 setlinecap
0 0 m
-4 0 l

gsave
0.000 setgray
fill
grestore
stroke
grestore
} bind def
693.596 86.0998 o
grestore
gsave
32.868562 82.787285 translate
0.000000 rotate
0.000000 0.000000 m /minus glyphshow
10.054688 0.000000 m /one glyphshow
17.689453 0.000000 m /five glyphshow
25.324219 0.000000 m /zero glyphshow
grestore
gsave
/o {
gsave
newpath
translate
0.5 setlinewidth
1 setlinejoin
0 setlinecap
0 0 m
4 0 l

gsave
0.000 setgray
fill
grestore
stroke
grestore
} bind def
69.8529 123.834 o
grestore
gsave
/o {
gsave
newpath
translate
0.5 setlinewidth
1 setlinejoin
0 setlinecap
0 0 m
-4 0 l

gsave
0.000 setgray
fill
grestore
stroke
grestore
} bind def
693.596 123.834 o
grestore
gsave
32.868562 120.521632 translate
0.000000 rotate
0.000000 0.000000 m /minus glyphshow
10.054688 0.000000 m /one glyphshow
17.689453 0.000000 m /zero glyphshow
25.324219 0.000000 m /zero glyphshow
grestore
gsave
/o {
gsave
newpath
translate
0.5 setlinewidth
1 setlinejoin
0 setlinecap
0 0 m
4 0 l

gsave
0.000 setgray
fill
grestore
stroke
grestore
} bind def
69.8529 161.568 o
grestore
gsave
/o {
gsave
newpath
translate
0.5 setlinewidth
1 setlinejoin
0 setlinecap
0 0 m
-4 0 l

gsave
0.000 setgray
fill
grestore
stroke
grestore
} bind def
693.596 161.568 o
grestore
gsave
40.509187 158.255979 translate
0.000000 rotate
0.000000 0.000000 m /minus glyphshow
10.054688 0.000000 m /five glyphshow
17.689453 0.000000 m /zero glyphshow
grestore
gsave
/o {
gsave
newpath
translate
0.5 setlinewidth
1 setlinejoin
0 setlinecap
0 0 m
4 0 l

gsave
0.000 setgray
fill
grestore
stroke
grestore
} bind def
69.8529 199.303 o
grestore
gsave
/o {
gsave
newpath
translate
0.5 setlinewidth
1 setlinejoin
0 setlinecap
0 0 m
-4 0 l

gsave
0.000 setgray
fill
grestore
stroke
grestore
} bind def
693.596 199.303 o
grestore
gsave
58.212312 195.990326 translate
0.000000 rotate
0.000000 0.000000 m /zero glyphshow
grestore
gsave
25.368562 103.767719 translate
90.000000 rotate
/BitstreamVeraSans-Roman findfont
12.0 scalefont
setfont
0.000000 0.808312 moveto
/bracketleft glyphshow

4.681641 0.808312 moveto
/k glyphshow

11.630859 0.808312 moveto
/V glyphshow

19.839844 0.808312 moveto
/space glyphshow

23.654297 0.808312 moveto
/c glyphshow

30.251953 0.808312 moveto
/m glyphshow

/Cmsy10 findfont
8.4 scalefont
setfont
42.477103 5.400000 moveto
/minus glyphshow

/Cmr10 findfont
8.4 scalefont
setfont
49.002689 5.400000 moveto
/one glyphshow

/BitstreamVeraSans-Roman findfont
12.0 scalefont
setfont
53.967970 0.808312 moveto
/bracketright glyphshow


grestore
gsave
263.224594 223.170000 translate
0.000000 rotate
/BitstreamVeraSans-Roman findfont
14.4 scalefont
setfont
0.000000 0.359375 moveto
/E glyphshow

9.082642 0.359375 moveto
/l glyphshow

13.076477 0.359375 moveto
/e glyphshow

21.920471 0.359375 moveto
/c glyphshow

29.823914 0.359375 moveto
/t glyphshow

35.460205 0.359375 moveto
/r glyphshow

41.370239 0.359375 moveto
/i glyphshow

45.364075 0.359375 moveto
/c glyphshow

53.267517 0.359375 moveto
/space glyphshow

57.836914 0.359375 moveto
/F glyphshow

66.105347 0.359375 moveto
/i glyphshow

70.099182 0.359375 moveto
/e glyphshow

78.943176 0.359375 moveto
/l glyphshow

82.937012 0.359375 moveto
/d glyphshow

92.061768 0.359375 moveto
/s glyphshow

99.551086 0.359375 moveto
/space glyphshow

104.120483 0.359375 moveto
/W glyphshow

118.334045 0.359375 moveto
/i glyphshow

122.327881 0.359375 moveto
/t glyphshow

127.964172 0.359375 moveto
/h glyphshow

137.074890 0.359375 moveto
/space glyphshow

/Cmr10 findfont
14.4 scalefont
setfont
141.644287 0.359375 moveto
/Phi glyphshow

/Cmmi10 findfont
10.08 scalefont
setfont
152.679564 -2.089525 moveto
/a glyphshow

157.996642 -2.089525 moveto
/p glyphshow

163.062873 -2.089525 moveto
/p glyphshow

168.129103 -2.089525 moveto
/period glyphshow

/Cmr10 findfont
14.4 scalefont
setfont
176.131867 0.359375 moveto
/equal glyphshow

189.838087 0.359375 moveto
/zero glyphshow

/Cmmi10 findfont
14.4 scalefont
setfont
197.033399 0.359375 moveto
/period glyphshow

/Cmr10 findfont
14.4 scalefont
setfont
203.544306 0.359375 moveto
/five glyphshow

/BitstreamVeraSans-Roman findfont
14.4 scalefont
setfont
210.739619 0.359375 moveto
/space glyphshow

215.309016 0.359375 moveto
/bracketleft glyphshow

220.917231 0.359375 moveto
/V glyphshow

230.750910 0.359375 moveto
/bracketright glyphshow


grestore
1.000 setlinewidth
0 setlinejoin
gsave
507.565 55.865438 m
686.09625 55.865438 l
686.09625 148.427938 l
507.565 148.427938 l
cl
gsave
1.000 setgray
fill
grestore
stroke
grestore
2.000 setlinewidth
1 setlinejoin
2 setlinecap
0.000 0.000 1.000 setrgbcolor
gsave
518.065 136.287313 m
539.065 136.287313 l
stroke
grestore
0.000 setgray
/BitstreamVeraSans-Roman findfont
15.000 scalefont
setfont
gsave
555.565000 131.037313 translate
0.000000 rotate
0.000000 0.000000 m /D glyphshow
11.550293 0.000000 m /o glyphshow
20.727539 0.000000 m /p glyphshow
30.249023 0.000000 m /i glyphshow
34.416504 0.000000 m /n glyphshow
43.923340 0.000000 m /g glyphshow
53.444824 0.000000 m /space glyphshow
58.212891 0.000000 m /P glyphshow
67.258301 0.000000 m /r glyphshow
73.425293 0.000000 m /o glyphshow
82.602539 0.000000 m /f glyphshow
87.883301 0.000000 m /i glyphshow
92.050781 0.000000 m /l glyphshow
96.218262 0.000000 m /e glyphshow
105.446777 0.000000 m /space glyphshow
110.214844 0.000000 m /space glyphshow
114.982910 0.000000 m /one glyphshow
grestore
1.000 0.000 0.000 setrgbcolor
gsave
518.065 114.271688 m
539.065 114.271688 l
stroke
grestore
0.000 setgray
gsave
555.565000 109.021688 translate
0.000000 rotate
0.000000 0.000000 m /D glyphshow
11.550293 0.000000 m /o glyphshow
20.727539 0.000000 m /p glyphshow
30.249023 0.000000 m /i glyphshow
34.416504 0.000000 m /n glyphshow
43.923340 0.000000 m /g glyphshow
53.444824 0.000000 m /space glyphshow
58.212891 0.000000 m /P glyphshow
67.258301 0.000000 m /r glyphshow
73.425293 0.000000 m /o glyphshow
82.602539 0.000000 m /f glyphshow
87.883301 0.000000 m /i glyphshow
92.050781 0.000000 m /l glyphshow
96.218262 0.000000 m /e glyphshow
105.446777 0.000000 m /space glyphshow
110.214844 0.000000 m /space glyphshow
114.982910 0.000000 m /two glyphshow
grestore
0.000 0.500 0.000 setrgbcolor
gsave
518.065 92.256063 m
539.065 92.256063 l
stroke
grestore
0.000 setgray
gsave
555.565000 87.006063 translate
0.000000 rotate
0.000000 0.000000 m /D glyphshow
11.550293 0.000000 m /o glyphshow
20.727539 0.000000 m /p glyphshow
30.249023 0.000000 m /i glyphshow
34.416504 0.000000 m /n glyphshow
43.923340 0.000000 m /g glyphshow
53.444824 0.000000 m /space glyphshow
58.212891 0.000000 m /P glyphshow
67.258301 0.000000 m /r glyphshow
73.425293 0.000000 m /o glyphshow
82.602539 0.000000 m /f glyphshow
87.883301 0.000000 m /i glyphshow
92.050781 0.000000 m /l glyphshow
96.218262 0.000000 m /e glyphshow
105.446777 0.000000 m /space glyphshow
110.214844 0.000000 m /space glyphshow
114.982910 0.000000 m /three glyphshow
grestore
0.750 0.000 0.750 setrgbcolor
gsave
518.065 70.240438 m
539.065 70.240438 l
stroke
grestore
0.000 setgray
gsave
555.565000 64.990438 translate
0.000000 rotate
0.000000 0.000000 m /D glyphshow
11.550293 0.000000 m /o glyphshow
20.727539 0.000000 m /p glyphshow
30.249023 0.000000 m /i glyphshow
34.416504 0.000000 m /n glyphshow
43.923340 0.000000 m /g glyphshow
53.444824 0.000000 m /space glyphshow
58.212891 0.000000 m /P glyphshow
67.258301 0.000000 m /r glyphshow
73.425293 0.000000 m /o glyphshow
82.602539 0.000000 m /f glyphshow
87.883301 0.000000 m /i glyphshow
92.050781 0.000000 m /l glyphshow
96.218262 0.000000 m /e glyphshow
105.446777 0.000000 m /space glyphshow
110.214844 0.000000 m /space glyphshow
114.982910 0.000000 m /four glyphshow
grestore

end
showpage
