%!PS-Adobe-3.0 EPSF-3.0
%%Title: Doping_Illum.eps
%%Creator: matplotlib version 1.5.0, http://matplotlib.org/
%%CreationDate: Tue Apr 12 13:34:59 2016
%%Orientation: portrait
%%BoundingBox: -54 36 666 756
%%EndComments
%%BeginProlog
/mpldict 10 dict def
mpldict begin
/m { moveto } bind def
/l { lineto } bind def
/r { rlineto } bind def
/c { curveto } bind def
/cl { closepath } bind def
/box {
m
1 index 0 r
0 exch r
neg 0 r
cl
} bind def
/clipbox {
box
clip
newpath
} bind def
%!PS-Adobe-3.0 Resource-Font
%%Title: cmsy10
%%Copyright: Copyright (C) 1994, Basil K. Malyshev. All Rights Reserved.012BaKoMa Fonts Collection, Level-B.
%%Creator: Converted from TrueType to type 3 by PPR
25 dict begin
/_d{bind def}bind def
/_m{moveto}_d
/_l{lineto}_d
/_cl{closepath eofill}_d
/_c{curveto}_d
/_sc{7 -1 roll{setcachedevice}{pop pop pop pop pop pop}ifelse}_d
/_e{exec}_d
/FontName /Cmsy10 def
/PaintType 0 def
/FontMatrix[.001 0 0 .001 0 0]def
/FontBBox[-29 -960 1123 779]def
/FontType 3 def
/Encoding [ /minus ] def
/FontInfo 10 dict dup begin
/FamilyName (cmsy10) def
/FullName (cmsy10) def
/Notice (Copyright (C) 1994, Basil K. Malyshev. All Rights Reserved.012BaKoMa Fonts Collection, Level-B. ) def
/Weight (Regular) def
/Version (1.1/12-Nov-94) def
/ItalicAngle 0.0 def
/isFixedPitch false def
/UnderlinePosition -133 def
/UnderlineThickness 20 def
end readonly def
/CharStrings 1 dict dup begin
/minus{777 0 83 230 694 270 _sc
102 230 _m
96 230 92 232 88 236 _c
84 240 83 245 83 250 _c
83 254 84 259 88 263 _c
92 267 96 270 102 270 _c
676 270 _l
681 270 685 267 689 263 _c
692 259 694 254 694 250 _c
694 245 692 240 689 236 _c
685 232 681 230 676 230 _c
102 230 _l
_cl}_d
end readonly def

/BuildGlyph
 {exch begin
 CharStrings exch
 2 copy known not{pop /.notdef}if
 true 3 1 roll get exec
 end}_d

/BuildChar {
 1 index /Encoding get exch get
 1 index /BuildGlyph get exec
}_d

FontName currentdict end definefont pop
%!PS-Adobe-3.0 Resource-Font
%%Title: Bitstream Vera Sans
%%Copyright: Copyright (c) 2003 by Bitstream, Inc. All Rights Reserved.
%%Creator: Converted from TrueType to type 3 by PPR
25 dict begin
/_d{bind def}bind def
/_m{moveto}_d
/_l{lineto}_d
/_cl{closepath eofill}_d
/_c{curveto}_d
/_sc{7 -1 roll{setcachedevice}{pop pop pop pop pop pop}ifelse}_d
/_e{exec}_d
/FontName /BitstreamVeraSans-Roman def
/PaintType 0 def
/FontMatrix[.001 0 0 .001 0 0]def
/FontBBox[-183 -236 1287 928]def
/FontType 3 def
/Encoding [ /space /hyphen /period /zero /one /two /three /four /five /six /seven /eight /A /B /C /D /I /P /V /Z /bracketleft /bracketright /a /c /d /e /f /g /h /i /l /m /n /o /p /r /s /t /u /minus ] def
/FontInfo 10 dict dup begin
/FamilyName (Bitstream Vera Sans) def
/FullName (Bitstream Vera Sans) def
/Notice (Copyright (c) 2003 by Bitstream, Inc. All Rights Reserved. Bitstream Vera is a trademark of Bitstream, Inc.) def
/Weight (Roman) def
/Version (Release 1.10) def
/ItalicAngle 0.0 def
/isFixedPitch false def
/UnderlinePosition -213 def
/UnderlineThickness 143 def
end readonly def
/CharStrings 40 dict dup begin
/space{318 0 0 0 0 0 _sc
}_d
/hyphen{361 0 49 234 312 314 _sc
49 314 _m
312 314 _l
312 234 _l
49 234 _l
49 314 _l
_cl}_d
/period{318 0 107 0 210 124 _sc
107 124 _m
210 124 _l
210 0 _l
107 0 _l
107 124 _l
_cl}_d
/zero{636 0 66 -13 570 742 _sc
318 664 _m
267 664 229 639 203 589 _c
177 539 165 464 165 364 _c
165 264 177 189 203 139 _c
229 89 267 64 318 64 _c
369 64 407 89 433 139 _c
458 189 471 264 471 364 _c
471 464 458 539 433 589 _c
407 639 369 664 318 664 _c
318 742 _m
399 742 461 709 505 645 _c
548 580 570 486 570 364 _c
570 241 548 147 505 83 _c
461 19 399 -13 318 -13 _c
236 -13 173 19 130 83 _c
87 147 66 241 66 364 _c
66 486 87 580 130 645 _c
173 709 236 742 318 742 _c
_cl}_d
/one{636 0 110 0 544 729 _sc
124 83 _m
285 83 _l
285 639 _l
110 604 _l
110 694 _l
284 729 _l
383 729 _l
383 83 _l
544 83 _l
544 0 _l
124 0 _l
124 83 _l
_cl}_d
/two{{636 0 73 0 536 742 _sc
192 83 _m
536 83 _l
536 0 _l
73 0 _l
73 83 _l
110 121 161 173 226 239 _c
290 304 331 346 348 365 _c
380 400 402 430 414 455 _c
426 479 433 504 433 528 _c
433 566 419 598 392 622 _c
365 646 330 659 286 659 _c
255 659 222 653 188 643 _c
154 632 117 616 78 594 _c
78 694 _l
118 710 155 722 189 730 _c
223 738 255 742 284 742 _c
}_e{359 742 419 723 464 685 _c
509 647 532 597 532 534 _c
532 504 526 475 515 449 _c
504 422 484 390 454 354 _c
446 344 420 317 376 272 _c
332 227 271 164 192 83 _c
_cl}_e}_d
/three{{636 0 76 -13 556 742 _sc
406 393 _m
453 383 490 362 516 330 _c
542 298 556 258 556 212 _c
556 140 531 84 482 45 _c
432 6 362 -13 271 -13 _c
240 -13 208 -10 176 -4 _c
144 1 110 10 76 22 _c
76 117 _l
103 101 133 89 166 81 _c
198 73 232 69 268 69 _c
330 69 377 81 409 105 _c
441 129 458 165 458 212 _c
458 254 443 288 413 312 _c
383 336 341 349 287 349 _c
}_e{202 349 _l
202 430 _l
291 430 _l
339 430 376 439 402 459 _c
428 478 441 506 441 543 _c
441 580 427 609 401 629 _c
374 649 336 659 287 659 _c
260 659 231 656 200 650 _c
169 644 135 635 98 623 _c
98 711 _l
135 721 170 729 203 734 _c
235 739 266 742 296 742 _c
370 742 429 725 473 691 _c
517 657 539 611 539 553 _c
539 513 527 479 504 451 _c
481 423 448 403 406 393 _c
_cl}_e}_d
/four{636 0 49 0 580 729 _sc
378 643 _m
129 254 _l
378 254 _l
378 643 _l
352 729 _m
476 729 _l
476 254 _l
580 254 _l
580 172 _l
476 172 _l
476 0 _l
378 0 _l
378 172 _l
49 172 _l
49 267 _l
352 729 _l
_cl}_d
/five{{636 0 77 -13 549 729 _sc
108 729 _m
495 729 _l
495 646 _l
198 646 _l
198 467 _l
212 472 227 476 241 478 _c
255 480 270 482 284 482 _c
365 482 429 459 477 415 _c
525 370 549 310 549 234 _c
549 155 524 94 475 51 _c
426 8 357 -13 269 -13 _c
238 -13 207 -10 175 -6 _c
143 -1 111 6 77 17 _c
77 116 _l
106 100 136 88 168 80 _c
199 72 232 69 267 69 _c
}_e{323 69 368 83 401 113 _c
433 143 450 183 450 234 _c
450 284 433 324 401 354 _c
368 384 323 399 267 399 _c
241 399 214 396 188 390 _c
162 384 135 375 108 363 _c
108 729 _l
_cl}_e}_d
/six{{636 0 70 -13 573 742 _sc
330 404 _m
286 404 251 388 225 358 _c
199 328 186 286 186 234 _c
186 181 199 139 225 109 _c
251 79 286 64 330 64 _c
374 64 409 79 435 109 _c
461 139 474 181 474 234 _c
474 286 461 328 435 358 _c
409 388 374 404 330 404 _c
526 713 _m
526 623 _l
501 635 476 644 451 650 _c
425 656 400 659 376 659 _c
310 659 260 637 226 593 _c
}_e{192 549 172 482 168 394 _c
187 422 211 444 240 459 _c
269 474 301 482 336 482 _c
409 482 467 459 509 415 _c
551 371 573 310 573 234 _c
573 159 550 99 506 54 _c
462 9 403 -13 330 -13 _c
246 -13 181 19 137 83 _c
92 147 70 241 70 364 _c
70 479 97 571 152 639 _c
206 707 280 742 372 742 _c
396 742 421 739 447 735 _c
472 730 498 723 526 713 _c
_cl}_e}_d
/seven{636 0 82 0 551 729 _sc
82 729 _m
551 729 _l
551 687 _l
286 0 _l
183 0 _l
432 646 _l
82 646 _l
82 729 _l
_cl}_d
/eight{{636 0 68 -13 568 742 _sc
318 346 _m
271 346 234 333 207 308 _c
180 283 167 249 167 205 _c
167 161 180 126 207 101 _c
234 76 271 64 318 64 _c
364 64 401 76 428 102 _c
455 127 469 161 469 205 _c
469 249 455 283 429 308 _c
402 333 365 346 318 346 _c
219 388 _m
177 398 144 418 120 447 _c
96 476 85 511 85 553 _c
85 611 105 657 147 691 _c
188 725 245 742 318 742 _c
}_e{390 742 447 725 489 691 _c
530 657 551 611 551 553 _c
551 511 539 476 515 447 _c
491 418 459 398 417 388 _c
464 377 501 355 528 323 _c
554 291 568 251 568 205 _c
568 134 546 80 503 43 _c
459 5 398 -13 318 -13 _c
237 -13 175 5 132 43 _c
89 80 68 134 68 205 _c
68 251 81 291 108 323 _c
134 355 171 377 219 388 _c
183 544 _m
183 506 194 476 218 455 _c
}_e{242 434 275 424 318 424 _c
360 424 393 434 417 455 _c
441 476 453 506 453 544 _c
453 582 441 611 417 632 _c
393 653 360 664 318 664 _c
275 664 242 653 218 632 _c
194 611 183 582 183 544 _c
_cl}_e}_d
/A{684 0 8 0 676 729 _sc
342 632 _m
208 269 _l
476 269 _l
342 632 _l
286 729 _m
398 729 _l
676 0 _l
573 0 _l
507 187 _l
178 187 _l
112 0 _l
8 0 _l
286 729 _l
_cl}_d
/B{{686 0 98 0 615 729 _sc
197 348 _m
197 81 _l
355 81 _l
408 81 447 92 473 114 _c
498 136 511 169 511 215 _c
511 260 498 293 473 315 _c
447 337 408 348 355 348 _c
197 348 _l
197 648 _m
197 428 _l
343 428 _l
391 428 426 437 450 455 _c
474 473 486 500 486 538 _c
486 574 474 602 450 620 _c
426 638 391 648 343 648 _c
197 648 _l
98 729 _m
350 729 _l
}_e{425 729 483 713 524 682 _c
564 650 585 606 585 549 _c
585 504 574 468 553 442 _c
532 416 502 399 462 393 _c
510 382 548 360 575 327 _c
601 294 615 253 615 204 _c
615 138 592 88 548 53 _c
504 17 441 0 360 0 _c
98 0 _l
98 729 _l
_cl}_e}_d
/C{{698 0 56 -13 644 742 _sc
644 673 _m
644 569 _l
610 599 575 622 537 638 _c
499 653 460 661 418 661 _c
334 661 270 635 226 584 _c
182 533 160 460 160 364 _c
160 268 182 194 226 143 _c
270 92 334 67 418 67 _c
460 67 499 74 537 90 _c
575 105 610 128 644 159 _c
644 56 _l
609 32 572 15 534 4 _c
496 -7 455 -13 412 -13 _c
302 -13 215 20 151 87 _c
}_e{87 154 56 246 56 364 _c
56 481 87 573 151 641 _c
215 708 302 742 412 742 _c
456 742 497 736 535 725 _c
573 713 610 696 644 673 _c
_cl}_e}_d
/D{770 0 98 0 711 729 _sc
197 648 _m
197 81 _l
316 81 _l
416 81 490 103 537 149 _c
583 195 607 267 607 365 _c
607 463 583 534 537 580 _c
490 625 416 648 316 648 _c
197 648 _l
98 729 _m
301 729 _l
442 729 546 699 612 641 _c
678 582 711 490 711 365 _c
711 239 677 147 611 88 _c
545 29 441 0 301 0 _c
98 0 _l
98 729 _l
_cl}_d
/I{295 0 98 0 197 729 _sc
98 729 _m
197 729 _l
197 0 _l
98 0 _l
98 729 _l
_cl}_d
/P{603 0 98 0 569 729 _sc
197 648 _m
197 374 _l
321 374 _l
367 374 402 385 427 409 _c
452 433 465 467 465 511 _c
465 555 452 588 427 612 _c
402 636 367 648 321 648 _c
197 648 _l
98 729 _m
321 729 _l
402 729 464 710 506 673 _c
548 636 569 582 569 511 _c
569 439 548 384 506 348 _c
464 311 402 293 321 293 _c
197 293 _l
197 0 _l
98 0 _l
98 729 _l
_cl}_d
/V{684 0 8 0 676 729 _sc
286 0 _m
8 729 _l
111 729 _l
342 115 _l
573 729 _l
676 729 _l
398 0 _l
286 0 _l
_cl}_d
/Z{685 0 45 0 640 729 _sc
56 729 _m
629 729 _l
629 654 _l
168 83 _l
640 83 _l
640 0 _l
45 0 _l
45 75 _l
506 646 _l
56 646 _l
56 729 _l
_cl}_d
/bracketleft{390 0 86 -131 293 760 _sc
86 760 _m
293 760 _l
293 690 _l
176 690 _l
176 -61 _l
293 -61 _l
293 -131 _l
86 -131 _l
86 760 _l
_cl}_d
/bracketright{390 0 97 -131 304 760 _sc
304 760 _m
304 -131 _l
97 -131 _l
97 -61 _l
214 -61 _l
214 690 _l
97 690 _l
97 760 _l
304 760 _l
_cl}_d
/a{{613 0 60 -13 522 560 _sc
343 275 _m
270 275 220 266 192 250 _c
164 233 150 205 150 165 _c
150 133 160 107 181 89 _c
202 70 231 61 267 61 _c
317 61 357 78 387 114 _c
417 149 432 196 432 255 _c
432 275 _l
343 275 _l
522 312 _m
522 0 _l
432 0 _l
432 83 _l
411 49 385 25 355 10 _c
325 -5 287 -13 243 -13 _c
187 -13 142 2 109 33 _c
76 64 60 106 60 159 _c
}_e{60 220 80 266 122 298 _c
163 329 224 345 306 345 _c
432 345 _l
432 354 _l
432 395 418 427 391 450 _c
364 472 326 484 277 484 _c
245 484 215 480 185 472 _c
155 464 127 453 100 439 _c
100 522 _l
132 534 164 544 195 550 _c
226 556 256 560 286 560 _c
365 560 424 539 463 498 _c
502 457 522 395 522 312 _c
_cl}_e}_d
/c{{550 0 55 -13 488 560 _sc
488 526 _m
488 442 _l
462 456 437 466 411 473 _c
385 480 360 484 334 484 _c
276 484 230 465 198 428 _c
166 391 150 339 150 273 _c
150 206 166 154 198 117 _c
230 80 276 62 334 62 _c
360 62 385 65 411 72 _c
437 79 462 90 488 104 _c
488 21 _l
462 9 436 0 410 -5 _c
383 -10 354 -13 324 -13 _c
242 -13 176 12 128 64 _c
}_e{79 115 55 185 55 273 _c
55 362 79 432 128 483 _c
177 534 244 560 330 560 _c
358 560 385 557 411 551 _c
437 545 463 537 488 526 _c
_cl}_e}_d
/d{{635 0 55 -13 544 760 _sc
454 464 _m
454 760 _l
544 760 _l
544 0 _l
454 0 _l
454 82 _l
435 49 411 25 382 10 _c
353 -5 319 -13 279 -13 _c
213 -13 159 13 117 65 _c
75 117 55 187 55 273 _c
55 359 75 428 117 481 _c
159 533 213 560 279 560 _c
319 560 353 552 382 536 _c
411 520 435 496 454 464 _c
148 273 _m
148 207 161 155 188 117 _c
215 79 253 61 301 61 _c
}_e{348 61 385 79 413 117 _c
440 155 454 207 454 273 _c
454 339 440 390 413 428 _c
385 466 348 485 301 485 _c
253 485 215 466 188 428 _c
161 390 148 339 148 273 _c
_cl}_e}_d
/e{{615 0 55 -13 562 560 _sc
562 296 _m
562 252 _l
149 252 _l
153 190 171 142 205 110 _c
238 78 284 62 344 62 _c
378 62 412 66 444 74 _c
476 82 509 95 541 113 _c
541 28 _l
509 14 476 3 442 -3 _c
408 -9 373 -13 339 -13 _c
251 -13 182 12 131 62 _c
80 112 55 181 55 268 _c
55 357 79 428 127 481 _c
175 533 241 560 323 560 _c
397 560 455 536 498 489 _c
}_e{540 441 562 377 562 296 _c
472 322 _m
471 371 457 410 431 440 _c
404 469 368 484 324 484 _c
274 484 234 469 204 441 _c
174 413 156 373 152 322 _c
472 322 _l
_cl}_e}_d
/f{352 0 23 0 371 760 _sc
371 760 _m
371 685 _l
285 685 _l
253 685 230 678 218 665 _c
205 652 199 629 199 595 _c
199 547 _l
347 547 _l
347 477 _l
199 477 _l
199 0 _l
109 0 _l
109 477 _l
23 477 _l
23 547 _l
109 547 _l
109 585 _l
109 645 123 690 151 718 _c
179 746 224 760 286 760 _c
371 760 _l
_cl}_d
/g{{635 0 55 -207 544 560 _sc
454 280 _m
454 344 440 395 414 431 _c
387 467 349 485 301 485 _c
253 485 215 467 188 431 _c
161 395 148 344 148 280 _c
148 215 161 165 188 129 _c
215 93 253 75 301 75 _c
349 75 387 93 414 129 _c
440 165 454 215 454 280 _c
544 68 _m
544 -24 523 -93 482 -139 _c
440 -184 377 -207 292 -207 _c
260 -207 231 -204 203 -200 _c
175 -195 147 -188 121 -178 _c
}_e{121 -91 _l
147 -105 173 -115 199 -122 _c
225 -129 251 -133 278 -133 _c
336 -133 380 -117 410 -87 _c
439 -56 454 -10 454 52 _c
454 96 _l
435 64 411 40 382 24 _c
353 8 319 0 279 0 _c
211 0 157 25 116 76 _c
75 127 55 195 55 280 _c
55 364 75 432 116 483 _c
157 534 211 560 279 560 _c
319 560 353 552 382 536 _c
411 520 435 496 454 464 _c
454 547 _l
544 547 _l
}_e{544 68 _l
_cl}_e}_d
/h{634 0 91 0 549 760 _sc
549 330 _m
549 0 _l
459 0 _l
459 327 _l
459 379 448 417 428 443 _c
408 469 378 482 338 482 _c
289 482 251 466 223 435 _c
195 404 181 362 181 309 _c
181 0 _l
91 0 _l
91 760 _l
181 760 _l
181 462 _l
202 494 227 519 257 535 _c
286 551 320 560 358 560 _c
420 560 468 540 500 501 _c
532 462 549 405 549 330 _c
_cl}_d
/i{278 0 94 0 184 760 _sc
94 547 _m
184 547 _l
184 0 _l
94 0 _l
94 547 _l
94 760 _m
184 760 _l
184 646 _l
94 646 _l
94 760 _l
_cl}_d
/l{278 0 94 0 184 760 _sc
94 760 _m
184 760 _l
184 0 _l
94 0 _l
94 760 _l
_cl}_d
/m{{974 0 91 0 889 560 _sc
520 442 _m
542 482 569 511 600 531 _c
631 550 668 560 711 560 _c
767 560 811 540 842 500 _c
873 460 889 403 889 330 _c
889 0 _l
799 0 _l
799 327 _l
799 379 789 418 771 444 _c
752 469 724 482 686 482 _c
639 482 602 466 575 435 _c
548 404 535 362 535 309 _c
535 0 _l
445 0 _l
445 327 _l
445 379 435 418 417 444 _c
398 469 369 482 331 482 _c
}_e{285 482 248 466 221 435 _c
194 404 181 362 181 309 _c
181 0 _l
91 0 _l
91 547 _l
181 547 _l
181 462 _l
201 495 226 520 255 536 _c
283 552 317 560 357 560 _c
397 560 430 550 458 530 _c
486 510 506 480 520 442 _c
_cl}_e}_d
/n{634 0 91 0 549 560 _sc
549 330 _m
549 0 _l
459 0 _l
459 327 _l
459 379 448 417 428 443 _c
408 469 378 482 338 482 _c
289 482 251 466 223 435 _c
195 404 181 362 181 309 _c
181 0 _l
91 0 _l
91 547 _l
181 547 _l
181 462 _l
202 494 227 519 257 535 _c
286 551 320 560 358 560 _c
420 560 468 540 500 501 _c
532 462 549 405 549 330 _c
_cl}_d
/o{612 0 55 -13 557 560 _sc
306 484 _m
258 484 220 465 192 427 _c
164 389 150 338 150 273 _c
150 207 163 156 191 118 _c
219 80 257 62 306 62 _c
354 62 392 80 420 118 _c
448 156 462 207 462 273 _c
462 337 448 389 420 427 _c
392 465 354 484 306 484 _c
306 560 _m
384 560 445 534 490 484 _c
534 433 557 363 557 273 _c
557 183 534 113 490 63 _c
445 12 384 -13 306 -13 _c
227 -13 165 12 121 63 _c
77 113 55 183 55 273 _c
55 363 77 433 121 484 _c
165 534 227 560 306 560 _c
_cl}_d
/p{{635 0 91 -207 580 560 _sc
181 82 _m
181 -207 _l
91 -207 _l
91 547 _l
181 547 _l
181 464 _l
199 496 223 520 252 536 _c
281 552 316 560 356 560 _c
422 560 476 533 518 481 _c
559 428 580 359 580 273 _c
580 187 559 117 518 65 _c
476 13 422 -13 356 -13 _c
316 -13 281 -5 252 10 _c
223 25 199 49 181 82 _c
487 273 _m
487 339 473 390 446 428 _c
418 466 381 485 334 485 _c
}_e{286 485 249 466 222 428 _c
194 390 181 339 181 273 _c
181 207 194 155 222 117 _c
249 79 286 61 334 61 _c
381 61 418 79 446 117 _c
473 155 487 207 487 273 _c
_cl}_e}_d
/r{411 0 91 0 411 560 _sc
411 463 _m
401 469 390 473 378 476 _c
366 478 353 480 339 480 _c
288 480 249 463 222 430 _c
194 397 181 350 181 288 _c
181 0 _l
91 0 _l
91 547 _l
181 547 _l
181 462 _l
199 495 224 520 254 536 _c
284 552 321 560 365 560 _c
371 560 378 559 386 559 _c
393 558 401 557 411 555 _c
411 463 _l
_cl}_d
/s{{521 0 54 -13 472 560 _sc
443 531 _m
443 446 _l
417 458 391 468 364 475 _c
336 481 308 485 279 485 _c
234 485 200 478 178 464 _c
156 450 145 430 145 403 _c
145 382 153 366 169 354 _c
185 342 217 330 265 320 _c
296 313 _l
360 299 405 279 432 255 _c
458 230 472 195 472 151 _c
472 100 452 60 412 31 _c
372 1 316 -13 246 -13 _c
216 -13 186 -10 154 -5 _c
}_e{122 0 89 8 54 20 _c
54 113 _l
87 95 120 82 152 74 _c
184 65 216 61 248 61 _c
290 61 323 68 346 82 _c
368 96 380 117 380 144 _c
380 168 371 187 355 200 _c
339 213 303 226 247 238 _c
216 245 _l
160 257 119 275 95 299 _c
70 323 58 356 58 399 _c
58 450 76 490 112 518 _c
148 546 200 560 268 560 _c
301 560 332 557 362 552 _c
391 547 418 540 443 531 _c
}_e{_cl}_e}_d
/t{392 0 27 0 368 702 _sc
183 702 _m
183 547 _l
368 547 _l
368 477 _l
183 477 _l
183 180 _l
183 135 189 106 201 94 _c
213 81 238 75 276 75 _c
368 75 _l
368 0 _l
276 0 _l
206 0 158 13 132 39 _c
106 65 93 112 93 180 _c
93 477 _l
27 477 _l
27 547 _l
93 547 _l
93 702 _l
183 702 _l
_cl}_d
/u{634 0 85 -13 543 547 _sc
85 216 _m
85 547 _l
175 547 _l
175 219 _l
175 167 185 129 205 103 _c
225 77 255 64 296 64 _c
344 64 383 79 411 110 _c
439 141 453 183 453 237 _c
453 547 _l
543 547 _l
543 0 _l
453 0 _l
453 84 _l
431 50 405 26 377 10 _c
348 -5 315 -13 277 -13 _c
214 -13 166 6 134 45 _c
101 83 85 140 85 216 _c
_cl}_d
/minus{838 0 106 272 732 355 _sc
106 355 _m
732 355 _l
732 272 _l
106 272 _l
106 355 _l
_cl}_d
end readonly def

/BuildGlyph
 {exch begin
 CharStrings exch
 2 copy known not{pop /.notdef}if
 true 3 1 roll get exec
 end}_d

/BuildChar {
 1 index /Encoding get exch get
 1 index /BuildGlyph get exec
}_d

FontName currentdict end definefont pop
%!PS-Adobe-3.0 Resource-Font
%%Title: cmr10
%%Copyright: Copyright (C) 1994, Basil K. Malyshev. All Rights Reserved.012BaKoMa Fonts Collection, Level-B.
%%Creator: Converted from TrueType to type 3 by PPR
25 dict begin
/_d{bind def}bind def
/_m{moveto}_d
/_l{lineto}_d
/_cl{closepath eofill}_d
/_c{curveto}_d
/_sc{7 -1 roll{setcachedevice}{pop pop pop pop pop pop}ifelse}_d
/_e{exec}_d
/FontName /Cmr10 def
/PaintType 0 def
/FontMatrix[.001 0 0 .001 0 0]def
/FontBBox[-44 -250 1009 750]def
/FontType 3 def
/Encoding [ /two ] def
/FontInfo 10 dict dup begin
/FamilyName (cmr10) def
/FullName (cmr10) def
/Notice (Copyright (C) 1994, Basil K. Malyshev. All Rights Reserved.012BaKoMa Fonts Collection, Level-B. ) def
/Weight (Regular) def
/Version (1.1/12-Nov-94) def
/ItalicAngle 0.0 def
/isFixedPitch false def
/UnderlinePosition -133 def
/UnderlineThickness 20 def
end readonly def
/CharStrings 1 dict dup begin
/two{{500 0 50 0 449 666 _sc
50 0 _m
50 27 _l
50 28 50 30 52 32 _c
207 204 _l
230 229 249 250 264 268 _c
278 285 293 305 307 327 _c
321 349 333 372 341 396 _c
349 419 354 444 354 470 _c
354 497 349 523 339 548 _c
329 573 314 593 294 608 _c
274 623 249 631 221 631 _c
192 631 166 622 143 605 _c
119 587 103 565 94 537 _c
96 537 100 538 105 538 _c
}_e{119 538 132 533 143 523 _c
153 513 159 500 159 484 _c
159 468 153 455 143 445 _c
132 434 119 429 105 429 _c
89 429 76 434 66 445 _c
55 456 50 469 50 484 _c
50 508 54 532 64 554 _c
73 576 86 595 104 613 _c
122 630 142 643 164 652 _c
186 661 210 666 236 666 _c
274 666 309 658 342 642 _c
375 626 401 603 420 573 _c
439 543 449 509 449 470 _c
}_e{449 441 442 414 430 388 _c
417 362 401 338 381 317 _c
361 295 336 271 305 244 _c
274 217 254 199 244 190 _c
131 81 _l
227 81 _l
274 81 313 81 345 82 _c
377 82 394 84 396 86 _c
404 94 412 125 420 178 _c
449 178 _l
421 0 _l
50 0 _l
_cl}_e}_d
end readonly def

/BuildGlyph
 {exch begin
 CharStrings exch
 2 copy known not{pop /.notdef}if
 true 3 1 roll get exec
 end}_d

/BuildChar {
 1 index /Encoding get exch get
 1 index /BuildGlyph get exec
}_d

FontName currentdict end definefont pop
end
%%EndProlog
mpldict begin
-54 36 translate
720 720 0 0 clipbox
100000 setmiterlimit
3.000 setlinewidth
0 setlinejoin
0 setlinecap
[] 0 setdash
1.000 setgray
gsave
0 0 m
720 0 l
720 720 l
0 720 l
cl
gsave
fill
grestore
stroke
grestore
gsave
71.850234 407.88 m
690.44625 407.88 l
690.44625 691.24 l
71.850234 691.24 l
cl
fill
grestore
2.000 setlinewidth
1 setlinejoin
2 setlinecap
0.000 0.000 1.000 setrgbcolor
gsave
618.6 283.4 71.85 407.9 clipbox
71.850234 451.179423 m
138.261068 452.181661 l
192.184394 453.095095 l
227.944074 453.920249 l
258.027614 454.830571 l
285.273084 455.875621 l
305.707187 456.862729 l
322.735605 457.906118 l
337.493568 459.034375 l
348.278234 460.071951 l
357.360057 461.161379 l
365.306653 462.323191 l
372.685634 463.610638 l
380.064616 465.129726 l
386.875983 466.765619 l
393.119737 468.496543 l
398.795876 470.29228 l
404.472016 472.326582 l
409.580542 474.382998 l
414.689067 476.672823 l
419.797593 479.215084 l
424.906119 482.02881 l
429.44703 484.77318 l
433.987942 487.760252 l
439.096468 491.405117 l
444.772607 495.752452 l
451.016361 500.815271 l
459.53057 508.029146 l
479.964673 525.472627 l
486.208426 530.465323 l
492.45218 535.165915 l
498.12832 539.171769 l
503.804459 542.913586 l
509.480599 546.38231 l
515.156738 549.568887 l
520.265264 552.188084 l
525.37379 554.564805 l
530.482315 556.692446 l
535.590841 558.564406 l
540.699367 560.191593 l
549.213576 562.615039 l
557.160172 564.947597 l
562.268697 566.685074 l
566.241995 568.251463 l
570.215293 570.063861 l
573.620976 571.853197 l
577.02666 573.895361 l
580.432344 576.223627 l
583.270414 578.406402 l
586.108484 580.830219 l
588.946553 583.514331 l
591.784623 586.477993 l
594.622693 589.74046 l
597.460763 593.320986 l
600.298833 597.238825 l
603.136902 601.513233 l
605.974972 606.163463 l
608.813042 611.20877 l
611.651112 616.668409 l
614.489182 622.561634 l
617.327251 628.907699 l
620.165321 635.72586 l
623.003391 643.03537 l
626.409075 652.482473 l
629.814759 662.698118 l
633.220442 673.715576 l
636.626126 685.568119 l
638.896582 693.950181 l
638.896582 693.950181 l
stroke
grestore
1.000 0.000 0.000 setrgbcolor
gsave
618.6 283.4 71.85 407.9 clipbox
71.850234 455.061329 m
129.746858 455.638648 l
223.403162 456.571357 l
265.406595 457.230391 l
298.328205 457.957161 l
319.329922 458.636641 l
336.35834 459.406348 l
347.71062 460.121193 l
356.792443 460.898481 l
365.306653 461.851659 l
372.685634 462.893068 l
379.497002 464.061505 l
386.308369 465.458132 l
391.984509 466.834706 l
397.660648 468.445866 l
402.769174 470.128464 l
407.8777 472.060632 l
412.418611 474.010437 l
416.959523 476.199538 l
421.500435 478.647746 l
426.041346 481.374877 l
430.014644 484.005496 l
433.987942 486.877842 l
438.528854 490.449871 l
443.637379 494.78128 l
449.313519 499.899326 l
456.6925 506.878221 l
477.694217 526.955235 l
483.370357 531.978637 l
488.478882 536.210192 l
494.155022 540.619166 l
500.966389 545.613291 l
511.751055 553.184283 l
522.53572 560.829476 l
528.779473 565.507482 l
534.455613 570.033685 l
539.564139 574.401171 l
544.10505 578.583346 l
548.078348 582.526175 l
552.051646 586.777935 l
556.024944 591.38101 l
559.430627 595.638247 l
562.836311 600.212911 l
565.674381 604.333905 l
568.512451 608.854471 l
570.782907 612.836963 l
573.053362 617.209488 l
575.323818 622.031737 l
577.594274 627.363402 l
579.86473 633.264174 l
582.135186 639.793746 l
584.405642 647.011808 l
586.676098 654.978052 l
588.946553 663.752169 l
591.217009 673.393852 l
593.487465 683.96279 l
595.757921 695.518677 l
598.028377 708.121203 l
600.16552 721 l
600.16552 721 l
stroke
grestore
0.000 0.500 0.000 setrgbcolor
gsave
618.6 283.4 71.85 407.9 clipbox
71.850234 451.355736 m
105.907072 451.700845 l
160.398012 451.991365 l
213.186111 452.348549 l
245.540107 452.788293 l
272.785577 453.376066 l
296.057749 454.089018 l
315.356624 454.898648 l
331.817429 455.803242 l
342.602094 456.57941 l
350.54869 457.359333 l
357.360057 458.236391 l
363.603811 459.254865 l
369.27995 460.392399 l
374.95609 461.761566 l
380.064616 463.215908 l
385.173141 464.901235 l
390.281667 466.826496 l
395.390192 468.995609 l
400.498718 471.412466 l
405.607244 474.080958 l
410.715769 477.004975 l
415.824295 480.18841 l
420.932821 483.635153 l
426.041346 487.349095 l
431.149872 491.334128 l
436.258398 495.591098 l
441.934537 500.601581 l
448.745905 506.910646 l
458.395342 516.182086 l
474.288533 531.483269 l
481.667515 538.246494 l
487.343654 543.169367 l
493.019794 547.808421 l
498.695934 552.158809 l
504.372073 556.216701 l
510.048213 559.978266 l
515.156738 563.107149 l
520.265264 565.99011 l
525.37379 568.624357 l
530.482315 571.007098 l
535.590841 573.135539 l
545.807892 577.190215 l
548.645962 578.609448 l
551.484032 580.301095 l
553.754488 581.90277 l
556.024944 583.768308 l
558.295399 585.937495 l
560.565855 588.450116 l
562.836311 591.345958 l
565.106767 594.664806 l
567.377223 598.446445 l
569.647679 602.730662 l
571.918135 607.557243 l
574.18859 612.965972 l
576.459046 618.996636 l
578.729502 625.68902 l
580.999958 633.082911 l
583.270414 641.218094 l
585.54087 650.134354 l
587.811325 659.871478 l
590.081781 670.469251 l
592.352237 681.967458 l
595.190307 697.667066 l
598.028377 714.913474 l
598.970302 721 l
598.970302 721 l
stroke
grestore
0.750 0.000 0.750 setrgbcolor
gsave
618.6 283.4 71.85 407.9 clipbox
71.850234 451.323496 m
184.805413 451.828167 l
244.972493 452.308858 l
276.758875 452.763185 l
298.895819 453.283703 l
315.356624 453.893105 l
328.979359 454.611135 l
340.331638 455.418719 l
348.845848 456.245837 l
356.224829 457.185626 l
363.036197 458.284564 l
369.27995 459.523298 l
374.95609 460.86901 l
380.632229 462.448493 l
385.740755 464.091487 l
390.849281 465.974487 l
395.390192 467.876348 l
399.931104 470.016947 l
404.472016 472.419392 l
408.445314 474.754287 l
412.986225 477.697069 l
417.527137 480.923983 l
422.068049 484.42507 l
426.60896 488.190373 l
431.717486 492.729758 l
436.826012 497.57077 l
443.069765 503.802957 l
453.286817 514.376569 l
463.503868 524.851907 l
470.882849 532.091868 l
477.126603 537.926292 l
482.802743 542.950596 l
488.478882 547.675827 l
494.722636 552.584351 l
503.804459 559.412481 l
516.291966 568.816431 l
521.400492 572.978188 l
525.37379 576.48826 l
529.347087 580.317517 l
532.752771 583.909276 l
536.158455 587.835431 l
539.564139 592.148802 l
542.402209 596.091158 l
545.240278 600.396662 l
548.078348 605.109277 l
550.916418 610.272965 l
553.754488 615.93169 l
556.592558 622.129413 l
559.430627 628.910098 l
562.268697 636.317994 l
565.106767 644.433628 l
567.377223 651.537369 l
569.647679 659.273283 l
571.918135 667.723391 l
574.18859 676.969715 l
576.459046 687.094276 l
578.729502 698.179093 l
580.999958 710.306189 l
582.846274 721 l
582.846274 721 l
stroke
grestore
1.000 setlinewidth
0 setlinejoin
0.000 setgray
gsave
71.850234 691.24 m
690.44625 691.24 l
stroke
grestore
gsave
690.44625 407.88 m
690.44625 691.24 l
stroke
grestore
gsave
71.850234 407.88 m
690.44625 407.88 l
stroke
grestore
gsave
71.850234 407.88 m
71.850234 691.24 l
stroke
grestore
0.500 setlinewidth
1 setlinejoin
0 setlinecap
gsave
/o {
gsave
newpath
translate
0.5 setlinewidth
1 setlinejoin
0 setlinecap
0 0 m
0 4 l

gsave
0.000 setgray
fill
grestore
stroke
grestore
} bind def
71.8502 407.88 o
grestore
gsave
/o {
gsave
newpath
translate
0.5 setlinewidth
1 setlinejoin
0 setlinecap
0 0 m
0 -4 l

gsave
0.000 setgray
fill
grestore
stroke
grestore
} bind def
71.8502 691.24 o
grestore
/BitstreamVeraSans-Roman findfont
15.000 scalefont
setfont
gsave
59.920547 392.489375 translate
0.000000 rotate
0.000000 0.000000 m /zero glyphshow
9.543457 0.000000 m /period glyphshow
14.311523 0.000000 m /zero glyphshow
grestore
gsave
/o {
gsave
newpath
translate
0.5 setlinewidth
1 setlinejoin
0 setlinecap
0 0 m
0 4 l

gsave
0.000 setgray
fill
grestore
stroke
grestore
} bind def
174.95 407.88 o
grestore
gsave
/o {
gsave
newpath
translate
0.5 setlinewidth
1 setlinejoin
0 setlinecap
0 0 m
0 -4 l

gsave
0.000 setgray
fill
grestore
stroke
grestore
} bind def
174.95 691.24 o
grestore
gsave
163.019883 392.489375 translate
0.000000 rotate
0.000000 0.000000 m /zero glyphshow
9.543457 0.000000 m /period glyphshow
14.311523 0.000000 m /one glyphshow
grestore
gsave
/o {
gsave
newpath
translate
0.5 setlinewidth
1 setlinejoin
0 setlinecap
0 0 m
0 4 l

gsave
0.000 setgray
fill
grestore
stroke
grestore
} bind def
278.049 407.88 o
grestore
gsave
/o {
gsave
newpath
translate
0.5 setlinewidth
1 setlinejoin
0 setlinecap
0 0 m
0 -4 l

gsave
0.000 setgray
fill
grestore
stroke
grestore
} bind def
278.049 691.24 o
grestore
gsave
266.119219 392.489375 translate
0.000000 rotate
0.000000 0.000000 m /zero glyphshow
9.543457 0.000000 m /period glyphshow
14.311523 0.000000 m /two glyphshow
grestore
gsave
/o {
gsave
newpath
translate
0.5 setlinewidth
1 setlinejoin
0 setlinecap
0 0 m
0 4 l

gsave
0.000 setgray
fill
grestore
stroke
grestore
} bind def
381.148 407.88 o
grestore
gsave
/o {
gsave
newpath
translate
0.5 setlinewidth
1 setlinejoin
0 setlinecap
0 0 m
0 -4 l

gsave
0.000 setgray
fill
grestore
stroke
grestore
} bind def
381.148 691.24 o
grestore
gsave
369.218555 392.489375 translate
0.000000 rotate
0.000000 0.000000 m /zero glyphshow
9.543457 0.000000 m /period glyphshow
14.311523 0.000000 m /three glyphshow
grestore
gsave
/o {
gsave
newpath
translate
0.5 setlinewidth
1 setlinejoin
0 setlinecap
0 0 m
0 4 l

gsave
0.000 setgray
fill
grestore
stroke
grestore
} bind def
484.248 407.88 o
grestore
gsave
/o {
gsave
newpath
translate
0.5 setlinewidth
1 setlinejoin
0 setlinecap
0 0 m
0 -4 l

gsave
0.000 setgray
fill
grestore
stroke
grestore
} bind def
484.248 691.24 o
grestore
gsave
472.317891 392.489375 translate
0.000000 rotate
0.000000 0.000000 m /zero glyphshow
9.543457 0.000000 m /period glyphshow
14.311523 0.000000 m /four glyphshow
grestore
gsave
/o {
gsave
newpath
translate
0.5 setlinewidth
1 setlinejoin
0 setlinecap
0 0 m
0 4 l

gsave
0.000 setgray
fill
grestore
stroke
grestore
} bind def
587.347 407.88 o
grestore
gsave
/o {
gsave
newpath
translate
0.5 setlinewidth
1 setlinejoin
0 setlinecap
0 0 m
0 -4 l

gsave
0.000 setgray
fill
grestore
stroke
grestore
} bind def
587.347 691.24 o
grestore
gsave
575.417227 392.489375 translate
0.000000 rotate
0.000000 0.000000 m /zero glyphshow
9.543457 0.000000 m /period glyphshow
14.311523 0.000000 m /five glyphshow
grestore
gsave
/o {
gsave
newpath
translate
0.5 setlinewidth
1 setlinejoin
0 setlinecap
0 0 m
0 4 l

gsave
0.000 setgray
fill
grestore
stroke
grestore
} bind def
690.446 407.88 o
grestore
gsave
/o {
gsave
newpath
translate
0.5 setlinewidth
1 setlinejoin
0 setlinecap
0 0 m
0 -4 l

gsave
0.000 setgray
fill
grestore
stroke
grestore
} bind def
690.446 691.24 o
grestore
gsave
678.516562 392.489375 translate
0.000000 rotate
0.000000 0.000000 m /zero glyphshow
9.543457 0.000000 m /period glyphshow
14.311523 0.000000 m /six glyphshow
grestore
gsave
321.460742 372.973750 translate
0.000000 rotate
0.000000 0.000000 m /A glyphshow
10.261230 0.000000 m /p glyphshow
19.782715 0.000000 m /p glyphshow
29.304199 0.000000 m /l glyphshow
33.471680 0.000000 m /i glyphshow
37.639160 0.000000 m /e glyphshow
46.867676 0.000000 m /d glyphshow
56.389160 0.000000 m /space glyphshow
61.157227 0.000000 m /B glyphshow
71.447754 0.000000 m /i glyphshow
75.615234 0.000000 m /a glyphshow
84.807129 0.000000 m /s glyphshow
92.622070 0.000000 m /space glyphshow
97.390137 0.000000 m /bracketleft glyphshow
103.242188 0.000000 m /V glyphshow
113.503418 0.000000 m /bracketright glyphshow
grestore
gsave
/o {
gsave
newpath
translate
0.5 setlinewidth
1 setlinejoin
0 setlinecap
0 0 m
4 0 l

gsave
0.000 setgray
fill
grestore
stroke
grestore
} bind def
71.8502 407.88 o
grestore
gsave
/o {
gsave
newpath
translate
0.5 setlinewidth
1 setlinejoin
0 setlinecap
0 0 m
-4 0 l

gsave
0.000 setgray
fill
grestore
stroke
grestore
} bind def
690.446 407.88 o
grestore
gsave
36.193984 403.747187 translate
0.000000 rotate
0.000000 0.000000 m /minus glyphshow
12.568359 0.000000 m /two glyphshow
22.111816 0.000000 m /five glyphshow
grestore
gsave
/o {
gsave
newpath
translate
0.5 setlinewidth
1 setlinejoin
0 setlinecap
0 0 m
4 0 l

gsave
0.000 setgray
fill
grestore
stroke
grestore
} bind def
71.8502 439.364 o
grestore
gsave
/o {
gsave
newpath
translate
0.5 setlinewidth
1 setlinejoin
0 setlinecap
0 0 m
-4 0 l

gsave
0.000 setgray
fill
grestore
stroke
grestore
} bind def
690.446 439.364 o
grestore
gsave
36.193984 435.231632 translate
0.000000 rotate
0.000000 0.000000 m /minus glyphshow
12.568359 0.000000 m /two glyphshow
22.111816 0.000000 m /zero glyphshow
grestore
gsave
/o {
gsave
newpath
translate
0.5 setlinewidth
1 setlinejoin
0 setlinecap
0 0 m
4 0 l

gsave
0.000 setgray
fill
grestore
stroke
grestore
} bind def
71.8502 470.849 o
grestore
gsave
/o {
gsave
newpath
translate
0.5 setlinewidth
1 setlinejoin
0 setlinecap
0 0 m
-4 0 l

gsave
0.000 setgray
fill
grestore
stroke
grestore
} bind def
690.446 470.849 o
grestore
gsave
36.193984 466.716076 translate
0.000000 rotate
0.000000 0.000000 m /minus glyphshow
12.568359 0.000000 m /one glyphshow
22.111816 0.000000 m /five glyphshow
grestore
gsave
/o {
gsave
newpath
translate
0.5 setlinewidth
1 setlinejoin
0 setlinecap
0 0 m
4 0 l

gsave
0.000 setgray
fill
grestore
stroke
grestore
} bind def
71.8502 502.333 o
grestore
gsave
/o {
gsave
newpath
translate
0.5 setlinewidth
1 setlinejoin
0 setlinecap
0 0 m
-4 0 l

gsave
0.000 setgray
fill
grestore
stroke
grestore
} bind def
690.446 502.333 o
grestore
gsave
36.193984 498.200521 translate
0.000000 rotate
0.000000 0.000000 m /minus glyphshow
12.568359 0.000000 m /one glyphshow
22.111816 0.000000 m /zero glyphshow
grestore
gsave
/o {
gsave
newpath
translate
0.5 setlinewidth
1 setlinejoin
0 setlinecap
0 0 m
4 0 l

gsave
0.000 setgray
fill
grestore
stroke
grestore
} bind def
71.8502 533.818 o
grestore
gsave
/o {
gsave
newpath
translate
0.5 setlinewidth
1 setlinejoin
0 setlinecap
0 0 m
-4 0 l

gsave
0.000 setgray
fill
grestore
stroke
grestore
} bind def
690.446 533.818 o
grestore
gsave
45.740859 529.684965 translate
0.000000 rotate
0.000000 0.000000 m /minus glyphshow
12.568359 0.000000 m /five glyphshow
grestore
gsave
/o {
gsave
newpath
translate
0.5 setlinewidth
1 setlinejoin
0 setlinecap
0 0 m
4 0 l

gsave
0.000 setgray
fill
grestore
stroke
grestore
} bind def
71.8502 565.302 o
grestore
gsave
/o {
gsave
newpath
translate
0.5 setlinewidth
1 setlinejoin
0 setlinecap
0 0 m
-4 0 l

gsave
0.000 setgray
fill
grestore
stroke
grestore
} bind def
690.446 565.302 o
grestore
gsave
58.303359 561.169410 translate
0.000000 rotate
0.000000 0.000000 m /zero glyphshow
grestore
gsave
/o {
gsave
newpath
translate
0.5 setlinewidth
1 setlinejoin
0 setlinecap
0 0 m
4 0 l

gsave
0.000 setgray
fill
grestore
stroke
grestore
} bind def
71.8502 596.787 o
grestore
gsave
/o {
gsave
newpath
translate
0.5 setlinewidth
1 setlinejoin
0 setlinecap
0 0 m
-4 0 l

gsave
0.000 setgray
fill
grestore
stroke
grestore
} bind def
690.446 596.787 o
grestore
gsave
58.303359 592.653854 translate
0.000000 rotate
0.000000 0.000000 m /five glyphshow
grestore
gsave
/o {
gsave
newpath
translate
0.5 setlinewidth
1 setlinejoin
0 setlinecap
0 0 m
4 0 l

gsave
0.000 setgray
fill
grestore
stroke
grestore
} bind def
71.8502 628.271 o
grestore
gsave
/o {
gsave
newpath
translate
0.5 setlinewidth
1 setlinejoin
0 setlinecap
0 0 m
-4 0 l

gsave
0.000 setgray
fill
grestore
stroke
grestore
} bind def
690.446 628.271 o
grestore
gsave
48.756484 624.138299 translate
0.000000 rotate
0.000000 0.000000 m /one glyphshow
9.543457 0.000000 m /zero glyphshow
grestore
gsave
/o {
gsave
newpath
translate
0.5 setlinewidth
1 setlinejoin
0 setlinecap
0 0 m
4 0 l

gsave
0.000 setgray
fill
grestore
stroke
grestore
} bind def
71.8502 659.756 o
grestore
gsave
/o {
gsave
newpath
translate
0.5 setlinewidth
1 setlinejoin
0 setlinecap
0 0 m
-4 0 l

gsave
0.000 setgray
fill
grestore
stroke
grestore
} bind def
690.446 659.756 o
grestore
gsave
48.756484 655.622743 translate
0.000000 rotate
0.000000 0.000000 m /one glyphshow
9.543457 0.000000 m /five glyphshow
grestore
gsave
/o {
gsave
newpath
translate
0.5 setlinewidth
1 setlinejoin
0 setlinecap
0 0 m
4 0 l

gsave
0.000 setgray
fill
grestore
stroke
grestore
} bind def
71.8502 691.24 o
grestore
gsave
/o {
gsave
newpath
translate
0.5 setlinewidth
1 setlinejoin
0 setlinecap
0 0 m
-4 0 l

gsave
0.000 setgray
fill
grestore
stroke
grestore
} bind def
690.446 691.24 o
grestore
gsave
48.756484 687.107188 translate
0.000000 rotate
0.000000 0.000000 m /two glyphshow
9.543457 0.000000 m /zero glyphshow
grestore
gsave
28.068984 507.060000 translate
90.000000 rotate
/BitstreamVeraSans-Roman findfont
15.0 scalefont
setfont
0.000000 0.271328 moveto
/bracketleft glyphshow

5.852051 0.271328 moveto
/m glyphshow

20.463867 0.271328 moveto
/space glyphshow

25.231934 0.271328 moveto
/A glyphshow

35.493164 0.271328 moveto
/space glyphshow

40.261230 0.271328 moveto
/c glyphshow

48.508301 0.271328 moveto
/m glyphshow

/Cmsy10 findfont
10.5 scalefont
setfont
63.789738 6.010937 moveto
/minus glyphshow

/Cmr10 findfont
10.5 scalefont
setfont
71.946721 6.010937 moveto
/two glyphshow

/BitstreamVeraSans-Roman findfont
15.0 scalefont
setfont
78.153322 0.271328 moveto
/bracketright glyphshow


grestore
/BitstreamVeraSans-Roman findfont
14.400 scalefont
setfont
gsave
225.007617 696.240000 translate
0.000000 rotate
0.000000 0.000000 m /I glyphshow
4.239502 0.000000 m /l glyphshow
8.233337 0.000000 m /l glyphshow
12.227173 0.000000 m /u glyphshow
21.337891 0.000000 m /m glyphshow
35.340881 0.000000 m /i glyphshow
39.334717 0.000000 m /n glyphshow
48.445435 0.000000 m /a glyphshow
57.254333 0.000000 m /t glyphshow
62.890625 0.000000 m /e glyphshow
71.734619 0.000000 m /d glyphshow
80.859375 0.000000 m /space glyphshow
85.428772 0.000000 m /C glyphshow
95.466003 0.000000 m /u glyphshow
104.576721 0.000000 m /r glyphshow
110.486755 0.000000 m /r glyphshow
116.396790 0.000000 m /e glyphshow
125.240784 0.000000 m /n glyphshow
134.351501 0.000000 m /t glyphshow
139.987793 0.000000 m /hyphen glyphshow
145.174866 0.000000 m /V glyphshow
154.992920 0.000000 m /o glyphshow
163.787781 0.000000 m /l glyphshow
167.781616 0.000000 m /t glyphshow
173.417908 0.000000 m /a glyphshow
182.226807 0.000000 m /g glyphshow
191.351562 0.000000 m /e glyphshow
200.195557 0.000000 m /space glyphshow
204.764954 0.000000 m /C glyphshow
214.802185 0.000000 m /h glyphshow
223.912903 0.000000 m /a glyphshow
232.721802 0.000000 m /r glyphshow
238.631836 0.000000 m /a glyphshow
247.440735 0.000000 m /c glyphshow
255.344177 0.000000 m /t glyphshow
260.980469 0.000000 m /e glyphshow
269.824463 0.000000 m /r glyphshow
275.734497 0.000000 m /i glyphshow
279.728333 0.000000 m /s glyphshow
287.217651 0.000000 m /t glyphshow
292.853943 0.000000 m /i glyphshow
296.847778 0.000000 m /c glyphshow
304.751221 0.000000 m /s glyphshow
grestore
1.000 setlinewidth
0 setlinejoin
gsave
79.350234 591.1775 m
253.115859 591.1775 l
253.115859 683.74 l
79.350234 683.74 l
cl
gsave
1.000 setgray
fill
grestore
stroke
grestore
2.000 setlinewidth
1 setlinejoin
2 setlinecap
0.000 0.000 1.000 setrgbcolor
gsave
89.850234 671.599375 m
110.850234 671.599375 l
stroke
grestore
0.000 setgray
/BitstreamVeraSans-Roman findfont
15.000 scalefont
setfont
gsave
127.350234 666.349375 translate
0.000000 rotate
0.000000 0.000000 m /D glyphshow
11.550293 0.000000 m /o glyphshow
20.727539 0.000000 m /p glyphshow
30.249023 0.000000 m /i glyphshow
34.416504 0.000000 m /n glyphshow
43.923340 0.000000 m /g glyphshow
53.444824 0.000000 m /space glyphshow
58.212891 0.000000 m /P glyphshow
67.258301 0.000000 m /r glyphshow
73.425293 0.000000 m /o glyphshow
82.602539 0.000000 m /f glyphshow
87.883301 0.000000 m /i glyphshow
92.050781 0.000000 m /l glyphshow
96.218262 0.000000 m /e glyphshow
105.446777 0.000000 m /space glyphshow
110.214844 0.000000 m /one glyphshow
grestore
1.000 0.000 0.000 setrgbcolor
gsave
89.850234 649.58375 m
110.850234 649.58375 l
stroke
grestore
0.000 setgray
gsave
127.350234 644.333750 translate
0.000000 rotate
0.000000 0.000000 m /D glyphshow
11.550293 0.000000 m /o glyphshow
20.727539 0.000000 m /p glyphshow
30.249023 0.000000 m /i glyphshow
34.416504 0.000000 m /n glyphshow
43.923340 0.000000 m /g glyphshow
53.444824 0.000000 m /space glyphshow
58.212891 0.000000 m /P glyphshow
67.258301 0.000000 m /r glyphshow
73.425293 0.000000 m /o glyphshow
82.602539 0.000000 m /f glyphshow
87.883301 0.000000 m /i glyphshow
92.050781 0.000000 m /l glyphshow
96.218262 0.000000 m /e glyphshow
105.446777 0.000000 m /space glyphshow
110.214844 0.000000 m /two glyphshow
grestore
0.000 0.500 0.000 setrgbcolor
gsave
89.850234 627.568125 m
110.850234 627.568125 l
stroke
grestore
0.000 setgray
gsave
127.350234 622.318125 translate
0.000000 rotate
0.000000 0.000000 m /D glyphshow
11.550293 0.000000 m /o glyphshow
20.727539 0.000000 m /p glyphshow
30.249023 0.000000 m /i glyphshow
34.416504 0.000000 m /n glyphshow
43.923340 0.000000 m /g glyphshow
53.444824 0.000000 m /space glyphshow
58.212891 0.000000 m /P glyphshow
67.258301 0.000000 m /r glyphshow
73.425293 0.000000 m /o glyphshow
82.602539 0.000000 m /f glyphshow
87.883301 0.000000 m /i glyphshow
92.050781 0.000000 m /l glyphshow
96.218262 0.000000 m /e glyphshow
105.446777 0.000000 m /space glyphshow
110.214844 0.000000 m /three glyphshow
grestore
0.750 0.000 0.750 setrgbcolor
gsave
89.850234 605.5525 m
110.850234 605.5525 l
stroke
grestore
0.000 setgray
gsave
127.350234 600.302500 translate
0.000000 rotate
0.000000 0.000000 m /D glyphshow
11.550293 0.000000 m /o glyphshow
20.727539 0.000000 m /p glyphshow
30.249023 0.000000 m /i glyphshow
34.416504 0.000000 m /n glyphshow
43.923340 0.000000 m /g glyphshow
53.444824 0.000000 m /space glyphshow
58.212891 0.000000 m /P glyphshow
67.258301 0.000000 m /r glyphshow
73.425293 0.000000 m /o glyphshow
82.602539 0.000000 m /f glyphshow
87.883301 0.000000 m /i glyphshow
92.050781 0.000000 m /l glyphshow
96.218262 0.000000 m /e glyphshow
105.446777 0.000000 m /space glyphshow
110.214844 0.000000 m /four glyphshow
grestore
gsave
71.850234 54.36 m
690.44625 54.36 l
690.44625 337.72 l
71.850234 337.72 l
cl
1.000 setgray
fill
grestore
0.000 0.000 1.000 setrgbcolor
gsave
618.6 283.4 71.85 54.36 clipbox
-1 81.849477 m
32.259161 84.669075 l
62.058894 87.425793 l
87.601522 90.003133 l
111.015598 92.56927 l
134.429674 95.356224 l
155.715197 98.102749 l
177.000721 101.071726 l
196.157692 103.950558 l
213.186111 106.706825 l
228.085977 109.312614 l
242.985844 112.136295 l
255.757158 114.756624 l
268.528472 117.58493 l
281.299786 120.643318 l
294.0711 123.953893 l
304.713862 126.921295 l
315.356624 130.091969 l
325.999386 133.478707 l
336.642147 137.094301 l
347.284909 140.951544 l
357.927671 145.063227 l
368.570433 149.442142 l
379.213195 154.101082 l
389.855956 159.053905 l
398.370166 163.241916 l
406.884375 167.644161 l
415.398585 172.273169 l
423.912794 177.14147 l
432.427003 182.261592 l
440.941213 187.646064 l
449.455422 193.307416 l
457.969632 199.258177 l
466.483841 205.510875 l
474.998051 212.07804 l
483.51226 218.972201 l
492.026469 226.205888 l
500.540679 233.791628 l
509.054888 241.741951 l
517.569098 250.069387 l
526.083307 258.786465 l
534.597517 267.905712 l
543.111726 277.43966 l
551.625935 287.400836 l
560.140145 297.80177 l
568.654354 308.654991 l
577.168564 319.972779 l
585.682773 331.750787 l
594.196983 343.957818 l
602.711192 356.56024 l
611.225401 369.524419 l
621.868163 386.187127 l
632.510925 403.296838 l
645.282239 424.326047 l
658.053553 445.790835 l
675.081972 474.89193 l
721 554.118029 l
721 554.118029 l
stroke
grestore
1.000 0.000 0.000 setrgbcolor
gsave
618.6 283.4 71.85 54.36 clipbox
-1 95.963654 m
40.77337 97.836409 l
74.830208 99.583936 l
104.629941 101.33356 l
132.301121 103.184475 l
157.84375 105.118925 l
181.257825 107.108011 l
202.543349 109.11989 l
221.70032 111.160019 l
236.600187 112.950793 l
251.500053 114.961878 l
264.271367 116.889947 l
277.042681 119.031955 l
289.813996 121.411938 l
302.58531 124.053933 l
313.228072 126.473085 l
323.870833 129.104791 l
334.513595 131.962961 l
345.156357 135.061506 l
355.799119 138.414334 l
366.44188 142.035356 l
377.084642 145.938482 l
385.598852 149.273718 l
394.113061 152.811718 l
402.627271 156.570851 l
411.14148 160.569693 l
419.655689 164.826817 l
428.169899 169.360799 l
436.684108 174.190215 l
445.198318 179.333639 l
453.712527 184.809646 l
460.098184 189.146084 l
466.483841 193.687885 l
472.869498 198.442886 l
479.255155 203.418923 l
485.640812 208.623832 l
492.026469 214.06545 l
498.412127 219.751613 l
504.797784 225.690158 l
511.183441 231.888921 l
517.569098 238.355738 l
523.954755 245.098446 l
530.340412 252.124881 l
536.726069 259.44288 l
543.111726 267.060279 l
549.497383 274.984914 l
555.88304 283.224621 l
562.268697 291.787238 l
568.654354 300.680601 l
575.040011 309.912542 l
581.425668 319.48495 l
587.811325 329.381576 l
596.325535 343.047369 l
604.839744 357.207839 l
613.353954 371.816293 l
621.868163 386.826041 l
632.510925 406.081415 l
643.153687 425.79966 l
655.925001 449.944144 l
672.95342 482.696981 l
719.781572 573.179388 l
721 575.492257 l
721 575.492257 l
stroke
grestore
0.000 0.500 0.000 setrgbcolor
gsave
618.6 283.4 71.85 54.36 clipbox
-1 66.308716 m
30.130608 68.177149 l
59.930341 70.188009 l
87.601522 72.282943 l
113.14415 74.437848 l
136.558226 76.620282 l
159.972302 79.019452 l
183.386378 81.653444 l
202.543349 84.007074 l
217.443216 86.032833 l
230.21453 87.967348 l
242.985844 90.134518 l
253.628606 92.152219 l
264.271367 94.39149 l
274.914129 96.879606 l
283.428339 99.067596 l
291.942548 101.446267 l
300.456757 104.029583 l
308.970967 106.83151 l
317.485176 109.866012 l
325.999386 113.147053 l
334.513595 116.688599 l
343.027805 120.504612 l
351.542014 124.609059 l
360.056223 129.015903 l
368.570433 133.73911 l
377.084642 138.792644 l
383.470299 142.807933 l
391.984509 148.469261 l
400.498718 154.484807 l
409.012928 160.857131 l
417.527137 167.588797 l
426.041346 174.682367 l
434.555556 182.140402 l
443.069765 189.965464 l
451.583975 198.160116 l
460.098184 206.72692 l
468.612394 215.668438 l
477.126603 224.987231 l
485.640812 234.685863 l
494.155022 244.766894 l
502.669231 255.232888 l
511.183441 266.086406 l
519.69765 277.33001 l
528.21186 288.966263 l
536.726069 300.997726 l
545.240278 313.426962 l
553.754488 326.256532 l
562.268697 339.488999 l
570.782907 353.126925 l
579.297116 367.171786 l
587.811325 381.606568 l
598.454087 400.148825 l
609.096849 419.185191 l
619.739611 438.651286 l
632.510925 462.487191 l
647.410791 490.812254 l
666.567763 527.775577 l
715.524467 622.560895 l
721 632.994579 l
721 632.994579 l
stroke
grestore
0.750 0.000 0.750 setrgbcolor
gsave
618.6 283.4 71.85 54.36 clipbox
-1 60.75051 m
30.130608 62.061613 l
57.801789 63.447296 l
81.215865 64.827589 l
104.629941 66.436506 l
125.915464 68.127818 l
145.072435 69.859297 l
164.229407 71.80949 l
183.386378 73.998097 l
200.414797 76.164821 l
215.314663 78.283517 l
228.085977 80.313728 l
240.857291 82.582421 l
251.500053 84.683039 l
262.142815 86.998447 l
272.785577 89.550998 l
283.428339 92.363044 l
291.942548 94.81454 l
300.456757 97.457863 l
308.970967 100.304459 l
317.485176 103.365773 l
325.999386 106.653249 l
334.513595 110.178333 l
343.027805 113.952468 l
351.542014 117.9871 l
360.056223 122.293673 l
368.570433 126.883633 l
377.084642 131.768424 l
385.598852 136.959734 l
394.113061 142.474292 l
402.627271 148.333577 l
409.012928 152.9673 l
415.398585 157.816259 l
421.784242 162.889593 l
428.169899 168.196441 l
434.555556 173.745943 l
440.941213 179.54724 l
447.32687 185.60947 l
453.712527 191.941773 l
460.098184 198.553289 l
466.483841 205.453159 l
472.869498 212.650521 l
479.255155 220.154489 l
485.640812 227.970251 l
492.026469 236.094875 l
498.412127 244.52442 l
504.797784 253.254949 l
511.183441 262.282523 l
519.69765 274.77455 l
528.21186 287.778319 l
536.726069 301.284493 l
545.240278 315.283737 l
553.754488 329.766714 l
562.268697 344.724087 l
570.782907 360.146521 l
579.297116 376.02331 l
587.811325 392.320412 l
598.454087 413.201176 l
609.096849 434.549181 l
621.868163 460.634577 l
641.025134 500.338635 l
670.824867 562.157004 l
685.724734 592.499296 l
698.496048 618.032502 l
711.267362 643.059213 l
721 661.74902 l
721 661.74902 l
stroke
grestore
1.000 setlinewidth
0 setlinejoin
0.000 setgray
gsave
71.850234 337.72 m
690.44625 337.72 l
stroke
grestore
gsave
690.44625 54.36 m
690.44625 337.72 l
stroke
grestore
gsave
71.850234 54.36 m
690.44625 54.36 l
stroke
grestore
gsave
71.850234 54.36 m
71.850234 337.72 l
stroke
grestore
0.500 setlinewidth
1 setlinejoin
0 setlinecap
gsave
/o {
gsave
newpath
translate
0.5 setlinewidth
1 setlinejoin
0 setlinecap
0 0 m
0 4 l

gsave
0.000 setgray
fill
grestore
stroke
grestore
} bind def
71.8502 54.36 o
grestore
gsave
/o {
gsave
newpath
translate
0.5 setlinewidth
1 setlinejoin
0 setlinecap
0 0 m
0 -4 l

gsave
0.000 setgray
fill
grestore
stroke
grestore
} bind def
71.8502 337.72 o
grestore
gsave
55.147109 38.969375 translate
0.000000 rotate
0.000000 0.000000 m /zero glyphshow
9.543457 0.000000 m /period glyphshow
14.311523 0.000000 m /two glyphshow
23.854980 0.000000 m /two glyphshow
grestore
gsave
/o {
gsave
newpath
translate
0.5 setlinewidth
1 setlinejoin
0 setlinecap
0 0 m
0 4 l

gsave
0.000 setgray
fill
grestore
stroke
grestore
} bind def
149.175 54.36 o
grestore
gsave
/o {
gsave
newpath
translate
0.5 setlinewidth
1 setlinejoin
0 setlinecap
0 0 m
0 -4 l

gsave
0.000 setgray
fill
grestore
stroke
grestore
} bind def
149.175 337.72 o
grestore
gsave
132.471611 38.969375 translate
0.000000 rotate
0.000000 0.000000 m /zero glyphshow
9.543457 0.000000 m /period glyphshow
14.311523 0.000000 m /two glyphshow
23.854980 0.000000 m /four glyphshow
grestore
gsave
/o {
gsave
newpath
translate
0.5 setlinewidth
1 setlinejoin
0 setlinecap
0 0 m
0 4 l

gsave
0.000 setgray
fill
grestore
stroke
grestore
} bind def
226.499 54.36 o
grestore
gsave
/o {
gsave
newpath
translate
0.5 setlinewidth
1 setlinejoin
0 setlinecap
0 0 m
0 -4 l

gsave
0.000 setgray
fill
grestore
stroke
grestore
} bind def
226.499 337.72 o
grestore
gsave
209.796113 38.969375 translate
0.000000 rotate
0.000000 0.000000 m /zero glyphshow
9.543457 0.000000 m /period glyphshow
14.311523 0.000000 m /two glyphshow
23.854980 0.000000 m /six glyphshow
grestore
gsave
/o {
gsave
newpath
translate
0.5 setlinewidth
1 setlinejoin
0 setlinecap
0 0 m
0 4 l

gsave
0.000 setgray
fill
grestore
stroke
grestore
} bind def
303.824 54.36 o
grestore
gsave
/o {
gsave
newpath
translate
0.5 setlinewidth
1 setlinejoin
0 setlinecap
0 0 m
0 -4 l

gsave
0.000 setgray
fill
grestore
stroke
grestore
} bind def
303.824 337.72 o
grestore
gsave
287.120615 38.969375 translate
0.000000 rotate
0.000000 0.000000 m /zero glyphshow
9.543457 0.000000 m /period glyphshow
14.311523 0.000000 m /two glyphshow
23.854980 0.000000 m /eight glyphshow
grestore
gsave
/o {
gsave
newpath
translate
0.5 setlinewidth
1 setlinejoin
0 setlinecap
0 0 m
0 4 l

gsave
0.000 setgray
fill
grestore
stroke
grestore
} bind def
381.148 54.36 o
grestore
gsave
/o {
gsave
newpath
translate
0.5 setlinewidth
1 setlinejoin
0 setlinecap
0 0 m
0 -4 l

gsave
0.000 setgray
fill
grestore
stroke
grestore
} bind def
381.148 337.72 o
grestore
gsave
364.445117 38.969375 translate
0.000000 rotate
0.000000 0.000000 m /zero glyphshow
9.543457 0.000000 m /period glyphshow
14.311523 0.000000 m /three glyphshow
23.854980 0.000000 m /zero glyphshow
grestore
gsave
/o {
gsave
newpath
translate
0.5 setlinewidth
1 setlinejoin
0 setlinecap
0 0 m
0 4 l

gsave
0.000 setgray
fill
grestore
stroke
grestore
} bind def
458.473 54.36 o
grestore
gsave
/o {
gsave
newpath
translate
0.5 setlinewidth
1 setlinejoin
0 setlinecap
0 0 m
0 -4 l

gsave
0.000 setgray
fill
grestore
stroke
grestore
} bind def
458.473 337.72 o
grestore
gsave
441.769619 38.969375 translate
0.000000 rotate
0.000000 0.000000 m /zero glyphshow
9.543457 0.000000 m /period glyphshow
14.311523 0.000000 m /three glyphshow
23.854980 0.000000 m /two glyphshow
grestore
gsave
/o {
gsave
newpath
translate
0.5 setlinewidth
1 setlinejoin
0 setlinecap
0 0 m
0 4 l

gsave
0.000 setgray
fill
grestore
stroke
grestore
} bind def
535.797 54.36 o
grestore
gsave
/o {
gsave
newpath
translate
0.5 setlinewidth
1 setlinejoin
0 setlinecap
0 0 m
0 -4 l

gsave
0.000 setgray
fill
grestore
stroke
grestore
} bind def
535.797 337.72 o
grestore
gsave
519.094121 38.969375 translate
0.000000 rotate
0.000000 0.000000 m /zero glyphshow
9.543457 0.000000 m /period glyphshow
14.311523 0.000000 m /three glyphshow
23.854980 0.000000 m /four glyphshow
grestore
gsave
/o {
gsave
newpath
translate
0.5 setlinewidth
1 setlinejoin
0 setlinecap
0 0 m
0 4 l

gsave
0.000 setgray
fill
grestore
stroke
grestore
} bind def
613.122 54.36 o
grestore
gsave
/o {
gsave
newpath
translate
0.5 setlinewidth
1 setlinejoin
0 setlinecap
0 0 m
0 -4 l

gsave
0.000 setgray
fill
grestore
stroke
grestore
} bind def
613.122 337.72 o
grestore
gsave
596.418623 38.969375 translate
0.000000 rotate
0.000000 0.000000 m /zero glyphshow
9.543457 0.000000 m /period glyphshow
14.311523 0.000000 m /three glyphshow
23.854980 0.000000 m /six glyphshow
grestore
gsave
/o {
gsave
newpath
translate
0.5 setlinewidth
1 setlinejoin
0 setlinecap
0 0 m
0 4 l

gsave
0.000 setgray
fill
grestore
stroke
grestore
} bind def
690.446 54.36 o
grestore
gsave
/o {
gsave
newpath
translate
0.5 setlinewidth
1 setlinejoin
0 setlinecap
0 0 m
0 -4 l

gsave
0.000 setgray
fill
grestore
stroke
grestore
} bind def
690.446 337.72 o
grestore
gsave
673.743125 38.969375 translate
0.000000 rotate
0.000000 0.000000 m /zero glyphshow
9.543457 0.000000 m /period glyphshow
14.311523 0.000000 m /three glyphshow
23.854980 0.000000 m /eight glyphshow
grestore
gsave
321.460742 19.453750 translate
0.000000 rotate
0.000000 0.000000 m /A glyphshow
10.261230 0.000000 m /p glyphshow
19.782715 0.000000 m /p glyphshow
29.304199 0.000000 m /l glyphshow
33.471680 0.000000 m /i glyphshow
37.639160 0.000000 m /e glyphshow
46.867676 0.000000 m /d glyphshow
56.389160 0.000000 m /space glyphshow
61.157227 0.000000 m /B glyphshow
71.447754 0.000000 m /i glyphshow
75.615234 0.000000 m /a glyphshow
84.807129 0.000000 m /s glyphshow
92.622070 0.000000 m /space glyphshow
97.390137 0.000000 m /bracketleft glyphshow
103.242188 0.000000 m /V glyphshow
113.503418 0.000000 m /bracketright glyphshow
grestore
gsave
/o {
gsave
newpath
translate
0.5 setlinewidth
1 setlinejoin
0 setlinecap
0 0 m
4 0 l

gsave
0.000 setgray
fill
grestore
stroke
grestore
} bind def
71.8502 54.36 o
grestore
gsave
/o {
gsave
newpath
translate
0.5 setlinewidth
1 setlinejoin
0 setlinecap
0 0 m
-4 0 l

gsave
0.000 setgray
fill
grestore
stroke
grestore
} bind def
690.446 54.36 o
grestore
gsave
36.193984 50.227188 translate
0.000000 rotate
0.000000 0.000000 m /minus glyphshow
12.568359 0.000000 m /one glyphshow
22.111816 0.000000 m /eight glyphshow
grestore
gsave
/o {
gsave
newpath
translate
0.5 setlinewidth
1 setlinejoin
0 setlinecap
0 0 m
4 0 l

gsave
0.000 setgray
fill
grestore
stroke
grestore
} bind def
71.8502 101.587 o
grestore
gsave
/o {
gsave
newpath
translate
0.5 setlinewidth
1 setlinejoin
0 setlinecap
0 0 m
-4 0 l

gsave
0.000 setgray
fill
grestore
stroke
grestore
} bind def
690.446 101.587 o
grestore
gsave
36.193984 97.453854 translate
0.000000 rotate
0.000000 0.000000 m /minus glyphshow
12.568359 0.000000 m /one glyphshow
22.111816 0.000000 m /seven glyphshow
grestore
gsave
/o {
gsave
newpath
translate
0.5 setlinewidth
1 setlinejoin
0 setlinecap
0 0 m
4 0 l

gsave
0.000 setgray
fill
grestore
stroke
grestore
} bind def
71.8502 148.813 o
grestore
gsave
/o {
gsave
newpath
translate
0.5 setlinewidth
1 setlinejoin
0 setlinecap
0 0 m
-4 0 l

gsave
0.000 setgray
fill
grestore
stroke
grestore
} bind def
690.446 148.813 o
grestore
gsave
36.193984 144.680521 translate
0.000000 rotate
0.000000 0.000000 m /minus glyphshow
12.568359 0.000000 m /one glyphshow
22.111816 0.000000 m /six glyphshow
grestore
gsave
/o {
gsave
newpath
translate
0.5 setlinewidth
1 setlinejoin
0 setlinecap
0 0 m
4 0 l

gsave
0.000 setgray
fill
grestore
stroke
grestore
} bind def
71.8502 196.04 o
grestore
gsave
/o {
gsave
newpath
translate
0.5 setlinewidth
1 setlinejoin
0 setlinecap
0 0 m
-4 0 l

gsave
0.000 setgray
fill
grestore
stroke
grestore
} bind def
690.446 196.04 o
grestore
gsave
36.193984 191.907188 translate
0.000000 rotate
0.000000 0.000000 m /minus glyphshow
12.568359 0.000000 m /one glyphshow
22.111816 0.000000 m /five glyphshow
grestore
gsave
/o {
gsave
newpath
translate
0.5 setlinewidth
1 setlinejoin
0 setlinecap
0 0 m
4 0 l

gsave
0.000 setgray
fill
grestore
stroke
grestore
} bind def
71.8502 243.267 o
grestore
gsave
/o {
gsave
newpath
translate
0.5 setlinewidth
1 setlinejoin
0 setlinecap
0 0 m
-4 0 l

gsave
0.000 setgray
fill
grestore
stroke
grestore
} bind def
690.446 243.267 o
grestore
gsave
36.193984 239.133854 translate
0.000000 rotate
0.000000 0.000000 m /minus glyphshow
12.568359 0.000000 m /one glyphshow
22.111816 0.000000 m /four glyphshow
grestore
gsave
/o {
gsave
newpath
translate
0.5 setlinewidth
1 setlinejoin
0 setlinecap
0 0 m
4 0 l

gsave
0.000 setgray
fill
grestore
stroke
grestore
} bind def
71.8502 290.493 o
grestore
gsave
/o {
gsave
newpath
translate
0.5 setlinewidth
1 setlinejoin
0 setlinecap
0 0 m
-4 0 l

gsave
0.000 setgray
fill
grestore
stroke
grestore
} bind def
690.446 290.493 o
grestore
gsave
36.193984 286.360521 translate
0.000000 rotate
0.000000 0.000000 m /minus glyphshow
12.568359 0.000000 m /one glyphshow
22.111816 0.000000 m /three glyphshow
grestore
gsave
/o {
gsave
newpath
translate
0.5 setlinewidth
1 setlinejoin
0 setlinecap
0 0 m
4 0 l

gsave
0.000 setgray
fill
grestore
stroke
grestore
} bind def
71.8502 337.72 o
grestore
gsave
/o {
gsave
newpath
translate
0.5 setlinewidth
1 setlinejoin
0 setlinecap
0 0 m
-4 0 l

gsave
0.000 setgray
fill
grestore
stroke
grestore
} bind def
690.446 337.72 o
grestore
gsave
36.193984 333.587188 translate
0.000000 rotate
0.000000 0.000000 m /minus glyphshow
12.568359 0.000000 m /one glyphshow
22.111816 0.000000 m /two glyphshow
grestore
gsave
28.068984 153.540000 translate
90.000000 rotate
/BitstreamVeraSans-Roman findfont
15.0 scalefont
setfont
0.000000 0.271328 moveto
/bracketleft glyphshow

5.852051 0.271328 moveto
/m glyphshow

20.463867 0.271328 moveto
/space glyphshow

25.231934 0.271328 moveto
/A glyphshow

35.493164 0.271328 moveto
/space glyphshow

40.261230 0.271328 moveto
/c glyphshow

48.508301 0.271328 moveto
/m glyphshow

/Cmsy10 findfont
10.5 scalefont
setfont
63.789738 6.010937 moveto
/minus glyphshow

/Cmr10 findfont
10.5 scalefont
setfont
71.946721 6.010937 moveto
/two glyphshow

/BitstreamVeraSans-Roman findfont
15.0 scalefont
setfont
78.153322 0.271328 moveto
/bracketright glyphshow


grestore
/BitstreamVeraSans-Roman findfont
14.400 scalefont
setfont
gsave
184.054492 342.720000 translate
0.000000 rotate
0.000000 0.000000 m /Z glyphshow
9.847717 0.000000 m /o glyphshow
18.642578 0.000000 m /o glyphshow
27.437439 0.000000 m /m glyphshow
41.440430 0.000000 m /e glyphshow
50.284424 0.000000 m /d glyphshow
59.409180 0.000000 m /space glyphshow
63.978577 0.000000 m /I glyphshow
68.218079 0.000000 m /n glyphshow
77.328796 0.000000 m /space glyphshow
81.898193 0.000000 m /I glyphshow
86.137695 0.000000 m /l glyphshow
90.131531 0.000000 m /l glyphshow
94.125366 0.000000 m /u glyphshow
103.236084 0.000000 m /m glyphshow
117.239075 0.000000 m /i glyphshow
121.232910 0.000000 m /n glyphshow
130.343628 0.000000 m /a glyphshow
139.152527 0.000000 m /t glyphshow
144.788818 0.000000 m /e glyphshow
153.632812 0.000000 m /d glyphshow
162.757568 0.000000 m /space glyphshow
167.326965 0.000000 m /C glyphshow
177.364197 0.000000 m /u glyphshow
186.474915 0.000000 m /r glyphshow
192.384949 0.000000 m /r glyphshow
198.294983 0.000000 m /e glyphshow
207.138977 0.000000 m /n glyphshow
216.249695 0.000000 m /t glyphshow
221.885986 0.000000 m /hyphen glyphshow
227.073059 0.000000 m /V glyphshow
236.891113 0.000000 m /o glyphshow
245.685974 0.000000 m /l glyphshow
249.679810 0.000000 m /t glyphshow
255.316101 0.000000 m /a glyphshow
264.125000 0.000000 m /g glyphshow
273.249756 0.000000 m /e glyphshow
282.093750 0.000000 m /space glyphshow
286.663147 0.000000 m /C glyphshow
296.700378 0.000000 m /h glyphshow
305.811096 0.000000 m /a glyphshow
314.619995 0.000000 m /r glyphshow
320.530029 0.000000 m /a glyphshow
329.338928 0.000000 m /c glyphshow
337.242371 0.000000 m /t glyphshow
342.878662 0.000000 m /e glyphshow
351.722656 0.000000 m /r glyphshow
357.632690 0.000000 m /i glyphshow
361.626526 0.000000 m /s glyphshow
369.115845 0.000000 m /t glyphshow
374.752136 0.000000 m /i glyphshow
378.745972 0.000000 m /c glyphshow
386.649414 0.000000 m /s glyphshow
grestore
1.000 setlinewidth
0 setlinejoin
gsave
79.350234 237.6575 m
253.115859 237.6575 l
253.115859 330.22 l
79.350234 330.22 l
cl
gsave
1.000 setgray
fill
grestore
stroke
grestore
2.000 setlinewidth
1 setlinejoin
2 setlinecap
0.000 0.000 1.000 setrgbcolor
gsave
89.850234 318.079375 m
110.850234 318.079375 l
stroke
grestore
0.000 setgray
/BitstreamVeraSans-Roman findfont
15.000 scalefont
setfont
gsave
127.350234 312.829375 translate
0.000000 rotate
0.000000 0.000000 m /D glyphshow
11.550293 0.000000 m /o glyphshow
20.727539 0.000000 m /p glyphshow
30.249023 0.000000 m /i glyphshow
34.416504 0.000000 m /n glyphshow
43.923340 0.000000 m /g glyphshow
53.444824 0.000000 m /space glyphshow
58.212891 0.000000 m /P glyphshow
67.258301 0.000000 m /r glyphshow
73.425293 0.000000 m /o glyphshow
82.602539 0.000000 m /f glyphshow
87.883301 0.000000 m /i glyphshow
92.050781 0.000000 m /l glyphshow
96.218262 0.000000 m /e glyphshow
105.446777 0.000000 m /space glyphshow
110.214844 0.000000 m /one glyphshow
grestore
1.000 0.000 0.000 setrgbcolor
gsave
89.850234 296.06375 m
110.850234 296.06375 l
stroke
grestore
0.000 setgray
gsave
127.350234 290.813750 translate
0.000000 rotate
0.000000 0.000000 m /D glyphshow
11.550293 0.000000 m /o glyphshow
20.727539 0.000000 m /p glyphshow
30.249023 0.000000 m /i glyphshow
34.416504 0.000000 m /n glyphshow
43.923340 0.000000 m /g glyphshow
53.444824 0.000000 m /space glyphshow
58.212891 0.000000 m /P glyphshow
67.258301 0.000000 m /r glyphshow
73.425293 0.000000 m /o glyphshow
82.602539 0.000000 m /f glyphshow
87.883301 0.000000 m /i glyphshow
92.050781 0.000000 m /l glyphshow
96.218262 0.000000 m /e glyphshow
105.446777 0.000000 m /space glyphshow
110.214844 0.000000 m /two glyphshow
grestore
0.000 0.500 0.000 setrgbcolor
gsave
89.850234 274.048125 m
110.850234 274.048125 l
stroke
grestore
0.000 setgray
gsave
127.350234 268.798125 translate
0.000000 rotate
0.000000 0.000000 m /D glyphshow
11.550293 0.000000 m /o glyphshow
20.727539 0.000000 m /p glyphshow
30.249023 0.000000 m /i glyphshow
34.416504 0.000000 m /n glyphshow
43.923340 0.000000 m /g glyphshow
53.444824 0.000000 m /space glyphshow
58.212891 0.000000 m /P glyphshow
67.258301 0.000000 m /r glyphshow
73.425293 0.000000 m /o glyphshow
82.602539 0.000000 m /f glyphshow
87.883301 0.000000 m /i glyphshow
92.050781 0.000000 m /l glyphshow
96.218262 0.000000 m /e glyphshow
105.446777 0.000000 m /space glyphshow
110.214844 0.000000 m /three glyphshow
grestore
0.750 0.000 0.750 setrgbcolor
gsave
89.850234 252.0325 m
110.850234 252.0325 l
stroke
grestore
0.000 setgray
gsave
127.350234 246.782500 translate
0.000000 rotate
0.000000 0.000000 m /D glyphshow
11.550293 0.000000 m /o glyphshow
20.727539 0.000000 m /p glyphshow
30.249023 0.000000 m /i glyphshow
34.416504 0.000000 m /n glyphshow
43.923340 0.000000 m /g glyphshow
53.444824 0.000000 m /space glyphshow
58.212891 0.000000 m /P glyphshow
67.258301 0.000000 m /r glyphshow
73.425293 0.000000 m /o glyphshow
82.602539 0.000000 m /f glyphshow
87.883301 0.000000 m /i glyphshow
92.050781 0.000000 m /l glyphshow
96.218262 0.000000 m /e glyphshow
105.446777 0.000000 m /space glyphshow
110.214844 0.000000 m /four glyphshow
grestore

end
showpage
