0.0	-1.1326e-07
1.93423597678	-1.12504e-7
3.86847195358	-1.11273e-07
7.73694390716	-9.6231e-08
9.67117988395	-5.98909e-08
11.6054158607	-1.879e-08
13.5396518375	-4.032e-09
15.4738878143	-7.879e-10
17.4081237911	2.0103e-09
19.3423597679	1.81e-08
21.2765957447	1.27958e-07
